%!PS-Adobe-3.0 EPSF-3.0
%%Creator: graphviz version 2.36.0 (20140111.2315)
%%Title: decision
%%Pages: 1
%%BoundingBox: 36 36 1073 854
%%EndComments
save
%%BeginProlog
/DotDict 200 dict def
DotDict begin

/setupLatin1 {
mark
/EncodingVector 256 array def
 EncodingVector 0

ISOLatin1Encoding 0 255 getinterval putinterval
EncodingVector 45 /hyphen put

% Set up ISO Latin 1 character encoding
/starnetISO {
        dup dup findfont dup length dict begin
        { 1 index /FID ne { def }{ pop pop } ifelse
        } forall
        /Encoding EncodingVector def
        currentdict end definefont
} def
/Times-Roman starnetISO def
/Times-Italic starnetISO def
/Times-Bold starnetISO def
/Times-BoldItalic starnetISO def
/Helvetica starnetISO def
/Helvetica-Oblique starnetISO def
/Helvetica-Bold starnetISO def
/Helvetica-BoldOblique starnetISO def
/Courier starnetISO def
/Courier-Oblique starnetISO def
/Courier-Bold starnetISO def
/Courier-BoldOblique starnetISO def
cleartomark
} bind def

%%BeginResource: procset graphviz 0 0
/coord-font-family /Times-Roman def
/default-font-family /Times-Roman def
/coordfont coord-font-family findfont 8 scalefont def

/InvScaleFactor 1.0 def
/set_scale {
       dup 1 exch div /InvScaleFactor exch def
       scale
} bind def

% styles
/solid { [] 0 setdash } bind def
/dashed { [9 InvScaleFactor mul dup ] 0 setdash } bind def
/dotted { [1 InvScaleFactor mul 6 InvScaleFactor mul] 0 setdash } bind def
/invis {/fill {newpath} def /stroke {newpath} def /show {pop newpath} def} bind def
/bold { 2 setlinewidth } bind def
/filled { } bind def
/unfilled { } bind def
/rounded { } bind def
/diagonals { } bind def
/tapered { } bind def

% hooks for setting color 
/nodecolor { sethsbcolor } bind def
/edgecolor { sethsbcolor } bind def
/graphcolor { sethsbcolor } bind def
/nopcolor {pop pop pop} bind def

/beginpage {	% i j npages
	/npages exch def
	/j exch def
	/i exch def
	/str 10 string def
	npages 1 gt {
		gsave
			coordfont setfont
			0 0 moveto
			(\() show i str cvs show (,) show j str cvs show (\)) show
		grestore
	} if
} bind def

/set_font {
	findfont exch
	scalefont setfont
} def

% draw text fitted to its expected width
/alignedtext {			% width text
	/text exch def
	/width exch def
	gsave
		width 0 gt {
			[] 0 setdash
			text stringwidth pop width exch sub text length div 0 text ashow
		} if
	grestore
} def

/boxprim {				% xcorner ycorner xsize ysize
		4 2 roll
		moveto
		2 copy
		exch 0 rlineto
		0 exch rlineto
		pop neg 0 rlineto
		closepath
} bind def

/ellipse_path {
	/ry exch def
	/rx exch def
	/y exch def
	/x exch def
	matrix currentmatrix
	newpath
	x y translate
	rx ry scale
	0 0 1 0 360 arc
	setmatrix
} bind def

/endpage { showpage } bind def
/showpage { } def

/layercolorseq
	[	% layer color sequence - darkest to lightest
		[0 0 0]
		[.2 .8 .8]
		[.4 .8 .8]
		[.6 .8 .8]
		[.8 .8 .8]
	]
def

/layerlen layercolorseq length def

/setlayer {/maxlayer exch def /curlayer exch def
	layercolorseq curlayer 1 sub layerlen mod get
	aload pop sethsbcolor
	/nodecolor {nopcolor} def
	/edgecolor {nopcolor} def
	/graphcolor {nopcolor} def
} bind def

/onlayer { curlayer ne {invis} if } def

/onlayers {
	/myupper exch def
	/mylower exch def
	curlayer mylower lt
	curlayer myupper gt
	or
	{invis} if
} def

/curlayer 0 def

%%EndResource
%%EndProlog
%%BeginSetup
14 default-font-family set_font
1 setmiterlimit
% /arrowlength 10 def
% /arrowwidth 5 def

% make sure pdfmark is harmless for PS-interpreters other than Distiller
/pdfmark where {pop} {userdict /pdfmark /cleartomark load put} ifelse
% make '<<' and '>>' safe on PS Level 1 devices
/languagelevel where {pop languagelevel}{1} ifelse
2 lt {
    userdict (<<) cvn ([) cvn load put
    userdict (>>) cvn ([) cvn load put
} if

%%EndSetup
setupLatin1
%%Page: 1 1
%%PageBoundingBox: 36 36 1073 854
%%PageOrientation: Portrait
0 0 1 beginpage
gsave
36 36 1037 818 boxprim clip newpath
1 1 set_scale 0 rotate 40 40 translate
0 0 0 graphcolor
14 /Times-Roman set_font
279.64 6.8 moveto 469.72 (Forest of Augmented Prediction Trees Connected to an Augmented Neural Network) alignedtext
% XVector
gsave
1 setlinewidth
0 0 0 nodecolor
newpath 774.99 810 moveto
713.01 810 lineto
713.01 774 lineto
774.99 774 lineto
closepath stroke
0 0 0 nodecolor
14 /Times-Roman set_font
720.68 787.8 moveto 46.65 (XVector) alignedtext
grestore
% PN_A3
gsave
1 setlinewidth
0 0 0 nodecolor
277 701 36.46 36.78 ellipse_path stroke
0 0 0 nodecolor
14 /Times-Roman set_font
256 696.8 moveto 42.01 (PN_A3) alignedtext
grestore
% XVector->PN_A3
gsave
1 setlinewidth
0 0 0 edgecolor
newpath 713 785.09 moveto
632.61 769.77 417.13 728.71 322.56 710.68 curveto
stroke
0 0 0 edgecolor
newpath 323.2 707.24 moveto
312.72 708.81 lineto
321.89 714.12 lineto
closepath fill
1 setlinewidth
solid
0 0 0 edgecolor
newpath 323.2 707.24 moveto
312.72 708.81 lineto
321.89 714.12 lineto
closepath stroke
grestore
% PN_B3
gsave
1 setlinewidth
0 0 0 nodecolor
601 701 36.23 36.31 ellipse_path stroke
0 0 0 nodecolor
14 /Times-Roman set_font
580.38 696.8 moveto 41.23 (PN_B3) alignedtext
grestore
% XVector->PN_B3
gsave
1 setlinewidth
0 0 0 edgecolor
newpath 716.43 773.84 moveto
694.67 760.3 664.05 741.24 639.82 726.16 curveto
stroke
0 0 0 edgecolor
newpath 641.55 723.11 moveto
631.21 720.8 lineto
637.85 729.06 lineto
closepath fill
1 setlinewidth
solid
0 0 0 edgecolor
newpath 641.55 723.11 moveto
631.21 720.8 lineto
637.85 729.06 lineto
closepath stroke
grestore
% PN_X
gsave
1 setlinewidth
0 0 0 nodecolor
744 463 32.33 32.44 ellipse_path stroke
0 0 0 nodecolor
14 /Times-Roman set_font
726.5 458.8 moveto 35.01 (PN_X) alignedtext
grestore
% XVector->PN_X
gsave
1 setlinewidth
0 0 0 edgecolor
newpath 744 773.88 moveto
744 724.03 744 577.94 744 505.59 curveto
stroke
0 0 0 edgecolor
newpath 747.5 505.47 moveto
744 495.47 lineto
740.5 505.47 lineto
closepath fill
1 setlinewidth
solid
0 0 0 edgecolor
newpath 747.5 505.47 moveto
744 495.47 lineto
740.5 505.47 lineto
closepath stroke
grestore
% PN_Y
gsave
1 setlinewidth
0 0 0 nodecolor
826 463 32.33 32.44 ellipse_path stroke
0 0 0 nodecolor
14 /Times-Roman set_font
808.5 458.8 moveto 35.01 (PN_Y) alignedtext
grestore
% XVector->PN_Y
gsave
1 setlinewidth
0 0 0 edgecolor
newpath 748.6 773.83 moveto
751.37 763.47 754.93 749.99 758 738 curveto
779.25 655.03 803.17 557.67 816.22 504.22 curveto
stroke
0 0 0 edgecolor
newpath 819.63 504.99 moveto
818.6 494.45 lineto
812.83 503.33 lineto
closepath fill
1 setlinewidth
solid
0 0 0 edgecolor
newpath 819.63 504.99 moveto
818.6 494.45 lineto
812.83 503.33 lineto
closepath stroke
grestore
% PN_Z
gsave
1 setlinewidth
0 0 0 nodecolor
916 463 31.35 31.47 ellipse_path stroke
0 0 0 nodecolor
14 /Times-Roman set_font
899.28 458.8 moveto 33.45 (PN_Z) alignedtext
grestore
% XVector->PN_Z
gsave
1 setlinewidth
0 0 0 edgecolor
newpath 757.02 773.78 moveto
764.44 763.62 773.69 750.37 781 738 curveto
829.25 656.33 875.98 555.03 899.76 501.39 curveto
stroke
0 0 0 edgecolor
newpath 903.09 502.51 moveto
903.93 491.95 lineto
896.69 499.68 lineto
closepath fill
1 setlinewidth
solid
0 0 0 edgecolor
newpath 903.09 502.51 moveto
903.93 491.95 lineto
896.69 499.68 lineto
closepath stroke
grestore
% PN_A2A
gsave
1 setlinewidth
0 0 0 nodecolor
277 585 43.04 43.06 ellipse_path stroke
0 0 0 nodecolor
14 /Times-Roman set_font
250.94 580.8 moveto 52.12 (PN_A2A) alignedtext
grestore
% PN_A3->PN_A2A
gsave
1 setlinewidth
0 0 0 edgecolor
newpath 277 664.24 moveto
277 656.08 277 647.23 277 638.53 curveto
stroke
0 0 0 edgecolor
newpath 280.5 638.42 moveto
277 628.42 lineto
273.5 638.42 lineto
closepath fill
1 setlinewidth
solid
0 0 0 edgecolor
newpath 280.5 638.42 moveto
277 628.42 lineto
273.5 638.42 lineto
closepath stroke
grestore
% PN_A2B
gsave
1 setlinewidth
0 0 0 nodecolor
103 463 42.31 42.58 ellipse_path stroke
0 0 0 nodecolor
14 /Times-Roman set_font
77.33 458.8 moveto 51.34 (PN_A2B) alignedtext
grestore
% PN_A3->PN_A2B
gsave
1 setlinewidth
0 0 0 edgecolor
newpath 255.66 671.06 moveto
225.19 629.73 169.01 553.53 133.96 505.99 curveto
stroke
0 0 0 edgecolor
newpath 136.64 503.72 moveto
127.88 497.75 lineto
131 507.88 lineto
closepath fill
1 setlinewidth
solid
0 0 0 edgecolor
newpath 136.64 503.72 moveto
127.88 497.75 lineto
131 507.88 lineto
closepath stroke
grestore
% PN_B2A
gsave
1 setlinewidth
0 0 0 nodecolor
446 463 42.31 42.58 ellipse_path stroke
0 0 0 nodecolor
14 /Times-Roman set_font
420.33 458.8 moveto 51.34 (PN_B2A) alignedtext
grestore
% PN_B3->PN_B2A
gsave
1 setlinewidth
0 0 0 edgecolor
newpath 580.06 671.16 moveto
570.71 658.09 559.64 642.38 550 628 curveto
523.11 587.9 493.76 541.35 473.12 508.11 curveto
stroke
0 0 0 edgecolor
newpath 476.04 506.18 moveto
467.8 499.53 lineto
470.09 509.87 lineto
closepath fill
1 setlinewidth
solid
0 0 0 edgecolor
newpath 476.04 506.18 moveto
467.8 499.53 lineto
470.09 509.87 lineto
closepath stroke
grestore
% PN_B2B
gsave
1 setlinewidth
0 0 0 nodecolor
601 585 42.08 42.1 ellipse_path stroke
0 0 0 nodecolor
14 /Times-Roman set_font
575.71 580.8 moveto 50.57 (PN_B2B) alignedtext
grestore
% PN_B3->PN_B2B
gsave
1 setlinewidth
0 0 0 edgecolor
newpath 601 664.55 moveto
601 656.01 601 646.7 601 637.58 curveto
stroke
0 0 0 edgecolor
newpath 604.5 637.41 moveto
601 627.41 lineto
597.5 637.41 lineto
closepath fill
1 setlinewidth
solid
0 0 0 edgecolor
newpath 604.5 637.41 moveto
601 627.41 lineto
597.5 637.41 lineto
closepath stroke
grestore
% YX
gsave
1 setlinewidth
0 0 0 nodecolor
newpath 635 304 moveto
581 304 lineto
581 268 lineto
635 268 lineto
closepath stroke
0 0 0 nodecolor
14 /Times-Roman set_font
597.89 281.8 moveto 20.22 (YX) alignedtext
grestore
% PN_X->YX
gsave
1 setlinewidth
0 0 0 edgecolor
newpath 733.88 432.25 moveto
723.9 405.94 706.68 367.58 683 340 curveto
672.01 327.2 657.29 315.93 643.8 307.1 curveto
stroke
0 0 0 edgecolor
newpath 645.49 304.04 moveto
635.17 301.67 lineto
641.76 309.96 lineto
closepath fill
1 setlinewidth
solid
0 0 0 edgecolor
newpath 645.49 304.04 moveto
635.17 301.67 lineto
641.76 309.96 lineto
closepath stroke
grestore
% PX
gsave
1 setlinewidth
0 0 0 nodecolor
769 362 21.12 21.32 ellipse_path stroke
0 0 0 nodecolor
14 /Times-Roman set_font
760.05 357.8 moveto 17.9 (PX) alignedtext
grestore
% PN_X->PX
gsave
1 setlinewidth
0 0 0 edgecolor
newpath 751.7 431.49 moveto
754.82 419.15 758.41 404.96 761.5 392.7 curveto
stroke
0 0 0 edgecolor
newpath 764.91 393.5 moveto
763.96 382.94 lineto
758.12 391.78 lineto
closepath fill
1 setlinewidth
solid
0 0 0 edgecolor
newpath 764.91 393.5 moveto
763.96 382.94 lineto
758.12 391.78 lineto
closepath stroke
grestore
% YY
gsave
1 setlinewidth
0 0 0 nodecolor
newpath 779 304 moveto
725 304 lineto
725 268 lineto
779 268 lineto
closepath stroke
0 0 0 nodecolor
14 /Times-Roman set_font
741.89 281.8 moveto 20.22 (YY) alignedtext
grestore
% PN_Y->YY
gsave
1 setlinewidth
0 0 0 edgecolor
newpath 823.46 430.71 moveto
820.38 405.15 813.64 368.7 799 340 curveto
793.78 329.77 786.11 319.95 778.48 311.6 curveto
stroke
0 0 0 edgecolor
newpath 781 309.17 moveto
771.55 304.38 lineto
775.95 314.01 lineto
closepath fill
1 setlinewidth
solid
0 0 0 edgecolor
newpath 781 309.17 moveto
771.55 304.38 lineto
775.95 314.01 lineto
closepath stroke
grestore
% PY
gsave
1 setlinewidth
0 0 0 nodecolor
867 362 21.12 21.32 ellipse_path stroke
0 0 0 nodecolor
14 /Times-Roman set_font
858.05 357.8 moveto 17.9 (PY) alignedtext
grestore
% PN_Y->PY
gsave
1 setlinewidth
0 0 0 edgecolor
newpath 837.97 433.1 moveto
843.39 420 849.79 404.56 855.19 391.51 curveto
stroke
0 0 0 edgecolor
newpath 858.51 392.65 moveto
859.1 382.07 lineto
852.04 389.97 lineto
closepath fill
1 setlinewidth
solid
0 0 0 edgecolor
newpath 858.51 392.65 moveto
859.1 382.07 lineto
852.04 389.97 lineto
closepath stroke
grestore
% YZ
gsave
1 setlinewidth
0 0 0 nodecolor
newpath 923 304 moveto
869 304 lineto
869 268 lineto
923 268 lineto
closepath stroke
0 0 0 nodecolor
14 /Times-Roman set_font
886.67 281.8 moveto 18.66 (YZ) alignedtext
grestore
% PN_Z->YZ
gsave
1 setlinewidth
0 0 0 edgecolor
newpath 912.56 431.92 moveto
908.79 398.9 902.78 346.37 899.14 314.44 curveto
stroke
0 0 0 edgecolor
newpath 902.61 314 moveto
898 304.46 lineto
895.65 314.8 lineto
closepath fill
1 setlinewidth
solid
0 0 0 edgecolor
newpath 902.61 314 moveto
898 304.46 lineto
895.65 314.8 lineto
closepath stroke
grestore
% PZ
gsave
1 setlinewidth
0 0 0 nodecolor
965 362 20.14 20.35 ellipse_path stroke
0 0 0 nodecolor
14 /Times-Roman set_font
956.83 357.8 moveto 16.34 (PZ) alignedtext
grestore
% PN_Z->PZ
gsave
1 setlinewidth
0 0 0 edgecolor
newpath 929.52 434.69 moveto
936.47 420.64 944.91 403.59 951.81 389.65 curveto
stroke
0 0 0 edgecolor
newpath 955.01 391.08 moveto
956.31 380.56 lineto
948.73 387.97 lineto
closepath fill
1 setlinewidth
solid
0 0 0 edgecolor
newpath 955.01 391.08 moveto
956.31 380.56 lineto
948.73 387.97 lineto
closepath stroke
grestore
% PN_A1A
gsave
1 setlinewidth
0 0 0 nodecolor
207 463 43.04 43.06 ellipse_path stroke
0 0 0 nodecolor
14 /Times-Roman set_font
180.94 458.8 moveto 52.12 (PN_A1A) alignedtext
grestore
% PN_A2A->PN_A1A
gsave
1 setlinewidth
0 0 0 edgecolor
newpath 255.62 547.34 moveto
248.63 535.36 240.78 521.91 233.47 509.37 curveto
stroke
0 0 0 edgecolor
newpath 236.31 507.31 moveto
228.25 500.43 lineto
230.27 510.83 lineto
closepath fill
1 setlinewidth
solid
0 0 0 edgecolor
newpath 236.31 507.31 moveto
228.25 500.43 lineto
230.27 510.83 lineto
closepath stroke
grestore
% PN_A1B
gsave
1 setlinewidth
0 0 0 nodecolor
311 463 42.31 42.58 ellipse_path stroke
0 0 0 nodecolor
14 /Times-Roman set_font
285.33 458.8 moveto 51.34 (PN_A1B) alignedtext
grestore
% PN_A2A->PN_A1B
gsave
1 setlinewidth
0 0 0 edgecolor
newpath 288.51 543.37 moveto
291.2 533.89 294.09 523.68 296.88 513.85 curveto
stroke
0 0 0 edgecolor
newpath 300.26 514.75 moveto
299.62 504.18 lineto
293.52 512.84 lineto
closepath fill
1 setlinewidth
solid
0 0 0 edgecolor
newpath 300.26 514.75 moveto
299.62 504.18 lineto
293.52 512.84 lineto
closepath stroke
grestore
% PA2B
gsave
1 setlinewidth
0 0 0 nodecolor
30 362 30.38 18 ellipse_path stroke
0 0 0 nodecolor
14 /Times-Roman set_font
13.53 357.8 moveto 32.95 (PA2B) alignedtext
grestore
% PN_A2B->PA2B
gsave
1 setlinewidth
0 0 0 edgecolor
newpath 78.29 428.48 moveto
68.2 414.81 56.78 399.31 47.57 386.83 curveto
stroke
0 0 0 edgecolor
newpath 50.35 384.7 moveto
41.6 378.73 lineto
44.72 388.85 lineto
closepath fill
1 setlinewidth
solid
0 0 0 edgecolor
newpath 50.35 384.7 moveto
41.6 378.73 lineto
44.72 388.85 lineto
closepath stroke
grestore
% Y1
gsave
1 setlinewidth
0 0 0 nodecolor
newpath 419 304 moveto
365 304 lineto
365 268 lineto
419 268 lineto
closepath stroke
0 0 0 nodecolor
14 /Times-Roman set_font
383.44 281.8 moveto 17.11 (Y1) alignedtext
grestore
% PN_A2B->Y1
gsave
1 setlinewidth
0 0 0 edgecolor
newpath 123.55 425.79 moveto
141.13 398.12 168.96 361.23 203 340 curveto
259.61 304.69 287.49 325.01 354.94 303.87 curveto
stroke
0 0 0 edgecolor
newpath 356.35 307.09 moveto
364.73 300.6 lineto
354.14 300.45 lineto
closepath fill
1 setlinewidth
solid
0 0 0 edgecolor
newpath 356.35 307.09 moveto
364.73 300.6 lineto
354.14 300.45 lineto
closepath stroke
grestore
% PA1A
gsave
1 setlinewidth
0 0 0 nodecolor
110 362 31.11 18 ellipse_path stroke
0 0 0 nodecolor
14 /Times-Roman set_font
93.14 357.8 moveto 33.72 (PA1A) alignedtext
grestore
% PN_A1A->PA1A
gsave
1 setlinewidth
0 0 0 edgecolor
newpath 177.37 431.76 moveto
162.7 416.79 145.31 399.04 131.87 385.32 curveto
stroke
0 0 0 edgecolor
newpath 134.35 382.85 moveto
124.85 378.16 lineto
129.35 387.75 lineto
closepath fill
1 setlinewidth
solid
0 0 0 edgecolor
newpath 134.35 382.85 moveto
124.85 378.16 lineto
129.35 387.75 lineto
closepath stroke
grestore
% PN_A1A->Y1
gsave
1 setlinewidth
0 0 0 edgecolor
newpath 202.82 419.9 moveto
202.59 393.87 206.9 361.45 226 340 curveto
263.85 297.5 296.34 322.06 355.04 303.8 curveto
stroke
0 0 0 edgecolor
newpath 356.37 307.05 moveto
364.69 300.49 lineto
354.1 300.43 lineto
closepath fill
1 setlinewidth
solid
0 0 0 edgecolor
newpath 356.37 307.05 moveto
364.69 300.49 lineto
354.1 300.43 lineto
closepath stroke
grestore
% PA1B
gsave
1 setlinewidth
0 0 0 nodecolor
266 362 30.38 18 ellipse_path stroke
0 0 0 nodecolor
14 /Times-Roman set_font
249.53 357.8 moveto 32.95 (PA1B) alignedtext
grestore
% PN_A1B->PA1B
gsave
1 setlinewidth
0 0 0 edgecolor
newpath 293.73 424.01 moveto
288.38 412.23 282.61 399.54 277.73 388.8 curveto
stroke
0 0 0 edgecolor
newpath 280.85 387.22 moveto
273.53 379.56 lineto
274.48 390.12 lineto
closepath fill
1 setlinewidth
solid
0 0 0 edgecolor
newpath 280.85 387.22 moveto
273.53 379.56 lineto
274.48 390.12 lineto
closepath stroke
grestore
% PN_A1B->Y1
gsave
1 setlinewidth
0 0 0 edgecolor
newpath 317.12 420.9 moveto
321.96 396.34 330.27 365.13 344 340 curveto
349.56 329.82 357.45 320.02 365.24 311.67 curveto
stroke
0 0 0 edgecolor
newpath 367.81 314.04 moveto
372.28 304.44 lineto
362.8 309.16 lineto
closepath fill
1 setlinewidth
solid
0 0 0 edgecolor
newpath 367.81 314.04 moveto
372.28 304.44 lineto
362.8 309.16 lineto
closepath stroke
grestore
% Y1_a
gsave
1 setlinewidth
0 0 0 nodecolor
newpath 347 304 moveto
293 304 lineto
293 268 lineto
347 268 lineto
closepath stroke
0 0 0 nodecolor
14 /Times-Roman set_font
304.84 281.8 moveto 30.32 (Y1_a) alignedtext
grestore
% PA2B->Y1_a
gsave
1 setlinewidth
0 0 0 edgecolor
newpath 50.68 348.76 moveto
56.75 345.56 63.51 342.34 70 340 curveto
143.06 313.65 233.09 298.55 282.73 291.64 curveto
stroke
0 0 0 edgecolor
newpath 283.25 295.1 moveto
292.69 290.29 lineto
282.31 288.17 lineto
closepath fill
1 setlinewidth
solid
0 0 0 edgecolor
newpath 283.25 295.1 moveto
292.69 290.29 lineto
282.31 288.17 lineto
closepath stroke
grestore
% PA1A->Y1_a
gsave
1 setlinewidth
0 0 0 edgecolor
newpath 133.11 349.53 moveto
140.07 346.27 147.78 342.83 155 340 curveto
198.15 323.08 249.13 307.33 282.88 297.47 curveto
stroke
0 0 0 edgecolor
newpath 284.14 300.75 moveto
292.77 294.6 lineto
282.19 294.02 lineto
closepath fill
1 setlinewidth
solid
0 0 0 edgecolor
newpath 284.14 300.75 moveto
292.77 294.6 lineto
282.19 294.02 lineto
closepath stroke
grestore
% PA1B->Y1_a
gsave
1 setlinewidth
0 0 0 edgecolor
newpath 277.45 345.31 moveto
284.39 335.8 293.41 323.44 301.35 312.56 curveto
stroke
0 0 0 edgecolor
newpath 304.37 314.36 moveto
307.43 304.22 lineto
298.71 310.24 lineto
closepath fill
1 setlinewidth
solid
0 0 0 edgecolor
newpath 304.37 314.36 moveto
307.43 304.22 lineto
298.71 310.24 lineto
closepath stroke
grestore
% NN1
gsave
1 setlinewidth
0 0 0 nodecolor
606 199 26.95 27.1 ellipse_path stroke
0 0 0 nodecolor
14 /Times-Roman set_font
592.39 194.8 moveto 27.22 (NN1) alignedtext
grestore
% Y1_a->NN1
gsave
1 setlinewidth
0 0 0 edgecolor
newpath 347.21 271.21 moveto
350.13 270.01 353.1 268.91 356 268 curveto
447.6 239.23 482.15 272.92 569 232 curveto
572.61 230.3 576.15 228.14 579.51 225.75 curveto
stroke
0 0 0 edgecolor
newpath 581.78 228.42 moveto
587.46 219.47 lineto
577.45 222.93 lineto
closepath fill
1 setlinewidth
solid
0 0 0 edgecolor
newpath 581.78 228.42 moveto
587.46 219.47 lineto
577.45 222.93 lineto
closepath stroke
grestore
% NN1a
gsave
1 setlinewidth
0 0 0 nodecolor
683 199 31.34 31.45 ellipse_path stroke
0 0 0 nodecolor
14 /Times-Roman set_font
666.28 194.8 moveto 33.43 (NN1a) alignedtext
grestore
% Y1_a->NN1a
gsave
1 setlinewidth
0 0 0 edgecolor
newpath 347.17 271.08 moveto
350.1 269.91 353.08 268.85 356 268 curveto
479.01 232.2 523.7 281.18 642 232 curveto
645.45 230.56 648.87 228.75 652.16 226.73 curveto
stroke
0 0 0 edgecolor
newpath 654.27 229.52 moveto
660.53 220.98 lineto
650.31 223.75 lineto
closepath fill
1 setlinewidth
solid
0 0 0 edgecolor
newpath 654.27 229.52 moveto
660.53 220.98 lineto
650.31 223.75 lineto
closepath stroke
grestore
% NN2
gsave
1 setlinewidth
0 0 0 nodecolor
760 199 26.95 27.1 ellipse_path stroke
0 0 0 nodecolor
14 /Times-Roman set_font
746.39 194.8 moveto 27.22 (NN2) alignedtext
grestore
% Y1_a->NN2
gsave
1 setlinewidth
0 0 0 edgecolor
newpath 347.14 271 moveto
350.08 269.84 353.07 268.81 356 268 curveto
513.98 224.37 572.39 296.64 723 232 curveto
726.76 230.39 730.41 228.25 733.86 225.84 curveto
stroke
0 0 0 edgecolor
newpath 736.29 228.38 moveto
741.98 219.45 lineto
731.96 222.88 lineto
closepath fill
1 setlinewidth
solid
0 0 0 edgecolor
newpath 736.29 228.38 moveto
741.98 219.45 lineto
731.96 222.88 lineto
closepath stroke
grestore
% NN2a
gsave
1 setlinewidth
0 0 0 nodecolor
837 199 31.34 31.45 ellipse_path stroke
0 0 0 nodecolor
14 /Times-Roman set_font
820.28 194.8 moveto 33.43 (NN2a) alignedtext
grestore
% Y1_a->NN2a
gsave
1 setlinewidth
0 0 0 edgecolor
newpath 347.13 270.95 moveto
350.07 269.8 353.06 268.79 356 268 curveto
545.54 217.29 613.22 303.35 796 232 curveto
799.49 230.64 802.92 228.88 806.22 226.89 curveto
stroke
0 0 0 edgecolor
newpath 808.31 229.7 moveto
814.61 221.18 lineto
804.38 223.91 lineto
closepath fill
1 setlinewidth
solid
0 0 0 edgecolor
newpath 808.31 229.7 moveto
814.61 221.18 lineto
804.38 223.91 lineto
closepath stroke
grestore
% NNX
gsave
1 setlinewidth
0 0 0 nodecolor
915 199 28.9 29.03 ellipse_path stroke
0 0 0 nodecolor
14 /Times-Roman set_font
899.83 194.8 moveto 30.33 (NNX) alignedtext
grestore
% Y1_a->NNX
gsave
1 setlinewidth
0 0 0 edgecolor
newpath 347.12 270.91 moveto
350.06 269.77 353.06 268.77 356 268 curveto
580.6 209.43 661.83 319.05 877 232 curveto
880.48 230.59 883.88 228.73 887.12 226.62 curveto
stroke
0 0 0 edgecolor
newpath 889.33 229.34 moveto
895.29 220.58 lineto
885.17 223.72 lineto
closepath fill
1 setlinewidth
solid
0 0 0 edgecolor
newpath 889.33 229.34 moveto
895.29 220.58 lineto
885.17 223.72 lineto
closepath stroke
grestore
% NNXa
gsave
1 setlinewidth
0 0 0 nodecolor
995 199 33.29 33.38 ellipse_path stroke
0 0 0 nodecolor
14 /Times-Roman set_font
976.73 194.8 moveto 36.54 (NNXa) alignedtext
grestore
% Y1_a->NNXa
gsave
1 setlinewidth
0 0 0 edgecolor
newpath 347.11 270.89 moveto
350.06 269.75 353.05 268.75 356 268 curveto
484.75 235.03 828.41 278.28 953 232 curveto
956.09 230.85 959.15 229.39 962.11 227.73 curveto
stroke
0 0 0 edgecolor
newpath 964.14 230.59 moveto
970.69 222.27 lineto
960.37 224.69 lineto
closepath fill
1 setlinewidth
solid
0 0 0 edgecolor
newpath 964.14 230.59 moveto
970.69 222.27 lineto
960.37 224.69 lineto
closepath stroke
grestore
% NNY
gsave
1 setlinewidth
0 0 0 nodecolor
291 199 28.9 29.03 ellipse_path stroke
0 0 0 nodecolor
14 /Times-Roman set_font
275.83 194.8 moveto 30.33 (NNY) alignedtext
grestore
% Y1_a->NNY
gsave
1 setlinewidth
0 0 0 edgecolor
newpath 314.13 267.8 moveto
311.06 258.81 307.19 247.45 303.49 236.61 curveto
stroke
0 0 0 edgecolor
newpath 306.71 235.22 moveto
300.17 226.88 lineto
300.09 237.48 lineto
closepath fill
1 setlinewidth
solid
0 0 0 edgecolor
newpath 306.71 235.22 moveto
300.17 226.88 lineto
300.09 237.48 lineto
closepath stroke
grestore
% NNYa
gsave
1 setlinewidth
0 0 0 nodecolor
371 199 31.97 32.12 ellipse_path stroke
0 0 0 nodecolor
14 /Times-Roman set_font
353.42 194.8 moveto 35.15 (NNYa) alignedtext
grestore
% Y1_a->NNYa
gsave
1 setlinewidth
0 0 0 edgecolor
newpath 330.32 267.8 moveto
335.83 258.61 342.83 246.95 349.47 235.89 curveto
stroke
0 0 0 edgecolor
newpath 352.53 237.59 moveto
354.67 227.22 lineto
346.52 233.99 lineto
closepath fill
1 setlinewidth
solid
0 0 0 edgecolor
newpath 352.53 237.59 moveto
354.67 227.22 lineto
346.52 233.99 lineto
closepath stroke
grestore
% NNZ
gsave
1 setlinewidth
0 0 0 nodecolor
450 199 27.93 28.07 ellipse_path stroke
0 0 0 nodecolor
14 /Times-Roman set_font
435.61 194.8 moveto 28.77 (NNZ) alignedtext
grestore
% Y1_a->NNZ
gsave
1 setlinewidth
0 0 0 edgecolor
newpath 347.34 270.9 moveto
366.06 260.86 391.17 246.6 412 232 curveto
415.08 229.84 418.21 227.49 421.28 225.08 curveto
stroke
0 0 0 edgecolor
newpath 423.67 227.65 moveto
429.23 218.63 lineto
419.26 222.22 lineto
closepath fill
1 setlinewidth
solid
0 0 0 edgecolor
newpath 423.67 227.65 moveto
429.23 218.63 lineto
419.26 222.22 lineto
closepath stroke
grestore
% NNZa
gsave
1 setlinewidth
0 0 0 nodecolor
528 199 32.31 32.42 ellipse_path stroke
0 0 0 nodecolor
14 /Times-Roman set_font
510.51 194.8 moveto 34.99 (NNZa) alignedtext
grestore
% Y1_a->NNZa
gsave
1 setlinewidth
0 0 0 edgecolor
newpath 347.31 271.51 moveto
350.21 270.25 353.15 269.06 356 268 curveto
412.62 247.03 433.04 259.1 487 232 curveto
490.08 230.45 493.15 228.66 496.15 226.72 curveto
stroke
0 0 0 edgecolor
newpath 498.17 229.58 moveto
504.35 220.98 lineto
494.15 223.85 lineto
closepath fill
1 setlinewidth
solid
0 0 0 edgecolor
newpath 498.17 229.58 moveto
504.35 220.98 lineto
494.15 223.85 lineto
closepath stroke
grestore
% Y1->NN1
gsave
1 setlinewidth
0 0 0 edgecolor
newpath 419.29 271.45 moveto
422.2 270.21 425.14 269.03 428 268 curveto
488.85 246.09 511.68 261.95 569 232 curveto
572.54 230.15 576.03 227.9 579.36 225.46 curveto
stroke
0 0 0 edgecolor
newpath 581.67 228.1 moveto
587.29 219.12 lineto
577.29 222.63 lineto
closepath fill
1 setlinewidth
solid
0 0 0 edgecolor
newpath 581.67 228.1 moveto
587.29 219.12 lineto
577.29 222.63 lineto
closepath stroke
grestore
% Y1->NN1a
gsave
1 setlinewidth
0 0 0 edgecolor
newpath 419.21 271.21 moveto
422.13 270.01 425.1 268.91 428 268 curveto
520.03 239.14 553.73 270.86 642 232 curveto
645.42 230.49 648.81 228.63 652.09 226.58 curveto
stroke
0 0 0 edgecolor
newpath 654.23 229.36 moveto
660.45 220.78 lineto
650.24 223.61 lineto
closepath fill
1 setlinewidth
solid
0 0 0 edgecolor
newpath 654.23 229.36 moveto
660.45 220.78 lineto
650.24 223.61 lineto
closepath stroke
grestore
% Y1->NN2
gsave
1 setlinewidth
0 0 0 edgecolor
newpath 419.16 271.07 moveto
422.1 269.9 425.08 268.84 428 268 curveto
554.89 231.33 602.25 285.53 723 232 curveto
726.65 230.38 730.21 228.28 733.59 225.92 curveto
stroke
0 0 0 edgecolor
newpath 735.84 228.6 moveto
741.55 219.68 lineto
731.52 223.09 lineto
closepath fill
1 setlinewidth
solid
0 0 0 edgecolor
newpath 735.84 228.6 moveto
741.55 219.68 lineto
731.52 223.09 lineto
closepath stroke
grestore
% Y1->NN2a
gsave
1 setlinewidth
0 0 0 edgecolor
newpath 419.14 271 moveto
422.08 269.84 425.07 268.81 428 268 curveto
586.41 224.27 643.39 292.97 796 232 curveto
799.47 230.61 802.9 228.83 806.2 226.83 curveto
stroke
0 0 0 edgecolor
newpath 808.3 229.64 moveto
814.59 221.11 lineto
804.35 223.85 lineto
closepath fill
1 setlinewidth
solid
0 0 0 edgecolor
newpath 808.3 229.64 moveto
814.59 221.11 lineto
804.35 223.85 lineto
closepath stroke
grestore
% Y1->NNX
gsave
1 setlinewidth
0 0 0 edgecolor
newpath 419.13 270.95 moveto
422.07 269.8 425.06 268.78 428 268 curveto
621.44 216.42 691.83 308.1 877 232 curveto
880.29 230.65 883.51 228.9 886.59 226.92 curveto
stroke
0 0 0 edgecolor
newpath 888.86 229.59 moveto
894.86 220.86 lineto
884.73 223.95 lineto
closepath fill
1 setlinewidth
solid
0 0 0 edgecolor
newpath 888.86 229.59 moveto
894.86 220.86 lineto
884.73 223.95 lineto
closepath stroke
grestore
% Y1->NNXa
gsave
1 setlinewidth
0 0 0 edgecolor
newpath 419.12 270.91 moveto
422.06 269.77 425.06 268.77 428 268 curveto
654.33 209.04 734.09 314.34 953 232 curveto
956.09 230.84 959.14 229.37 962.1 227.71 curveto
stroke
0 0 0 edgecolor
newpath 964.13 230.56 moveto
970.67 222.23 lineto
960.36 224.66 lineto
closepath fill
1 setlinewidth
solid
0 0 0 edgecolor
newpath 964.13 230.56 moveto
970.67 222.23 lineto
960.36 224.66 lineto
closepath stroke
grestore
% Y1->NNY
gsave
1 setlinewidth
0 0 0 edgecolor
newpath 371.56 267.8 moveto
357 255.54 337.19 238.87 320.86 225.13 curveto
stroke
0 0 0 edgecolor
newpath 323.07 222.41 moveto
313.16 218.65 lineto
318.56 227.77 lineto
closepath fill
1 setlinewidth
solid
0 0 0 edgecolor
newpath 323.07 222.41 moveto
313.16 218.65 lineto
318.56 227.77 lineto
closepath stroke
grestore
% Y1->NNYa
gsave
1 setlinewidth
0 0 0 edgecolor
newpath 387.75 267.8 moveto
385.79 259.88 383.38 250.11 381 240.49 curveto
stroke
0 0 0 edgecolor
newpath 384.35 239.46 moveto
378.56 230.59 lineto
377.56 241.14 lineto
closepath fill
1 setlinewidth
solid
0 0 0 edgecolor
newpath 384.35 239.46 moveto
378.56 230.59 lineto
377.56 241.14 lineto
closepath stroke
grestore
% Y1->NNZ
gsave
1 setlinewidth
0 0 0 edgecolor
newpath 403.74 267.8 moveto
410.94 257.24 420.39 243.39 428.86 230.97 curveto
stroke
0 0 0 edgecolor
newpath 431.79 232.89 moveto
434.54 222.66 lineto
426.01 228.95 lineto
closepath fill
1 setlinewidth
solid
0 0 0 edgecolor
newpath 431.79 232.89 moveto
434.54 222.66 lineto
426.01 228.95 lineto
closepath stroke
grestore
% Y1->NNZa
gsave
1 setlinewidth
0 0 0 edgecolor
newpath 419.27 271.22 moveto
438.62 261.1 464.97 246.62 487 232 curveto
489.71 230.2 492.47 228.28 495.21 226.3 curveto
stroke
0 0 0 edgecolor
newpath 497.38 229.04 moveto
503.3 220.26 lineto
493.19 223.43 lineto
closepath fill
1 setlinewidth
solid
0 0 0 edgecolor
newpath 497.38 229.04 moveto
503.3 220.26 lineto
493.19 223.43 lineto
closepath stroke
grestore
% PB2A
gsave
1 setlinewidth
0 0 0 nodecolor
385 362 31.6 18 ellipse_path stroke
0 0 0 nodecolor
14 /Times-Roman set_font
367.88 357.8 moveto 34.23 (PB2A) alignedtext
grestore
% PN_B2A->PB2A
gsave
1 setlinewidth
0 0 0 edgecolor
newpath 424.15 426.54 moveto
416.27 413.75 407.56 399.61 400.35 387.92 curveto
stroke
0 0 0 edgecolor
newpath 403.17 385.82 moveto
394.94 379.14 lineto
397.21 389.49 lineto
closepath fill
1 setlinewidth
solid
0 0 0 edgecolor
newpath 403.17 385.82 moveto
394.94 379.14 lineto
397.21 389.49 lineto
closepath stroke
grestore
% Y2
gsave
1 setlinewidth
0 0 0 nodecolor
newpath 563 304 moveto
509 304 lineto
509 268 lineto
563 268 lineto
closepath stroke
0 0 0 nodecolor
14 /Times-Roman set_font
527.44 281.8 moveto 17.11 (Y2) alignedtext
grestore
% PN_B2A->Y2
gsave
1 setlinewidth
0 0 0 edgecolor
newpath 474.16 430.74 moveto
485.29 417.13 497.44 400.54 506 384 curveto
517.54 361.71 525.53 334.2 530.34 314.18 curveto
stroke
0 0 0 edgecolor
newpath 533.81 314.71 moveto
532.63 304.18 lineto
526.99 313.15 lineto
closepath fill
1 setlinewidth
solid
0 0 0 edgecolor
newpath 533.81 314.71 moveto
532.63 304.18 lineto
526.99 313.15 lineto
closepath stroke
grestore
% PN_B1A
gsave
1 setlinewidth
0 0 0 nodecolor
549 463 42.31 42.58 ellipse_path stroke
0 0 0 nodecolor
14 /Times-Roman set_font
523.33 458.8 moveto 51.34 (PN_B1A) alignedtext
grestore
% PN_B2B->PN_B1A
gsave
1 setlinewidth
0 0 0 edgecolor
newpath 584.55 546.03 moveto
579.85 535.2 574.67 523.25 569.76 511.9 curveto
stroke
0 0 0 edgecolor
newpath 572.89 510.33 moveto
565.7 502.55 lineto
566.47 513.11 lineto
closepath fill
1 setlinewidth
solid
0 0 0 edgecolor
newpath 572.89 510.33 moveto
565.7 502.55 lineto
566.47 513.11 lineto
closepath stroke
grestore
% PN_B1B
gsave
1 setlinewidth
0 0 0 nodecolor
652 463 42.08 42.1 ellipse_path stroke
0 0 0 nodecolor
14 /Times-Roman set_font
626.71 458.8 moveto 50.57 (PN_B1B) alignedtext
grestore
% PN_B2B->PN_B1B
gsave
1 setlinewidth
0 0 0 edgecolor
newpath 617.14 546.03 moveto
621.79 535.09 626.92 523.01 631.79 511.56 curveto
stroke
0 0 0 edgecolor
newpath 635.1 512.71 moveto
635.79 502.13 lineto
628.66 509.97 lineto
closepath fill
1 setlinewidth
solid
0 0 0 edgecolor
newpath 635.1 512.71 moveto
635.79 502.13 lineto
628.66 509.97 lineto
closepath stroke
grestore
% PB1A
gsave
1 setlinewidth
0 0 0 nodecolor
466 362 31.6 18 ellipse_path stroke
0 0 0 nodecolor
14 /Times-Roman set_font
448.88 357.8 moveto 34.23 (PB1A) alignedtext
grestore
% PN_B1A->PB1A
gsave
1 setlinewidth
0 0 0 edgecolor
newpath 522.05 429.86 moveto
510.25 415.78 496.65 399.55 485.8 386.61 curveto
stroke
0 0 0 edgecolor
newpath 488.22 384.05 moveto
479.11 378.64 lineto
482.85 388.55 lineto
closepath fill
1 setlinewidth
solid
0 0 0 edgecolor
newpath 488.22 384.05 moveto
479.11 378.64 lineto
482.85 388.55 lineto
closepath stroke
grestore
% PN_B1A->Y2
gsave
1 setlinewidth
0 0 0 edgecolor
newpath 545.96 420.5 moveto
544.22 396.9 542 366.79 540 340 curveto
539.38 331.68 538.7 322.63 538.08 314.4 curveto
stroke
0 0 0 edgecolor
newpath 541.55 313.89 moveto
537.3 304.19 lineto
534.57 314.42 lineto
closepath fill
1 setlinewidth
solid
0 0 0 edgecolor
newpath 541.55 313.89 moveto
537.3 304.19 lineto
534.57 314.42 lineto
closepath stroke
grestore
% PB1B
gsave
1 setlinewidth
0 0 0 nodecolor
623 362 31.37 18 ellipse_path stroke
0 0 0 nodecolor
14 /Times-Roman set_font
606.27 357.8 moveto 33.46 (PB1B) alignedtext
grestore
% PN_B1B->PB1B
gsave
1 setlinewidth
0 0 0 edgecolor
newpath 640.37 422.3 moveto
637.17 411.36 633.77 399.76 630.83 389.74 curveto
stroke
0 0 0 edgecolor
newpath 634.14 388.59 moveto
627.97 379.97 lineto
627.42 390.56 lineto
closepath fill
1 setlinewidth
solid
0 0 0 edgecolor
newpath 634.14 388.59 moveto
627.97 379.97 lineto
627.42 390.56 lineto
closepath stroke
grestore
% PN_B1B->Y2
gsave
1 setlinewidth
0 0 0 edgecolor
newpath 667.37 423.6 moveto
675.01 397.83 679.5 364.27 663 340 curveto
640.17 306.42 615.44 319.24 572.49 303.76 curveto
stroke
0 0 0 edgecolor
newpath 573.63 300.44 moveto
563.04 300 lineto
571.04 306.95 lineto
closepath fill
1 setlinewidth
solid
0 0 0 edgecolor
newpath 573.63 300.44 moveto
563.04 300 lineto
571.04 306.95 lineto
closepath stroke
grestore
% Y2_a
gsave
1 setlinewidth
0 0 0 nodecolor
newpath 491 304 moveto
437 304 lineto
437 268 lineto
491 268 lineto
closepath stroke
0 0 0 nodecolor
14 /Times-Roman set_font
448.84 281.8 moveto 30.32 (Y2_a) alignedtext
grestore
% PB2A->Y2_a
gsave
1 setlinewidth
0 0 0 edgecolor
newpath 400.61 346.38 moveto
411.33 336.33 425.82 322.76 438.24 311.13 curveto
stroke
0 0 0 edgecolor
newpath 440.75 313.58 moveto
445.65 304.19 lineto
435.96 308.47 lineto
closepath fill
1 setlinewidth
solid
0 0 0 edgecolor
newpath 440.75 313.58 moveto
445.65 304.19 lineto
435.96 308.47 lineto
closepath stroke
grestore
% PB1A->Y2_a
gsave
1 setlinewidth
0 0 0 edgecolor
newpath 465.54 343.84 moveto
465.3 335.06 465 324.16 464.74 314.27 curveto
stroke
0 0 0 edgecolor
newpath 468.23 313.97 moveto
464.46 304.07 lineto
461.23 314.16 lineto
closepath fill
1 setlinewidth
solid
0 0 0 edgecolor
newpath 468.23 313.97 moveto
464.46 304.07 lineto
461.23 314.16 lineto
closepath stroke
grestore
% PB1B->Y2_a
gsave
1 setlinewidth
0 0 0 edgecolor
newpath 599.4 350.12 moveto
576.36 339.49 540.1 322.73 500.22 304.09 curveto
stroke
0 0 0 edgecolor
newpath 501.66 300.9 moveto
491.12 299.83 lineto
498.69 307.24 lineto
closepath fill
1 setlinewidth
solid
0 0 0 edgecolor
newpath 501.66 300.9 moveto
491.12 299.83 lineto
498.69 307.24 lineto
closepath stroke
grestore
% Y2_a->NN1
gsave
1 setlinewidth
0 0 0 edgecolor
newpath 491.01 272.3 moveto
517.33 259.75 555.34 241.15 569 232 curveto
572.15 229.89 575.32 227.54 578.42 225.11 curveto
stroke
0 0 0 edgecolor
newpath 580.88 227.61 moveto
586.36 218.55 lineto
576.42 222.22 lineto
closepath fill
1 setlinewidth
solid
0 0 0 edgecolor
newpath 580.88 227.61 moveto
586.36 218.55 lineto
576.42 222.22 lineto
closepath stroke
grestore
% Y2_a->NN1a
gsave
1 setlinewidth
0 0 0 edgecolor
newpath 491.29 271.45 moveto
494.2 270.2 497.14 269.03 500 268 curveto
561.28 246 583.53 260.64 642 232 curveto
645.36 230.35 648.71 228.4 651.96 226.29 curveto
stroke
0 0 0 edgecolor
newpath 654.13 229.04 moveto
660.27 220.4 lineto
650.09 223.32 lineto
closepath fill
1 setlinewidth
solid
0 0 0 edgecolor
newpath 654.13 229.04 moveto
660.27 220.4 lineto
650.09 223.32 lineto
closepath stroke
grestore
% Y2_a->NN2
gsave
1 setlinewidth
0 0 0 edgecolor
newpath 491.2 271.19 moveto
494.13 269.99 497.1 268.9 500 268 curveto
595.89 238.27 632.02 274.45 723 232 curveto
726.62 230.31 730.16 228.16 733.52 225.78 curveto
stroke
0 0 0 edgecolor
newpath 735.79 228.45 moveto
741.48 219.51 lineto
731.46 222.95 lineto
closepath fill
1 setlinewidth
solid
0 0 0 edgecolor
newpath 735.79 228.45 moveto
741.48 219.51 lineto
731.46 222.95 lineto
closepath stroke
grestore
% Y2_a->NN2a
gsave
1 setlinewidth
0 0 0 edgecolor
newpath 491.16 271.07 moveto
494.1 269.9 497.08 268.84 500 268 curveto
627.32 231.24 673.52 282.61 796 232 curveto
799.46 230.57 802.87 228.77 806.16 226.74 curveto
stroke
0 0 0 edgecolor
newpath 808.27 229.54 moveto
814.54 221 lineto
804.31 223.77 lineto
closepath fill
1 setlinewidth
solid
0 0 0 edgecolor
newpath 808.27 229.54 moveto
814.54 221 lineto
804.31 223.77 lineto
closepath stroke
grestore
% Y2_a->NNX
gsave
1 setlinewidth
0 0 0 edgecolor
newpath 491.14 270.99 moveto
494.08 269.84 497.07 268.81 500 268 curveto
662.3 223.4 721.81 297.17 877 232 curveto
880.28 230.62 883.49 228.86 886.57 226.87 curveto
stroke
0 0 0 edgecolor
newpath 888.85 229.53 moveto
894.83 220.79 lineto
884.7 223.89 lineto
closepath fill
1 setlinewidth
solid
0 0 0 edgecolor
newpath 888.85 229.53 moveto
894.83 220.79 lineto
884.7 223.89 lineto
closepath stroke
grestore
% Y2_a->NNXa
gsave
1 setlinewidth
0 0 0 edgecolor
newpath 491.13 270.94 moveto
494.07 269.8 497.06 268.78 500 268 curveto
695.17 216.03 764.35 304.13 953 232 curveto
956.08 230.82 959.13 229.34 962.09 227.67 curveto
stroke
0 0 0 edgecolor
newpath 964.12 230.52 moveto
970.65 222.18 lineto
960.35 224.63 lineto
closepath fill
1 setlinewidth
solid
0 0 0 edgecolor
newpath 964.12 230.52 moveto
970.65 222.18 lineto
960.35 224.63 lineto
closepath stroke
grestore
% Y2_a->NNY
gsave
1 setlinewidth
0 0 0 edgecolor
newpath 436.99 271.93 moveto
433.97 270.56 430.93 269.23 428 268 curveto
385.2 250.08 370.28 255.04 330 232 curveto
326.77 230.15 323.54 228.04 320.39 225.79 curveto
stroke
0 0 0 edgecolor
newpath 322.4 222.93 moveto
312.33 219.65 lineto
318.16 228.49 lineto
closepath fill
1 setlinewidth
solid
0 0 0 edgecolor
newpath 322.4 222.93 moveto
312.33 219.65 lineto
318.16 228.49 lineto
closepath stroke
grestore
% Y2_a->NNYa
gsave
1 setlinewidth
0 0 0 edgecolor
newpath 445.18 267.8 moveto
432.82 256.5 416.36 241.46 402.08 228.41 curveto
stroke
0 0 0 edgecolor
newpath 404.16 225.56 moveto
394.42 221.4 lineto
399.44 230.73 lineto
closepath fill
1 setlinewidth
solid
0 0 0 edgecolor
newpath 404.16 225.56 moveto
394.42 221.4 lineto
399.44 230.73 lineto
closepath stroke
grestore
% Y2_a->NNZ
gsave
1 setlinewidth
0 0 0 edgecolor
newpath 461.17 267.8 moveto
459.71 258.98 457.88 247.87 456.13 237.21 curveto
stroke
0 0 0 edgecolor
newpath 459.56 236.51 moveto
454.48 227.22 lineto
452.65 237.65 lineto
closepath fill
1 setlinewidth
solid
0 0 0 edgecolor
newpath 459.56 236.51 moveto
454.48 227.22 lineto
452.65 237.65 lineto
closepath stroke
grestore
% Y2_a->NNZa
gsave
1 setlinewidth
0 0 0 edgecolor
newpath 476.95 267.8 moveto
484.36 257.96 493.91 245.28 502.74 233.55 curveto
stroke
0 0 0 edgecolor
newpath 505.78 235.33 moveto
509 225.24 lineto
500.19 231.12 lineto
closepath fill
1 setlinewidth
solid
0 0 0 edgecolor
newpath 505.78 235.33 moveto
509 225.24 lineto
500.19 231.12 lineto
closepath stroke
grestore
% Y2->NN1
gsave
1 setlinewidth
0 0 0 edgecolor
newpath 550.17 267.8 moveto
559.5 256.47 571.93 241.37 582.7 228.3 curveto
stroke
0 0 0 edgecolor
newpath 585.49 230.42 moveto
589.14 220.47 lineto
580.08 225.97 lineto
closepath fill
1 setlinewidth
solid
0 0 0 edgecolor
newpath 585.49 230.42 moveto
589.14 220.47 lineto
580.08 225.97 lineto
closepath stroke
grestore
% Y2->NN1a
gsave
1 setlinewidth
0 0 0 edgecolor
newpath 563.17 272.17 moveto
589.68 259.53 628 240.84 642 232 curveto
644.99 230.11 648.03 228.05 651.03 225.92 curveto
stroke
0 0 0 edgecolor
newpath 653.35 228.55 moveto
659.3 219.78 lineto
649.18 222.92 lineto
closepath fill
1 setlinewidth
solid
0 0 0 edgecolor
newpath 653.35 228.55 moveto
659.3 219.78 lineto
649.18 222.92 lineto
closepath stroke
grestore
% Y2->NN2
gsave
1 setlinewidth
0 0 0 edgecolor
newpath 563.27 271.41 moveto
566.18 270.17 569.13 269.01 572 268 curveto
637.1 245.15 661.6 263.46 723 232 curveto
726.55 230.18 730.05 227.95 733.39 225.52 curveto
stroke
0 0 0 edgecolor
newpath 735.69 228.16 moveto
741.32 219.19 lineto
731.32 222.69 lineto
closepath fill
1 setlinewidth
solid
0 0 0 edgecolor
newpath 735.69 228.16 moveto
741.32 219.19 lineto
731.32 222.69 lineto
closepath stroke
grestore
% Y2->NN2a
gsave
1 setlinewidth
0 0 0 edgecolor
newpath 563.2 271.18 moveto
566.12 269.99 569.09 268.9 572 268 curveto
668.32 238.18 703.57 272.29 796 232 curveto
799.43 230.51 802.82 228.66 806.1 226.61 curveto
stroke
0 0 0 edgecolor
newpath 808.23 229.39 moveto
814.46 220.82 lineto
804.25 223.63 lineto
closepath fill
1 setlinewidth
solid
0 0 0 edgecolor
newpath 808.23 229.39 moveto
814.46 220.82 lineto
804.25 223.63 lineto
closepath stroke
grestore
% Y2->NNX
gsave
1 setlinewidth
0 0 0 edgecolor
newpath 563.16 271.06 moveto
566.09 269.89 569.08 268.84 572 268 curveto
703.21 230.37 751.75 286.24 877 232 curveto
880.26 230.59 883.46 228.8 886.53 226.79 curveto
stroke
0 0 0 edgecolor
newpath 888.83 229.45 moveto
894.79 220.69 lineto
884.67 223.82 lineto
closepath fill
1 setlinewidth
solid
0 0 0 edgecolor
newpath 888.83 229.45 moveto
894.79 220.69 lineto
884.67 223.82 lineto
closepath stroke
grestore
% Y2->NNXa
gsave
1 setlinewidth
0 0 0 edgecolor
newpath 563.14 270.99 moveto
566.08 269.83 569.07 268.8 572 268 curveto
736.03 223.01 794.59 293.93 953 232 curveto
956.07 230.8 959.11 229.3 962.07 227.62 curveto
stroke
0 0 0 edgecolor
newpath 964.11 230.46 moveto
970.62 222.11 lineto
960.32 224.58 lineto
closepath fill
1 setlinewidth
solid
0 0 0 edgecolor
newpath 964.11 230.46 moveto
970.62 222.11 lineto
960.32 224.58 lineto
closepath stroke
grestore
% Y2->NNY
gsave
1 setlinewidth
0 0 0 edgecolor
newpath 508.75 271.33 moveto
505.84 270.11 502.88 268.97 500 268 curveto
426.81 243.34 399.61 265.45 330 232 curveto
326.46 230.3 322.96 228.21 319.6 225.93 curveto
stroke
0 0 0 edgecolor
newpath 321.69 223.12 moveto
311.59 219.94 lineto
317.51 228.73 lineto
closepath fill
1 setlinewidth
solid
0 0 0 edgecolor
newpath 321.69 223.12 moveto
311.59 219.94 lineto
317.51 228.73 lineto
closepath stroke
grestore
% Y2->NNYa
gsave
1 setlinewidth
0 0 0 edgecolor
newpath 508.94 272.05 moveto
505.93 270.66 502.91 269.29 500 268 curveto
461.74 251.06 449.28 252.85 413 232 curveto
409.97 230.26 406.91 228.32 403.89 226.29 curveto
stroke
0 0 0 edgecolor
newpath 405.76 223.33 moveto
395.58 220.4 lineto
401.71 229.04 lineto
closepath fill
1 setlinewidth
solid
0 0 0 edgecolor
newpath 405.76 223.33 moveto
395.58 220.4 lineto
401.71 229.04 lineto
closepath stroke
grestore
% Y2->NNZ
gsave
1 setlinewidth
0 0 0 edgecolor
newpath 518.6 267.8 moveto
506.67 256.01 490.61 240.14 477.03 226.72 curveto
stroke
0 0 0 edgecolor
newpath 479.36 224.09 moveto
469.78 219.55 lineto
474.44 229.07 lineto
closepath fill
1 setlinewidth
solid
0 0 0 edgecolor
newpath 479.36 224.09 moveto
469.78 219.55 lineto
474.44 229.07 lineto
closepath stroke
grestore
% Y2->NNZa
gsave
1 setlinewidth
0 0 0 edgecolor
newpath 534.38 267.8 moveto
533.66 260.1 532.77 250.67 531.89 241.31 curveto
stroke
0 0 0 edgecolor
newpath 535.37 240.9 moveto
530.94 231.27 lineto
528.4 241.56 lineto
closepath fill
1 setlinewidth
solid
0 0 0 edgecolor
newpath 535.37 240.9 moveto
530.94 231.27 lineto
528.4 241.56 lineto
closepath stroke
grestore
% YX->NN1
gsave
1 setlinewidth
0 0 0 edgecolor
newpath 607.6 267.8 moveto
607.38 258.83 607.12 247.5 606.86 236.68 curveto
stroke
0 0 0 edgecolor
newpath 610.36 236.47 moveto
606.62 226.55 lineto
603.36 236.63 lineto
closepath fill
1 setlinewidth
solid
0 0 0 edgecolor
newpath 610.36 236.47 moveto
606.62 226.55 lineto
603.36 236.63 lineto
closepath stroke
grestore
% YX->NN1a
gsave
1 setlinewidth
0 0 0 edgecolor
newpath 623.18 267.8 moveto
632.61 257.11 645 243.07 656.05 230.54 curveto
stroke
0 0 0 edgecolor
newpath 658.73 232.79 moveto
662.73 222.98 lineto
653.48 228.16 lineto
closepath fill
1 setlinewidth
solid
0 0 0 edgecolor
newpath 658.73 232.79 moveto
662.73 222.98 lineto
653.48 228.16 lineto
closepath stroke
grestore
% YX->NN2
gsave
1 setlinewidth
0 0 0 edgecolor
newpath 635.11 272.15 moveto
638.11 270.74 641.12 269.34 644 268 curveto
679 251.76 690.52 252.83 723 232 curveto
726.36 229.84 729.74 227.4 733.01 224.85 curveto
stroke
0 0 0 edgecolor
newpath 735.37 227.44 moveto
740.85 218.38 lineto
730.91 222.04 lineto
closepath fill
1 setlinewidth
solid
0 0 0 edgecolor
newpath 735.37 227.44 moveto
740.85 218.38 lineto
730.91 222.04 lineto
closepath stroke
grestore
% YX->NN2a
gsave
1 setlinewidth
0 0 0 edgecolor
newpath 635.27 271.4 moveto
638.18 270.17 641.13 269.01 644 268 curveto
709.52 245.05 733.42 262.05 796 232 curveto
799.37 230.38 802.73 228.45 805.98 226.34 curveto
stroke
0 0 0 edgecolor
newpath 808.15 229.1 moveto
814.31 220.48 lineto
804.12 223.38 lineto
closepath fill
1 setlinewidth
solid
0 0 0 edgecolor
newpath 808.15 229.1 moveto
814.31 220.48 lineto
804.12 223.38 lineto
closepath stroke
grestore
% YX->NNX
gsave
1 setlinewidth
0 0 0 edgecolor
newpath 635.19 271.17 moveto
638.12 269.98 641.09 268.89 644 268 curveto
744.19 237.31 781.61 275.36 877 232 curveto
880.24 230.53 883.42 228.7 886.48 226.67 curveto
stroke
0 0 0 edgecolor
newpath 888.79 229.31 moveto
894.72 220.53 lineto
884.61 223.7 lineto
closepath fill
1 setlinewidth
solid
0 0 0 edgecolor
newpath 888.79 229.31 moveto
894.72 220.53 lineto
884.61 223.7 lineto
closepath stroke
grestore
% YX->NNXa
gsave
1 setlinewidth
0 0 0 edgecolor
newpath 635.16 271.05 moveto
638.09 269.89 641.08 268.84 644 268 curveto
776.93 229.98 824.78 283.74 953 232 curveto
956.06 230.77 959.09 229.24 962.04 227.54 curveto
stroke
0 0 0 edgecolor
newpath 964.1 230.38 moveto
970.58 222 lineto
960.29 224.51 lineto
closepath fill
1 setlinewidth
solid
0 0 0 edgecolor
newpath 964.1 230.38 moveto
970.58 222 lineto
960.29 224.51 lineto
closepath stroke
grestore
% YX->NNY
gsave
1 setlinewidth
0 0 0 edgecolor
newpath 580.81 271.15 moveto
577.88 269.96 574.91 268.88 572 268 curveto
467.94 236.44 429.4 276.08 330 232 curveto
326.51 230.45 323.08 228.51 319.79 226.34 curveto
stroke
0 0 0 edgecolor
newpath 321.59 223.32 moveto
311.46 220.22 lineto
317.45 228.96 lineto
closepath fill
1 setlinewidth
solid
0 0 0 edgecolor
newpath 321.59 223.32 moveto
311.46 220.22 lineto
317.45 228.96 lineto
closepath stroke
grestore
% YX->NNYa
gsave
1 setlinewidth
0 0 0 edgecolor
newpath 580.74 271.37 moveto
577.83 270.14 574.88 268.99 572 268 curveto
503.5 244.39 478.65 262.66 413 232 curveto
409.65 230.43 406.31 228.57 403.06 226.53 curveto
stroke
0 0 0 edgecolor
newpath 404.96 223.59 moveto
394.73 220.84 lineto
401.01 229.37 lineto
closepath fill
1 setlinewidth
solid
0 0 0 edgecolor
newpath 404.96 223.59 moveto
394.73 220.84 lineto
401.01 229.37 lineto
closepath stroke
grestore
% YX->NNZ
gsave
1 setlinewidth
0 0 0 edgecolor
newpath 580.93 272.07 moveto
577.92 270.68 574.9 269.3 572 268 curveto
534.55 251.24 521.83 253.68 487 232 curveto
483.86 230.04 480.72 227.83 477.66 225.5 curveto
stroke
0 0 0 edgecolor
newpath 479.82 222.74 moveto
469.85 219.15 lineto
475.41 228.17 lineto
closepath fill
1 setlinewidth
solid
0 0 0 edgecolor
newpath 479.82 222.74 moveto
469.85 219.15 lineto
475.41 228.17 lineto
closepath stroke
grestore
% YX->NNZa
gsave
1 setlinewidth
0 0 0 edgecolor
newpath 591.81 267.8 moveto
581.75 257.11 568.54 243.07 556.74 230.54 curveto
stroke
0 0 0 edgecolor
newpath 559.03 227.86 moveto
549.63 222.98 lineto
553.93 232.66 lineto
closepath fill
1 setlinewidth
solid
0 0 0 edgecolor
newpath 559.03 227.86 moveto
549.63 222.98 lineto
553.93 232.66 lineto
closepath stroke
grestore
% YX_a
gsave
1 setlinewidth
0 0 0 nodecolor
newpath 707 304 moveto
653 304 lineto
653 268 lineto
707 268 lineto
closepath stroke
0 0 0 nodecolor
14 /Times-Roman set_font
663.28 281.8 moveto 33.43 (YX_a) alignedtext
grestore
% PX->YX_a
gsave
1 setlinewidth
0 0 0 edgecolor
newpath 753.09 347.77 moveto
740.69 337.46 723.14 322.87 708.36 310.58 curveto
stroke
0 0 0 edgecolor
newpath 710.4 307.72 moveto
700.47 304.02 lineto
705.92 313.11 lineto
closepath fill
1 setlinewidth
solid
0 0 0 edgecolor
newpath 710.4 307.72 moveto
700.47 304.02 lineto
705.92 313.11 lineto
closepath stroke
grestore
% YX_a->NN1
gsave
1 setlinewidth
0 0 0 edgecolor
newpath 665.02 267.8 moveto
655.09 256.39 641.83 241.16 630.39 228.02 curveto
stroke
0 0 0 edgecolor
newpath 632.76 225.41 moveto
623.55 220.16 lineto
627.48 230 lineto
closepath fill
1 setlinewidth
solid
0 0 0 edgecolor
newpath 632.76 225.41 moveto
623.55 220.16 lineto
627.48 230 lineto
closepath stroke
grestore
% YX_a->NN1a
gsave
1 setlinewidth
0 0 0 edgecolor
newpath 680.61 267.8 moveto
680.89 259.89 681.23 250.14 681.57 240.53 curveto
stroke
0 0 0 edgecolor
newpath 685.08 240.37 moveto
681.93 230.25 lineto
678.08 240.12 lineto
closepath fill
1 setlinewidth
solid
0 0 0 edgecolor
newpath 685.08 240.37 moveto
681.93 230.25 lineto
678.08 240.12 lineto
closepath stroke
grestore
% YX_a->NN2
gsave
1 setlinewidth
0 0 0 edgecolor
newpath 696.19 267.8 moveto
707.18 256.12 721.94 240.43 734.5 227.09 curveto
stroke
0 0 0 edgecolor
newpath 737.29 229.23 moveto
741.6 219.55 lineto
732.19 224.44 lineto
closepath fill
1 setlinewidth
solid
0 0 0 edgecolor
newpath 737.29 229.23 moveto
741.6 219.55 lineto
732.19 224.44 lineto
closepath stroke
grestore
% YX_a->NN2a
gsave
1 setlinewidth
0 0 0 edgecolor
newpath 707.1 272.14 moveto
710.1 270.73 713.11 269.33 716 268 curveto
751.41 251.67 762.61 252.14 796 232 curveto
799.03 230.17 802.09 228.15 805.11 226.05 curveto
stroke
0 0 0 edgecolor
newpath 807.42 228.69 moveto
813.41 219.96 lineto
803.28 223.05 lineto
closepath fill
1 setlinewidth
solid
0 0 0 edgecolor
newpath 807.42 228.69 moveto
813.41 219.96 lineto
803.28 223.05 lineto
closepath stroke
grestore
% YX_a->NNX
gsave
1 setlinewidth
0 0 0 edgecolor
newpath 707.26 271.36 moveto
710.17 270.14 713.12 268.99 716 268 curveto
785.35 244.2 811.3 264.55 877 232 curveto
880.19 230.42 883.34 228.52 886.37 226.44 curveto
stroke
0 0 0 edgecolor
newpath 888.71 229.06 moveto
894.58 220.24 lineto
884.49 223.47 lineto
closepath fill
1 setlinewidth
solid
0 0 0 edgecolor
newpath 888.71 229.06 moveto
894.58 220.24 lineto
884.49 223.47 lineto
closepath stroke
grestore
% YX_a->NNXa
gsave
1 setlinewidth
0 0 0 edgecolor
newpath 707.19 271.16 moveto
710.12 269.97 713.09 268.89 716 268 curveto
817.91 236.93 854.91 273.58 953 232 curveto
956.04 230.71 959.05 229.15 961.99 227.43 curveto
stroke
0 0 0 edgecolor
newpath 964.07 230.25 moveto
970.52 221.84 lineto
960.23 224.39 lineto
closepath fill
1 setlinewidth
solid
0 0 0 edgecolor
newpath 964.07 230.25 moveto
970.52 221.84 lineto
960.23 224.39 lineto
closepath stroke
grestore
% YX_a->NNY
gsave
1 setlinewidth
0 0 0 edgecolor
newpath 652.84 271.05 moveto
649.91 269.88 646.92 268.83 644 268 curveto
508.91 229.5 459.35 286.78 330 232 curveto
326.49 230.51 323.04 228.6 319.74 226.46 curveto
stroke
0 0 0 edgecolor
newpath 321.53 223.44 moveto
311.39 220.37 lineto
317.41 229.09 lineto
closepath fill
1 setlinewidth
solid
0 0 0 edgecolor
newpath 321.53 223.44 moveto
311.39 220.37 lineto
317.41 229.09 lineto
closepath stroke
grestore
% YX_a->NNYa
gsave
1 setlinewidth
0 0 0 edgecolor
newpath 652.81 271.17 moveto
649.88 269.98 646.91 268.89 644 268 curveto
544.67 237.5 508.59 272.73 413 232 curveto
409.6 230.55 406.22 228.76 402.95 226.78 curveto
stroke
0 0 0 edgecolor
newpath 404.84 223.83 moveto
394.59 221.16 lineto
400.94 229.64 lineto
closepath fill
1 setlinewidth
solid
0 0 0 edgecolor
newpath 404.84 223.83 moveto
394.59 221.16 lineto
400.94 229.64 lineto
closepath stroke
grestore
% YX_a->NNZ
gsave
1 setlinewidth
0 0 0 edgecolor
newpath 652.74 271.38 moveto
649.82 270.15 646.87 268.99 644 268 curveto
576.35 244.58 550.85 264.37 487 232 curveto
483.7 230.33 480.45 228.3 477.33 226.08 curveto
stroke
0 0 0 edgecolor
newpath 479.46 223.3 moveto
469.43 219.89 lineto
475.15 228.81 lineto
closepath fill
1 setlinewidth
solid
0 0 0 edgecolor
newpath 479.46 223.3 moveto
469.43 219.89 lineto
475.15 228.81 lineto
closepath stroke
grestore
% YX_a->NNZa
gsave
1 setlinewidth
0 0 0 edgecolor
newpath 652.95 272.13 moveto
621.65 257.22 573.86 234.37 570 232 curveto
567.02 230.17 563.99 228.18 561 226.11 curveto
stroke
0 0 0 edgecolor
newpath 562.89 223.16 moveto
552.73 220.15 lineto
558.8 228.83 lineto
closepath fill
1 setlinewidth
solid
0 0 0 edgecolor
newpath 562.89 223.16 moveto
552.73 220.15 lineto
558.8 228.83 lineto
closepath stroke
grestore
% YY->NN1
gsave
1 setlinewidth
0 0 0 edgecolor
newpath 724.9 272.04 moveto
693.85 257.16 646.74 234.47 643 232 curveto
639.84 229.91 636.65 227.58 633.55 225.16 curveto
stroke
0 0 0 edgecolor
newpath 635.54 222.26 moveto
625.6 218.61 lineto
631.09 227.67 lineto
closepath fill
1 setlinewidth
solid
0 0 0 edgecolor
newpath 635.54 222.26 moveto
625.6 218.61 lineto
631.09 227.67 lineto
closepath stroke
grestore
% YY->NN1a
gsave
1 setlinewidth
0 0 0 edgecolor
newpath 738.04 267.8 moveto
729.57 257.37 718.52 243.75 708.54 231.46 curveto
stroke
0 0 0 edgecolor
newpath 711.19 229.18 moveto
702.17 223.62 lineto
705.76 233.59 lineto
closepath fill
1 setlinewidth
solid
0 0 0 edgecolor
newpath 711.19 229.18 moveto
702.17 223.62 lineto
705.76 233.59 lineto
closepath stroke
grestore
% YY->NN2
gsave
1 setlinewidth
0 0 0 edgecolor
newpath 753.62 267.8 moveto
754.47 258.76 755.55 247.31 756.57 236.41 curveto
stroke
0 0 0 edgecolor
newpath 760.08 236.51 moveto
757.53 226.22 lineto
753.11 235.85 lineto
closepath fill
1 setlinewidth
solid
0 0 0 edgecolor
newpath 760.08 236.51 moveto
757.53 226.22 lineto
753.11 235.85 lineto
closepath stroke
grestore
% YY->NN2a
gsave
1 setlinewidth
0 0 0 edgecolor
newpath 769.2 267.8 moveto
780.31 256.69 795.05 241.95 807.95 229.05 curveto
stroke
0 0 0 edgecolor
newpath 810.69 231.26 moveto
815.29 221.71 lineto
805.74 226.31 lineto
closepath fill
1 setlinewidth
solid
0 0 0 edgecolor
newpath 810.69 231.26 moveto
815.29 221.71 lineto
805.74 226.31 lineto
closepath stroke
grestore
% YY->NNX
gsave
1 setlinewidth
0 0 0 edgecolor
newpath 779.05 272.02 moveto
782.06 270.64 785.09 269.28 788 268 curveto
827.09 250.88 840.45 254.02 877 232 curveto
880.05 230.16 883.1 228.09 886.08 225.9 curveto
stroke
0 0 0 edgecolor
newpath 888.49 228.46 moveto
894.19 219.53 lineto
884.17 222.95 lineto
closepath fill
1 setlinewidth
solid
0 0 0 edgecolor
newpath 888.49 228.46 moveto
894.19 219.53 lineto
884.17 222.95 lineto
closepath stroke
grestore
% YY->NNXa
gsave
1 setlinewidth
0 0 0 edgecolor
newpath 779.25 271.35 moveto
782.17 270.12 785.12 268.98 788 268 curveto
859.06 243.82 884.87 263.49 953 232 curveto
956 230.62 958.98 228.99 961.9 227.21 curveto
stroke
0 0 0 edgecolor
newpath 964.01 230.01 moveto
970.38 221.54 lineto
960.12 224.19 lineto
closepath fill
1 setlinewidth
solid
0 0 0 edgecolor
newpath 964.01 230.01 moveto
970.38 221.54 lineto
960.12 224.19 lineto
closepath stroke
grestore
% YY->NNY
gsave
1 setlinewidth
0 0 0 edgecolor
newpath 724.86 270.99 moveto
721.92 269.83 718.93 268.8 716 268 curveto
549.81 222.53 489.36 297.52 330 232 curveto
326.47 230.55 323.01 228.67 319.71 226.54 curveto
stroke
0 0 0 edgecolor
newpath 321.5 223.52 moveto
311.35 220.47 lineto
317.39 229.18 lineto
closepath fill
1 setlinewidth
solid
0 0 0 edgecolor
newpath 321.5 223.52 moveto
311.35 220.47 lineto
317.39 229.18 lineto
closepath stroke
grestore
% YY->NNYa
gsave
1 setlinewidth
0 0 0 edgecolor
newpath 724.84 271.06 moveto
721.9 269.89 718.92 268.84 716 268 curveto
585.66 230.56 538.7 282.89 413 232 curveto
409.57 230.61 406.18 228.86 402.89 226.91 curveto
stroke
0 0 0 edgecolor
newpath 404.78 223.96 moveto
394.52 221.34 lineto
400.9 229.79 lineto
closepath fill
1 setlinewidth
solid
0 0 0 edgecolor
newpath 404.78 223.96 moveto
394.52 221.34 lineto
400.9 229.79 lineto
closepath stroke
grestore
% YY->NNZ
gsave
1 setlinewidth
0 0 0 edgecolor
newpath 724.8 271.17 moveto
721.88 269.98 718.91 268.89 716 268 curveto
617.53 237.7 580.45 275.37 487 232 curveto
483.64 230.44 480.36 228.49 477.22 226.32 curveto
stroke
0 0 0 edgecolor
newpath 479.34 223.54 moveto
469.29 220.19 lineto
475.06 229.07 lineto
closepath fill
1 setlinewidth
solid
0 0 0 edgecolor
newpath 479.34 223.54 moveto
469.29 220.19 lineto
475.06 229.07 lineto
closepath stroke
grestore
% YY->NNZa
gsave
1 setlinewidth
0 0 0 edgecolor
newpath 724.72 271.43 moveto
721.81 270.19 718.87 269.02 716 268 curveto
653.03 245.62 630.28 260.85 570 232 curveto
566.66 230.4 563.33 228.51 560.09 226.46 curveto
stroke
0 0 0 edgecolor
newpath 562 223.53 moveto
551.77 220.75 lineto
558.04 229.3 lineto
closepath fill
1 setlinewidth
solid
0 0 0 edgecolor
newpath 562 223.53 moveto
551.77 220.75 lineto
558.04 229.3 lineto
closepath stroke
grestore
% YY_a
gsave
1 setlinewidth
0 0 0 nodecolor
newpath 851 304 moveto
797 304 lineto
797 268 lineto
851 268 lineto
closepath stroke
0 0 0 nodecolor
14 /Times-Roman set_font
807.28 281.8 moveto 33.43 (YY_a) alignedtext
grestore
% PY->YY_a
gsave
1 setlinewidth
0 0 0 edgecolor
newpath 856.59 343.09 moveto
851.34 334.05 844.87 322.92 839.08 312.96 curveto
stroke
0 0 0 edgecolor
newpath 842.07 311.13 moveto
834.02 304.24 lineto
836.02 314.64 lineto
closepath fill
1 setlinewidth
solid
0 0 0 edgecolor
newpath 842.07 311.13 moveto
834.02 304.24 lineto
836.02 314.64 lineto
closepath stroke
grestore
% YY_a->NN1
gsave
1 setlinewidth
0 0 0 edgecolor
newpath 796.72 271.43 moveto
793.81 270.19 790.86 269.02 788 268 curveto
725.45 245.71 701.95 262.56 643 232 curveto
639.45 230.16 635.96 227.92 632.62 225.48 curveto
stroke
0 0 0 edgecolor
newpath 634.7 222.66 moveto
624.7 219.15 lineto
630.32 228.12 lineto
closepath fill
1 setlinewidth
solid
0 0 0 edgecolor
newpath 634.7 222.66 moveto
624.7 219.15 lineto
630.32 228.12 lineto
closepath stroke
grestore
% YY_a->NN1a
gsave
1 setlinewidth
0 0 0 edgecolor
newpath 796.96 272.28 moveto
776.42 262.23 747.74 247.39 724 232 curveto
721.03 230.08 718.01 227.99 715.02 225.84 curveto
stroke
0 0 0 edgecolor
newpath 716.87 222.85 moveto
706.76 219.68 lineto
712.69 228.46 lineto
closepath fill
1 setlinewidth
solid
0 0 0 edgecolor
newpath 716.87 222.85 moveto
706.76 219.68 lineto
712.69 228.46 lineto
closepath stroke
grestore
% YY_a->NN2
gsave
1 setlinewidth
0 0 0 edgecolor
newpath 811.05 267.8 moveto
802.78 256.82 791.84 242.29 782.21 229.5 curveto
stroke
0 0 0 edgecolor
newpath 784.92 227.28 moveto
776.11 221.4 lineto
779.33 231.5 lineto
closepath fill
1 setlinewidth
solid
0 0 0 edgecolor
newpath 784.92 227.28 moveto
776.11 221.4 lineto
779.33 231.5 lineto
closepath stroke
grestore
% YY_a->NN2a
gsave
1 setlinewidth
0 0 0 edgecolor
newpath 826.63 267.8 moveto
827.86 259.73 829.39 249.76 830.89 239.96 curveto
stroke
0 0 0 edgecolor
newpath 834.37 240.32 moveto
832.43 229.91 lineto
827.45 239.26 lineto
closepath fill
1 setlinewidth
solid
0 0 0 edgecolor
newpath 834.37 240.32 moveto
832.43 229.91 lineto
827.45 239.26 lineto
closepath stroke
grestore
% YY_a->NNX
gsave
1 setlinewidth
0 0 0 edgecolor
newpath 842.42 267.8 moveto
855.04 256.01 872.03 240.14 886.4 226.72 curveto
stroke
0 0 0 edgecolor
newpath 889.15 228.94 moveto
894.07 219.55 lineto
884.37 223.82 lineto
closepath fill
1 setlinewidth
solid
0 0 0 edgecolor
newpath 889.15 228.94 moveto
894.07 219.55 lineto
884.37 223.82 lineto
closepath stroke
grestore
% YY_a->NNXa
gsave
1 setlinewidth
0 0 0 edgecolor
newpath 851.03 271.98 moveto
854.04 270.61 857.08 269.25 860 268 curveto
900.73 250.53 914.32 253.64 953 232 curveto
955.88 230.39 958.78 228.6 961.64 226.71 curveto
stroke
0 0 0 edgecolor
newpath 963.84 229.44 moveto
970.02 220.83 lineto
959.83 223.71 lineto
closepath fill
1 setlinewidth
solid
0 0 0 edgecolor
newpath 963.84 229.44 moveto
970.02 220.83 lineto
959.83 223.71 lineto
closepath stroke
grestore
% YY_a->NNY
gsave
1 setlinewidth
0 0 0 edgecolor
newpath 796.87 270.94 moveto
793.93 269.8 790.94 268.78 788 268 curveto
590.67 215.55 519.41 308.26 330 232 curveto
326.46 230.57 323 228.71 319.68 226.59 curveto
stroke
0 0 0 edgecolor
newpath 321.48 223.57 moveto
311.33 220.54 lineto
317.37 229.24 lineto
closepath fill
1 setlinewidth
solid
0 0 0 edgecolor
newpath 321.48 223.57 moveto
311.33 220.54 lineto
317.37 229.24 lineto
closepath stroke
grestore
% YY_a->NNYa
gsave
1 setlinewidth
0 0 0 edgecolor
newpath 796.86 270.99 moveto
793.92 269.84 790.93 268.81 788 268 curveto
626.56 223.59 568.9 293.08 413 232 curveto
409.55 230.65 406.15 228.93 402.86 226.99 curveto
stroke
0 0 0 edgecolor
newpath 404.74 224.04 moveto
394.47 221.44 lineto
400.88 229.88 lineto
closepath fill
1 setlinewidth
solid
0 0 0 edgecolor
newpath 404.74 224.04 moveto
394.47 221.44 lineto
400.88 229.88 lineto
closepath stroke
grestore
% YY_a->NNZ
gsave
1 setlinewidth
0 0 0 edgecolor
newpath 796.84 271.06 moveto
793.9 269.89 790.92 268.84 788 268 curveto
658.52 230.75 610.24 286.45 487 232 curveto
483.62 230.5 480.31 228.59 477.16 226.45 curveto
stroke
0 0 0 edgecolor
newpath 479.28 223.66 moveto
469.22 220.35 lineto
475.02 229.22 lineto
closepath fill
1 setlinewidth
solid
0 0 0 edgecolor
newpath 479.28 223.66 moveto
469.22 220.35 lineto
475.02 229.22 lineto
closepath stroke
grestore
% YY_a->NNZa
gsave
1 setlinewidth
0 0 0 edgecolor
newpath 796.8 271.2 moveto
793.87 270 790.9 268.91 788 268 curveto
694.26 238.75 660.16 270.91 570 232 curveto
566.6 230.53 563.23 228.73 559.96 226.74 curveto
stroke
0 0 0 edgecolor
newpath 561.86 223.8 moveto
551.61 221.12 lineto
557.95 229.61 lineto
closepath fill
1 setlinewidth
solid
0 0 0 edgecolor
newpath 561.86 223.8 moveto
551.61 221.12 lineto
557.95 229.61 lineto
closepath stroke
grestore
% YZ->NN1
gsave
1 setlinewidth
0 0 0 edgecolor
newpath 868.8 271.2 moveto
865.87 270 862.9 268.91 860 268 curveto
766.68 238.85 731.5 273.53 643 232 curveto
639.38 230.3 635.85 228.15 632.48 225.77 curveto
stroke
0 0 0 edgecolor
newpath 634.55 222.94 moveto
624.53 219.49 lineto
630.21 228.43 lineto
closepath fill
1 setlinewidth
solid
0 0 0 edgecolor
newpath 634.55 222.94 moveto
624.53 219.49 lineto
630.21 228.43 lineto
closepath stroke
grestore
% YZ->NN1a
gsave
1 setlinewidth
0 0 0 edgecolor
newpath 868.7 271.48 moveto
865.8 270.23 862.86 269.04 860 268 curveto
801.26 246.56 780.01 259.8 724 232 curveto
720.65 230.34 717.31 228.37 714.06 226.25 curveto
stroke
0 0 0 edgecolor
newpath 715.93 223.29 moveto
705.75 220.36 lineto
711.88 229 lineto
closepath fill
1 setlinewidth
solid
0 0 0 edgecolor
newpath 715.93 223.29 moveto
705.75 220.36 lineto
711.88 229 lineto
closepath stroke
grestore
% YZ->NN2
gsave
1 setlinewidth
0 0 0 edgecolor
newpath 868.69 271.24 moveto
843.99 258.64 809.61 240.67 797 232 curveto
793.88 229.85 790.72 227.48 787.63 225.03 curveto
stroke
0 0 0 edgecolor
newpath 789.63 222.14 moveto
779.7 218.45 lineto
785.16 227.53 lineto
closepath fill
1 setlinewidth
solid
0 0 0 edgecolor
newpath 789.63 222.14 moveto
779.7 218.45 lineto
785.16 227.53 lineto
closepath stroke
grestore
% YZ->NN2a
gsave
1 setlinewidth
0 0 0 edgecolor
newpath 884.06 267.8 moveto
877.23 257.96 868.43 245.28 860.29 233.55 curveto
stroke
0 0 0 edgecolor
newpath 863.09 231.46 moveto
854.52 225.24 lineto
857.34 235.45 lineto
closepath fill
1 setlinewidth
solid
0 0 0 edgecolor
newpath 863.09 231.46 moveto
854.52 225.24 lineto
857.34 235.45 lineto
closepath stroke
grestore
% YZ->NNX
gsave
1 setlinewidth
0 0 0 edgecolor
newpath 899.84 267.8 moveto
901.78 259.12 904.22 248.24 906.56 237.74 curveto
stroke
0 0 0 edgecolor
newpath 910 238.41 moveto
908.77 227.88 lineto
903.17 236.88 lineto
closepath fill
1 setlinewidth
solid
0 0 0 edgecolor
newpath 910 238.41 moveto
908.77 227.88 lineto
903.17 236.88 lineto
closepath stroke
grestore
% YZ->NNXa
gsave
1 setlinewidth
0 0 0 edgecolor
newpath 916.03 267.8 moveto
929.31 256.4 947.04 241.18 962.33 228.05 curveto
stroke
0 0 0 edgecolor
newpath 964.77 230.57 moveto
970.07 221.4 lineto
960.21 225.26 lineto
closepath fill
1 setlinewidth
solid
0 0 0 edgecolor
newpath 964.77 230.57 moveto
970.07 221.4 lineto
960.21 225.26 lineto
closepath stroke
grestore
% YZ->NNY
gsave
1 setlinewidth
0 0 0 edgecolor
newpath 868.88 270.91 moveto
865.94 269.77 862.94 268.77 860 268 curveto
631.51 208.56 549.48 319.02 330 232 curveto
326.45 230.59 322.98 228.74 319.67 226.63 curveto
stroke
0 0 0 edgecolor
newpath 321.46 223.61 moveto
311.31 220.59 lineto
317.36 229.28 lineto
closepath fill
1 setlinewidth
solid
0 0 0 edgecolor
newpath 321.46 223.61 moveto
311.31 220.59 lineto
317.36 229.28 lineto
closepath stroke
grestore
% YZ->NNYa
gsave
1 setlinewidth
0 0 0 edgecolor
newpath 868.87 270.95 moveto
865.93 269.8 862.94 268.78 860 268 curveto
667.43 216.61 599.13 303.28 413 232 curveto
409.54 230.68 406.13 228.97 402.84 227.05 curveto
stroke
0 0 0 edgecolor
newpath 404.72 224.09 moveto
394.44 221.52 lineto
400.87 229.94 lineto
closepath fill
1 setlinewidth
solid
0 0 0 edgecolor
newpath 404.72 224.09 moveto
394.44 221.52 lineto
400.87 229.94 lineto
closepath stroke
grestore
% YZ->NNZ
gsave
1 setlinewidth
0 0 0 edgecolor
newpath 868.86 271 moveto
865.92 269.84 862.93 268.81 860 268 curveto
699.43 223.79 640.1 297.57 487 232 curveto
483.52 230.51 480.12 228.56 476.89 226.37 curveto
stroke
0 0 0 edgecolor
newpath 478.84 223.45 moveto
468.78 220.12 lineto
474.57 229 lineto
closepath fill
1 setlinewidth
solid
0 0 0 edgecolor
newpath 478.84 223.45 moveto
468.78 220.12 lineto
474.57 229 lineto
closepath stroke
grestore
% YZ->NNZa
gsave
1 setlinewidth
0 0 0 edgecolor
newpath 868.83 271.08 moveto
865.9 269.91 862.92 268.85 860 268 curveto
735.26 231.82 690.26 281.05 570 232 curveto
566.57 230.6 563.18 228.85 559.9 226.89 curveto
stroke
0 0 0 edgecolor
newpath 561.79 223.94 moveto
551.53 221.31 lineto
557.91 229.77 lineto
closepath fill
1 setlinewidth
solid
0 0 0 edgecolor
newpath 561.79 223.94 moveto
551.53 221.31 lineto
557.91 229.77 lineto
closepath stroke
grestore
% YZ_a
gsave
1 setlinewidth
0 0 0 nodecolor
newpath 995 304 moveto
941 304 lineto
941 268 lineto
995 268 lineto
closepath stroke
0 0 0 nodecolor
14 /Times-Roman set_font
952.06 281.8 moveto 31.88 (YZ_a) alignedtext
grestore
% PZ->YZ_a
gsave
1 setlinewidth
0 0 0 edgecolor
newpath 965.79 341.56 moveto
966.13 333.19 966.53 323.25 966.9 314.17 curveto
stroke
0 0 0 edgecolor
newpath 970.4 314.18 moveto
967.31 304.05 lineto
963.41 313.9 lineto
closepath fill
1 setlinewidth
solid
0 0 0 edgecolor
newpath 970.4 314.18 moveto
967.31 304.05 lineto
963.41 313.9 lineto
closepath stroke
grestore
% YZ_a->NN1
gsave
1 setlinewidth
0 0 0 edgecolor
newpath 940.83 271.08 moveto
937.9 269.91 934.92 268.85 932 268 curveto
807.7 231.91 761.27 284.6 643 232 curveto
639.35 230.38 635.79 228.27 632.42 225.91 curveto
stroke
0 0 0 edgecolor
newpath 634.48 223.08 moveto
624.45 219.67 lineto
630.16 228.59 lineto
closepath fill
1 setlinewidth
solid
0 0 0 edgecolor
newpath 634.48 223.08 moveto
624.45 219.67 lineto
630.16 228.59 lineto
closepath stroke
grestore
% YZ_a->NN1a
gsave
1 setlinewidth
0 0 0 edgecolor
newpath 940.79 271.22 moveto
937.87 270.02 934.9 268.92 932 268 curveto
842.55 239.71 809.78 270 724 232 curveto
720.58 230.48 717.19 228.62 713.92 226.56 curveto
stroke
0 0 0 edgecolor
newpath 715.77 223.59 moveto
705.56 220.76 lineto
711.78 229.34 lineto
closepath fill
1 setlinewidth
solid
0 0 0 edgecolor
newpath 715.77 223.59 moveto
705.56 220.76 lineto
711.78 229.34 lineto
closepath stroke
grestore
% YZ_a->NN2
gsave
1 setlinewidth
0 0 0 edgecolor
newpath 940.7 271.48 moveto
937.79 270.23 934.86 269.05 932 268 curveto
873.69 246.66 851.88 261.05 797 232 curveto
793.47 230.13 789.99 227.87 786.66 225.42 curveto
stroke
0 0 0 edgecolor
newpath 788.73 222.6 moveto
778.74 219.07 lineto
784.35 228.06 lineto
closepath fill
1 setlinewidth
solid
0 0 0 edgecolor
newpath 788.73 222.6 moveto
778.74 219.07 lineto
784.35 228.06 lineto
closepath stroke
grestore
% YZ_a->NN2a
gsave
1 setlinewidth
0 0 0 edgecolor
newpath 940.68 270.47 moveto
922.27 260.35 897.66 246.16 877 232 curveto
874.29 230.14 871.52 228.15 868.78 226.1 curveto
stroke
0 0 0 edgecolor
newpath 870.74 223.2 moveto
860.68 219.88 lineto
866.48 228.75 lineto
closepath fill
1 setlinewidth
solid
0 0 0 edgecolor
newpath 870.74 223.2 moveto
860.68 219.88 lineto
866.48 228.75 lineto
closepath stroke
grestore
% YZ_a->NNX
gsave
1 setlinewidth
0 0 0 edgecolor
newpath 957.27 267.8 moveto
951.06 257.83 943.02 244.93 935.62 233.07 curveto
stroke
0 0 0 edgecolor
newpath 938.39 230.9 moveto
930.13 224.26 lineto
932.45 234.6 lineto
closepath fill
1 setlinewidth
solid
0 0 0 edgecolor
newpath 938.39 230.9 moveto
930.13 224.26 lineto
932.45 234.6 lineto
closepath stroke
grestore
% YZ_a->NNXa
gsave
1 setlinewidth
0 0 0 edgecolor
newpath 973.46 267.8 moveto
975.96 259.95 979.03 250.29 982.06 240.75 curveto
stroke
0 0 0 edgecolor
newpath 985.48 241.52 moveto
985.17 230.93 lineto
978.81 239.4 lineto
closepath fill
1 setlinewidth
solid
0 0 0 edgecolor
newpath 985.48 241.52 moveto
985.17 230.93 lineto
978.81 239.4 lineto
closepath stroke
grestore
% YZ_a->NNY
gsave
1 setlinewidth
0 0 0 edgecolor
newpath 940.89 270.88 moveto
937.94 269.75 934.95 268.75 932 268 curveto
802.16 234.78 454.78 280.89 330 232 curveto
326.45 230.61 322.97 228.76 319.66 226.66 curveto
stroke
0 0 0 edgecolor
newpath 321.45 223.64 moveto
311.29 220.62 lineto
317.35 229.31 lineto
closepath fill
1 setlinewidth
solid
0 0 0 edgecolor
newpath 321.45 223.64 moveto
311.29 220.62 lineto
317.35 229.31 lineto
closepath stroke
grestore
% YZ_a->NNYa
gsave
1 setlinewidth
0 0 0 edgecolor
newpath 940.88 270.91 moveto
937.94 269.77 934.94 268.77 932 268 curveto
708.27 209.63 629.39 313.49 413 232 curveto
409.54 230.7 406.12 229.01 402.82 227.09 curveto
stroke
0 0 0 edgecolor
newpath 404.7 224.13 moveto
394.42 221.57 lineto
400.86 229.99 lineto
closepath fill
1 setlinewidth
solid
0 0 0 edgecolor
newpath 404.7 224.13 moveto
394.42 221.57 lineto
400.86 229.99 lineto
closepath stroke
grestore
% YZ_a->NNZ
gsave
1 setlinewidth
0 0 0 edgecolor
newpath 940.87 270.95 moveto
937.93 269.8 934.94 268.78 932 268 curveto
740.29 216.81 670 308.7 487 232 curveto
483.5 230.54 480.1 228.61 476.87 226.43 curveto
stroke
0 0 0 edgecolor
newpath 478.82 223.51 moveto
468.75 220.19 lineto
474.55 229.06 lineto
closepath fill
1 setlinewidth
solid
0 0 0 edgecolor
newpath 478.82 223.51 moveto
468.75 220.19 lineto
474.55 229.06 lineto
closepath stroke
grestore
% YZ_a->NNZa
gsave
1 setlinewidth
0 0 0 edgecolor
newpath 940.85 271 moveto
937.92 269.85 934.93 268.81 932 268 curveto
776.18 224.85 720.44 291.23 570 232 curveto
566.56 230.64 563.15 228.92 559.87 226.98 curveto
stroke
0 0 0 edgecolor
newpath 561.75 224.03 moveto
551.48 221.43 lineto
557.89 229.86 lineto
closepath fill
1 setlinewidth
solid
0 0 0 edgecolor
newpath 561.75 224.03 moveto
551.48 221.43 lineto
557.89 229.86 lineto
closepath stroke
grestore
% Y_Predition
gsave
1 setlinewidth
0 0 0 nodecolor
644 76 53.01 53.18 ellipse_path stroke
0 0 0 nodecolor
14 /Times-Roman set_font
609.78 71.8 moveto 68.44 (Y_Predition) alignedtext
grestore
% NN1->Y_Predition
gsave
1 setlinewidth
0 0 0 edgecolor
newpath 613.97 172.63 moveto
617.26 162.14 621.23 149.49 625.2 136.88 curveto
stroke
0 0 0 edgecolor
newpath 628.55 137.87 moveto
628.21 127.28 lineto
621.88 135.77 lineto
closepath fill
1 setlinewidth
solid
0 0 0 edgecolor
newpath 628.55 137.87 moveto
628.21 127.28 lineto
621.88 135.77 lineto
closepath stroke
grestore
% NN1a->Y_Predition
gsave
1 setlinewidth
0 0 0 edgecolor
newpath 673.66 169.02 moveto
670.52 159.28 666.9 148.04 663.28 136.83 curveto
stroke
0 0 0 edgecolor
newpath 666.52 135.46 moveto
660.12 127.02 lineto
659.86 137.61 lineto
closepath fill
1 setlinewidth
solid
0 0 0 edgecolor
newpath 666.52 135.46 moveto
660.12 127.02 lineto
659.86 137.61 lineto
closepath stroke
grestore
% NN2->Y_Predition
gsave
1 setlinewidth
0 0 0 edgecolor
newpath 741.62 178.83 moveto
727.12 163.7 706.29 141.97 687.59 122.47 curveto
stroke
0 0 0 edgecolor
newpath 689.99 119.92 moveto
680.54 115.12 lineto
684.94 124.76 lineto
closepath fill
1 setlinewidth
solid
0 0 0 edgecolor
newpath 689.99 119.92 moveto
680.54 115.12 lineto
684.94 124.76 lineto
closepath stroke
grestore
% NN2a->Y_Predition
gsave
1 setlinewidth
0 0 0 edgecolor
newpath 813.12 178.5 moveto
807.6 174.24 801.68 169.85 796 166 curveto
764.93 144.91 728.69 123.58 699.39 107.09 curveto
stroke
0 0 0 edgecolor
newpath 700.97 103.96 moveto
690.54 102.13 lineto
697.55 110.07 lineto
closepath fill
1 setlinewidth
solid
0 0 0 edgecolor
newpath 700.97 103.96 moveto
690.54 102.13 lineto
697.55 110.07 lineto
closepath stroke
grestore
% NNX->Y_Predition
gsave
1 setlinewidth
0 0 0 edgecolor
newpath 894.24 178.39 moveto
888.89 173.94 882.94 169.5 877 166 curveto
822.2 133.72 753.58 109.18 705.04 94.13 curveto
stroke
0 0 0 edgecolor
newpath 705.89 90.73 moveto
695.31 91.15 lineto
703.85 97.42 lineto
closepath fill
1 setlinewidth
solid
0 0 0 edgecolor
newpath 705.89 90.73 moveto
695.31 91.15 lineto
703.85 97.42 lineto
closepath stroke
grestore
% NNXa->Y_Predition
gsave
1 setlinewidth
0 0 0 edgecolor
newpath 970.24 176.76 moveto
964.8 172.79 958.9 168.96 953 166 curveto
872.51 125.54 770.72 100.73 706.46 87.91 curveto
stroke
0 0 0 edgecolor
newpath 706.96 84.44 moveto
696.48 85.95 lineto
705.62 91.31 lineto
closepath fill
1 setlinewidth
solid
0 0 0 edgecolor
newpath 706.96 84.44 moveto
696.48 85.95 lineto
705.62 91.31 lineto
closepath stroke
grestore
% NNY->Y_Predition
gsave
1 setlinewidth
0 0 0 edgecolor
newpath 311.74 178.36 moveto
317.35 173.81 323.64 169.33 330 166 curveto
411.51 123.39 515.89 99.04 581.37 86.92 curveto
stroke
0 0 0 edgecolor
newpath 582.32 90.3 moveto
591.54 85.07 lineto
581.07 83.41 lineto
closepath fill
1 setlinewidth
solid
0 0 0 edgecolor
newpath 582.32 90.3 moveto
591.54 85.07 lineto
581.07 83.41 lineto
closepath stroke
grestore
% NNYa->Y_Predition
gsave
1 setlinewidth
0 0 0 edgecolor
newpath 395.52 177.49 moveto
401.07 173.38 407.08 169.31 413 166 curveto
467.94 135.31 535.59 110.62 583.45 95.09 curveto
stroke
0 0 0 edgecolor
newpath 584.59 98.4 moveto
593.05 92.02 lineto
582.46 91.74 lineto
closepath fill
1 setlinewidth
solid
0 0 0 edgecolor
newpath 584.59 98.4 moveto
593.05 92.02 lineto
582.46 91.74 lineto
closepath stroke
grestore
% NNZ->Y_Predition
gsave
1 setlinewidth
0 0 0 edgecolor
newpath 470.55 178.98 moveto
475.75 174.51 481.45 169.92 487 166 curveto
518.92 143.48 557 121.78 587.65 105.45 curveto
stroke
0 0 0 edgecolor
newpath 589.3 108.54 moveto
596.5 100.77 lineto
586.03 102.35 lineto
closepath fill
1 setlinewidth
solid
0 0 0 edgecolor
newpath 589.3 108.54 moveto
596.5 100.77 lineto
586.03 102.35 lineto
closepath stroke
grestore
% NNZa->Y_Predition
gsave
1 setlinewidth
0 0 0 edgecolor
newpath 549.82 175.24 moveto
563.95 160.51 582.84 140.8 600 122.9 curveto
stroke
0 0 0 edgecolor
newpath 602.83 125 moveto
607.22 115.36 lineto
597.78 120.16 lineto
closepath fill
1 setlinewidth
solid
0 0 0 edgecolor
newpath 602.83 125 moveto
607.22 115.36 lineto
597.78 120.16 lineto
closepath stroke
grestore
endpage
showpage
grestore
%%PageTrailer
%%EndPage: 1
%%Trailer
end
restore
%%EOF
