%!PS-Adobe-3.0 EPSF-3.0
%%Creator: graphviz version 2.36.0 (20140111.2315)
%%Title: decision
%%Pages: 1
%%BoundingBox: 36 36 344 348
%%EndComments
save
%%BeginProlog
/DotDict 200 dict def
DotDict begin

/setupLatin1 {
mark
/EncodingVector 256 array def
 EncodingVector 0

ISOLatin1Encoding 0 255 getinterval putinterval
EncodingVector 45 /hyphen put

% Set up ISO Latin 1 character encoding
/starnetISO {
        dup dup findfont dup length dict begin
        { 1 index /FID ne { def }{ pop pop } ifelse
        } forall
        /Encoding EncodingVector def
        currentdict end definefont
} def
/Times-Roman starnetISO def
/Times-Italic starnetISO def
/Times-Bold starnetISO def
/Times-BoldItalic starnetISO def
/Helvetica starnetISO def
/Helvetica-Oblique starnetISO def
/Helvetica-Bold starnetISO def
/Helvetica-BoldOblique starnetISO def
/Courier starnetISO def
/Courier-Oblique starnetISO def
/Courier-Bold starnetISO def
/Courier-BoldOblique starnetISO def
cleartomark
} bind def

%%BeginResource: procset graphviz 0 0
/coord-font-family /Times-Roman def
/default-font-family /Times-Roman def
/coordfont coord-font-family findfont 8 scalefont def

/InvScaleFactor 1.0 def
/set_scale {
       dup 1 exch div /InvScaleFactor exch def
       scale
} bind def

% styles
/solid { [] 0 setdash } bind def
/dashed { [9 InvScaleFactor mul dup ] 0 setdash } bind def
/dotted { [1 InvScaleFactor mul 6 InvScaleFactor mul] 0 setdash } bind def
/invis {/fill {newpath} def /stroke {newpath} def /show {pop newpath} def} bind def
/bold { 2 setlinewidth } bind def
/filled { } bind def
/unfilled { } bind def
/rounded { } bind def
/diagonals { } bind def
/tapered { } bind def

% hooks for setting color 
/nodecolor { sethsbcolor } bind def
/edgecolor { sethsbcolor } bind def
/graphcolor { sethsbcolor } bind def
/nopcolor {pop pop pop} bind def

/beginpage {	% i j npages
	/npages exch def
	/j exch def
	/i exch def
	/str 10 string def
	npages 1 gt {
		gsave
			coordfont setfont
			0 0 moveto
			(\() show i str cvs show (,) show j str cvs show (\)) show
		grestore
	} if
} bind def

/set_font {
	findfont exch
	scalefont setfont
} def

% draw text fitted to its expected width
/alignedtext {			% width text
	/text exch def
	/width exch def
	gsave
		width 0 gt {
			[] 0 setdash
			text stringwidth pop width exch sub text length div 0 text ashow
		} if
	grestore
} def

/boxprim {				% xcorner ycorner xsize ysize
		4 2 roll
		moveto
		2 copy
		exch 0 rlineto
		0 exch rlineto
		pop neg 0 rlineto
		closepath
} bind def

/ellipse_path {
	/ry exch def
	/rx exch def
	/y exch def
	/x exch def
	matrix currentmatrix
	newpath
	x y translate
	rx ry scale
	0 0 1 0 360 arc
	setmatrix
} bind def

/endpage { showpage } bind def
/showpage { } def

/layercolorseq
	[	% layer color sequence - darkest to lightest
		[0 0 0]
		[.2 .8 .8]
		[.4 .8 .8]
		[.6 .8 .8]
		[.8 .8 .8]
	]
def

/layerlen layercolorseq length def

/setlayer {/maxlayer exch def /curlayer exch def
	layercolorseq curlayer 1 sub layerlen mod get
	aload pop sethsbcolor
	/nodecolor {nopcolor} def
	/edgecolor {nopcolor} def
	/graphcolor {nopcolor} def
} bind def

/onlayer { curlayer ne {invis} if } def

/onlayers {
	/myupper exch def
	/mylower exch def
	curlayer mylower lt
	curlayer myupper gt
	or
	{invis} if
} def

/curlayer 0 def

%%EndResource
%%EndProlog
%%BeginSetup
14 default-font-family set_font
1 setmiterlimit
% /arrowlength 10 def
% /arrowwidth 5 def

% make sure pdfmark is harmless for PS-interpreters other than Distiller
/pdfmark where {pop} {userdict /pdfmark /cleartomark load put} ifelse
% make '<<' and '>>' safe on PS Level 1 devices
/languagelevel where {pop languagelevel}{1} ifelse
2 lt {
    userdict (<<) cvn ([) cvn load put
    userdict (>>) cvn ([) cvn load put
} if

%%EndSetup
setupLatin1
%%Page: 1 1
%%PageBoundingBox: 36 36 344 348
%%PageOrientation: Portrait
0 0 1 beginpage
gsave
36 36 308 312 boxprim clip newpath
1 1 set_scale 0 rotate 40 40 translate
0 0 0 graphcolor
14 /Times-Roman set_font
66.03 6.8 moveto 168 (Decision Tree - Data Splitting) alignedtext
% invis
gsave
0 0 0 nodecolor
100 302 1.8 1.8 ellipse_path fill
1 setlinewidth
filled
0 0 0 nodecolor
100 302 1.8 1.8 ellipse_path stroke
grestore
% Outlook
gsave
1 setlinewidth
0 0 0 nodecolor
100 232 37.06 18 ellipse_path stroke
0 0 0 nodecolor
14 /Times-Roman set_font
78.42 227.8 moveto 43.17 (Node A) alignedtext
grestore
% invis->Outlook
gsave
1 setlinewidth
0 0 0 edgecolor
newpath 100 300.04 moveto
100 295.64 100 276.96 100 260.42 curveto
stroke
0 0 0 edgecolor
newpath 103.5 260.04 moveto
100 250.04 lineto
96.5 260.04 lineto
closepath fill
1 setlinewidth
solid
0 0 0 edgecolor
newpath 103.5 260.04 moveto
100 250.04 lineto
96.5 260.04 lineto
closepath stroke
0 0 0 edgecolor
14 /Times-Roman set_font
100 270.8 moveto 51.06 (S:[9+,5-]) alignedtext
grestore
% Terminal1
gsave
1 setlinewidth
0 0 0 nodecolor
22 141 22.47 22.96 ellipse_path stroke
0 0 0 nodecolor
14 /Times-Roman set_font
11.81 136.8 moveto 20.38 (Yes) alignedtext
grestore
% Outlook->Terminal1
gsave
1 setlinewidth
0 0 0 edgecolor
newpath 74.28 218.95 moveto
64.09 213.16 52.93 205.42 44.94 196 curveto
39.28 189.32 34.83 181.03 31.42 172.97 curveto
stroke
0 0 0 edgecolor
newpath 34.59 171.47 moveto
27.76 163.37 lineto
28.05 173.96 lineto
closepath fill
1 setlinewidth
solid
0 0 0 edgecolor
newpath 34.59 171.47 moveto
27.76 163.37 lineto
28.05 173.96 lineto
closepath stroke
0 0 0 edgecolor
14 /Times-Roman set_font
45 184.8 moveto 51.06 (S:[4+,0-]) alignedtext
grestore
% Humidity
gsave
1 setlinewidth
0 0 0 nodecolor
100 141 37.06 18 ellipse_path stroke
0 0 0 nodecolor
14 /Times-Roman set_font
78.42 136.8 moveto 43.16 (Node B) alignedtext
grestore
% Outlook->Humidity
gsave
1 setlinewidth
0 0 0 edgecolor
newpath 100 213.84 moveto
100 201.28 100 183.98 100 169.5 curveto
stroke
0 0 0 edgecolor
newpath 103.5 169.11 moveto
100 159.11 lineto
96.5 169.11 lineto
closepath fill
1 setlinewidth
solid
0 0 0 edgecolor
newpath 103.5 169.11 moveto
100 159.11 lineto
96.5 169.11 lineto
closepath stroke
0 0 0 edgecolor
14 /Times-Roman set_font
100 184.8 moveto 51.06 (S:[2+,3-]) alignedtext
grestore
% Wind
gsave
1 setlinewidth
0 0 0 nodecolor
193 141 37.06 18 ellipse_path stroke
0 0 0 nodecolor
14 /Times-Roman set_font
171.42 136.8 moveto 43.16 (Node C) alignedtext
grestore
% Outlook->Wind
gsave
1 setlinewidth
0 0 0 edgecolor
newpath 124.48 218.22 moveto
134.57 212.27 145.99 204.6 155 196 curveto
163.76 187.64 171.76 176.98 178.14 167.34 curveto
stroke
0 0 0 edgecolor
newpath 181.11 169.2 moveto
183.52 158.88 lineto
175.2 165.45 lineto
closepath fill
1 setlinewidth
solid
0 0 0 edgecolor
newpath 181.11 169.2 moveto
183.52 158.88 lineto
175.2 165.45 lineto
closepath stroke
0 0 0 edgecolor
14 /Times-Roman set_font
168 184.8 moveto 51.06 (S:[3+,2-]) alignedtext
grestore
% Terminal4
gsave
1 setlinewidth
0 0 0 nodecolor
31 45 20.37 20.83 ellipse_path stroke
0 0 0 nodecolor
14 /Times-Roman set_font
22.44 40.8 moveto 17.11 (No) alignedtext
grestore
% Humidity->Terminal4
gsave
1 setlinewidth
0 0 0 edgecolor
newpath 76.85 126.74 moveto
66.72 119.91 55.45 110.74 47.94 100 curveto
42.9 92.78 39.31 84.01 36.78 75.64 curveto
stroke
0 0 0 edgecolor
newpath 40.11 74.56 moveto
34.18 65.78 lineto
33.34 76.34 lineto
closepath fill
1 setlinewidth
solid
0 0 0 edgecolor
newpath 40.11 74.56 moveto
34.18 65.78 lineto
33.34 76.34 lineto
closepath stroke
0 0 0 edgecolor
14 /Times-Roman set_font
48 88.8 moveto 51.06 (S:[0+,3-]) alignedtext
grestore
% Terminal5
gsave
1 setlinewidth
0 0 0 nodecolor
105 45 22.47 22.96 ellipse_path stroke
0 0 0 nodecolor
14 /Times-Roman set_font
94.81 40.8 moveto 20.38 (Yes) alignedtext
grestore
% Humidity->Terminal5
gsave
1 setlinewidth
0 0 0 edgecolor
newpath 100.92 122.76 moveto
101.57 110.39 102.48 93.35 103.27 78.47 curveto
stroke
0 0 0 edgecolor
newpath 106.79 78.28 moveto
103.82 68.11 lineto
99.8 77.91 lineto
closepath fill
1 setlinewidth
solid
0 0 0 edgecolor
newpath 106.79 78.28 moveto
103.82 68.11 lineto
99.8 77.91 lineto
closepath stroke
0 0 0 edgecolor
14 /Times-Roman set_font
103 88.8 moveto 51.06 (S:[2+,0-]) alignedtext
grestore
% Terminal2
gsave
1 setlinewidth
0 0 0 nodecolor
188 45 22.47 22.96 ellipse_path stroke
0 0 0 nodecolor
14 /Times-Roman set_font
177.81 40.8 moveto 20.38 (Yes) alignedtext
grestore
% Wind->Terminal2
gsave
1 setlinewidth
0 0 0 edgecolor
newpath 190.95 122.9 moveto
190.18 115.82 189.39 107.53 188.94 100 curveto
188.52 92.96 188.27 85.39 188.12 78.21 curveto
stroke
0 0 0 edgecolor
newpath 191.62 78.03 moveto
187.97 68.09 lineto
184.62 78.14 lineto
closepath fill
1 setlinewidth
solid
0 0 0 edgecolor
newpath 191.62 78.03 moveto
187.97 68.09 lineto
184.62 78.14 lineto
closepath stroke
0 0 0 edgecolor
14 /Times-Roman set_font
189 88.8 moveto 51.06 (S:[3+,0-]) alignedtext
grestore
% Terminal3
gsave
1 setlinewidth
0 0 0 nodecolor
262 45 20.37 20.83 ellipse_path stroke
0 0 0 nodecolor
14 /Times-Roman set_font
253.44 40.8 moveto 17.11 (No) alignedtext
grestore
% Wind->Terminal3
gsave
1 setlinewidth
0 0 0 edgecolor
newpath 213.73 125.87 moveto
222.74 118.91 232.84 109.9 240 100 curveto
245.42 92.51 249.77 83.5 253.12 75 curveto
stroke
0 0 0 edgecolor
newpath 256.49 75.98 moveto
256.61 65.38 lineto
249.91 73.59 lineto
closepath fill
1 setlinewidth
solid
0 0 0 edgecolor
newpath 256.49 75.98 moveto
256.61 65.38 lineto
249.91 73.59 lineto
closepath stroke
0 0 0 edgecolor
14 /Times-Roman set_font
249 88.8 moveto 51.06 (S:[0+,2-]) alignedtext
grestore
endpage
showpage
grestore
%%PageTrailer
%%EndPage: 1
%%Trailer
end
restore
%%EOF
