%!PS-Adobe-3.0 EPSF-3.0
%%Creator: graphviz version 2.36.0 (20140111.2315)
%%Title: decision
%%Pages: 1
%%BoundingBox: 36 36 432 428
%%EndComments
save
%%BeginProlog
/DotDict 200 dict def
DotDict begin

/setupLatin1 {
mark
/EncodingVector 256 array def
 EncodingVector 0

ISOLatin1Encoding 0 255 getinterval putinterval
EncodingVector 45 /hyphen put

% Set up ISO Latin 1 character encoding
/starnetISO {
        dup dup findfont dup length dict begin
        { 1 index /FID ne { def }{ pop pop } ifelse
        } forall
        /Encoding EncodingVector def
        currentdict end definefont
} def
/Times-Roman starnetISO def
/Times-Italic starnetISO def
/Times-Bold starnetISO def
/Times-BoldItalic starnetISO def
/Helvetica starnetISO def
/Helvetica-Oblique starnetISO def
/Helvetica-Bold starnetISO def
/Helvetica-BoldOblique starnetISO def
/Courier starnetISO def
/Courier-Oblique starnetISO def
/Courier-Bold starnetISO def
/Courier-BoldOblique starnetISO def
cleartomark
} bind def

%%BeginResource: procset graphviz 0 0
/coord-font-family /Times-Roman def
/default-font-family /Times-Roman def
/coordfont coord-font-family findfont 8 scalefont def

/InvScaleFactor 1.0 def
/set_scale {
       dup 1 exch div /InvScaleFactor exch def
       scale
} bind def

% styles
/solid { [] 0 setdash } bind def
/dashed { [9 InvScaleFactor mul dup ] 0 setdash } bind def
/dotted { [1 InvScaleFactor mul 6 InvScaleFactor mul] 0 setdash } bind def
/invis {/fill {newpath} def /stroke {newpath} def /show {pop newpath} def} bind def
/bold { 2 setlinewidth } bind def
/filled { } bind def
/unfilled { } bind def
/rounded { } bind def
/diagonals { } bind def
/tapered { } bind def

% hooks for setting color 
/nodecolor { sethsbcolor } bind def
/edgecolor { sethsbcolor } bind def
/graphcolor { sethsbcolor } bind def
/nopcolor {pop pop pop} bind def

/beginpage {	% i j npages
	/npages exch def
	/j exch def
	/i exch def
	/str 10 string def
	npages 1 gt {
		gsave
			coordfont setfont
			0 0 moveto
			(\() show i str cvs show (,) show j str cvs show (\)) show
		grestore
	} if
} bind def

/set_font {
	findfont exch
	scalefont setfont
} def

% draw text fitted to its expected width
/alignedtext {			% width text
	/text exch def
	/width exch def
	gsave
		width 0 gt {
			[] 0 setdash
			text stringwidth pop width exch sub text length div 0 text ashow
		} if
	grestore
} def

/boxprim {				% xcorner ycorner xsize ysize
		4 2 roll
		moveto
		2 copy
		exch 0 rlineto
		0 exch rlineto
		pop neg 0 rlineto
		closepath
} bind def

/ellipse_path {
	/ry exch def
	/rx exch def
	/y exch def
	/x exch def
	matrix currentmatrix
	newpath
	x y translate
	rx ry scale
	0 0 1 0 360 arc
	setmatrix
} bind def

/endpage { showpage } bind def
/showpage { } def

/layercolorseq
	[	% layer color sequence - darkest to lightest
		[0 0 0]
		[.2 .8 .8]
		[.4 .8 .8]
		[.6 .8 .8]
		[.8 .8 .8]
	]
def

/layerlen layercolorseq length def

/setlayer {/maxlayer exch def /curlayer exch def
	layercolorseq curlayer 1 sub layerlen mod get
	aload pop sethsbcolor
	/nodecolor {nopcolor} def
	/edgecolor {nopcolor} def
	/graphcolor {nopcolor} def
} bind def

/onlayer { curlayer ne {invis} if } def

/onlayers {
	/myupper exch def
	/mylower exch def
	curlayer mylower lt
	curlayer myupper gt
	or
	{invis} if
} def

/curlayer 0 def

%%EndResource
%%EndProlog
%%BeginSetup
14 default-font-family set_font
1 setmiterlimit
% /arrowlength 10 def
% /arrowwidth 5 def

% make sure pdfmark is harmless for PS-interpreters other than Distiller
/pdfmark where {pop} {userdict /pdfmark /cleartomark load put} ifelse
% make '<<' and '>>' safe on PS Level 1 devices
/languagelevel where {pop languagelevel}{1} ifelse
2 lt {
    userdict (<<) cvn ([) cvn load put
    userdict (>>) cvn ([) cvn load put
} if

%%EndSetup
setupLatin1
%%Page: 1 1
%%PageBoundingBox: 36 36 432 428
%%PageOrientation: Portrait
0 0 1 beginpage
gsave
36 36 396 392 boxprim clip newpath
1 1 set_scale 0 rotate 40 40 translate
0 0 0 graphcolor
14 /Times-Roman set_font
75.59 6.8 moveto 236.82 (Augmented Decision Tree - Data Splitting) alignedtext
% invis
gsave
0 0 0 nodecolor
142 382 1.8 1.8 ellipse_path fill
1 setlinewidth
filled
0 0 0 nodecolor
142 382 1.8 1.8 ellipse_path stroke
grestore
% Outlook
gsave
1 setlinewidth
0 0 0 nodecolor
142 312 37.06 18 ellipse_path stroke
0 0 0 nodecolor
14 /Times-Roman set_font
120.42 307.8 moveto 43.17 (Node A) alignedtext
grestore
% invis->Outlook
gsave
1 setlinewidth
0 0 0 edgecolor
newpath 142 380.04 moveto
142 375.64 142 356.96 142 340.42 curveto
stroke
0 0 0 edgecolor
newpath 145.5 340.04 moveto
142 330.04 lineto
138.5 340.04 lineto
closepath fill
1 setlinewidth
solid
0 0 0 edgecolor
newpath 145.5 340.04 moveto
142 330.04 lineto
138.5 340.04 lineto
closepath stroke
0 0 0 edgecolor
14 /Times-Roman set_font
142 350.8 moveto 51.06 (S:[9+,5-]) alignedtext
grestore
% Terminal1
gsave
1 setlinewidth
0 0 0 nodecolor
44 201 42.32 42.75 ellipse_path stroke
0 0 0 nodecolor
14 /Times-Roman set_font
18.06 196.8 moveto 51.88 (Yes, 0.29) alignedtext
grestore
% Outlook->Terminal1
gsave
1 setlinewidth
0 0 0 edgecolor
newpath 117.12 298.6 moveto
106.95 292.71 95.57 284.99 86.94 276 curveto
79.3 268.04 72.48 258.48 66.65 248.9 curveto
stroke
0 0 0 edgecolor
newpath 69.62 247.05 moveto
61.57 240.15 lineto
63.56 250.56 lineto
closepath fill
1 setlinewidth
solid
0 0 0 edgecolor
newpath 69.62 247.05 moveto
61.57 240.15 lineto
63.56 250.56 lineto
closepath stroke
0 0 0 edgecolor
14 /Times-Roman set_font
87 264.8 moveto 51.06 (S:[4+,0-]) alignedtext
grestore
% Humidity
gsave
1 setlinewidth
0 0 0 nodecolor
142 201 37.06 18 ellipse_path stroke
0 0 0 nodecolor
14 /Times-Roman set_font
120.42 196.8 moveto 43.16 (Node B) alignedtext
grestore
% Outlook->Humidity
gsave
1 setlinewidth
0 0 0 edgecolor
newpath 142 293.97 moveto
142 276.71 142 249.74 142 229.46 curveto
stroke
0 0 0 edgecolor
newpath 145.5 229.27 moveto
142 219.27 lineto
138.5 229.27 lineto
closepath fill
1 setlinewidth
solid
0 0 0 edgecolor
newpath 145.5 229.27 moveto
142 219.27 lineto
138.5 229.27 lineto
closepath stroke
0 0 0 edgecolor
14 /Times-Roman set_font
142 264.8 moveto 51.06 (S:[2+,3-]) alignedtext
grestore
% Wind
gsave
1 setlinewidth
0 0 0 nodecolor
246 201 37.06 18 ellipse_path stroke
0 0 0 nodecolor
14 /Times-Roman set_font
224.42 196.8 moveto 43.16 (Node C) alignedtext
grestore
% Outlook->Wind
gsave
1 setlinewidth
0 0 0 edgecolor
newpath 166.59 298.34 moveto
176.71 292.41 188.12 284.72 197 276 curveto
211.38 261.87 223.87 242.86 232.63 227.64 curveto
stroke
0 0 0 edgecolor
newpath 235.78 229.17 moveto
237.59 218.73 lineto
229.67 225.76 lineto
closepath fill
1 setlinewidth
solid
0 0 0 edgecolor
newpath 235.78 229.17 moveto
237.59 218.73 lineto
229.67 225.76 lineto
closepath stroke
0 0 0 edgecolor
14 /Times-Roman set_font
209 264.8 moveto 51.06 (S:[3+,2-]) alignedtext
grestore
% Terminal4
gsave
1 setlinewidth
0 0 0 nodecolor
40 65 40.22 40.63 ellipse_path stroke
0 0 0 nodecolor
14 /Times-Roman set_font
15.69 60.8 moveto 48.61 (No, 0.21) alignedtext
grestore
% Humidity->Terminal4
gsave
1 setlinewidth
0 0 0 edgecolor
newpath 126.23 184.38 moveto
114.76 172.65 99.15 155.93 86.94 140 curveto
79.57 130.38 72.24 119.57 65.63 109.26 curveto
stroke
0 0 0 edgecolor
newpath 68.57 107.35 moveto
60.28 100.75 lineto
62.64 111.07 lineto
closepath fill
1 setlinewidth
solid
0 0 0 edgecolor
newpath 68.57 107.35 moveto
60.28 100.75 lineto
62.64 111.07 lineto
closepath stroke
0 0 0 edgecolor
14 /Times-Roman set_font
87 128.8 moveto 51.06 (S:[0+,3-]) alignedtext
grestore
% Terminal5
gsave
1 setlinewidth
0 0 0 nodecolor
142 65 42.32 42.75 ellipse_path stroke
0 0 0 nodecolor
14 /Times-Roman set_font
116.06 60.8 moveto 51.88 (Yes, 0.14) alignedtext
grestore
% Humidity->Terminal5
gsave
1 setlinewidth
0 0 0 edgecolor
newpath 142 182.76 moveto
142 166.45 142 141.14 142 118.25 curveto
stroke
0 0 0 edgecolor
newpath 145.5 117.94 moveto
142 107.94 lineto
138.5 117.94 lineto
closepath fill
1 setlinewidth
solid
0 0 0 edgecolor
newpath 145.5 117.94 moveto
142 107.94 lineto
138.5 117.94 lineto
closepath stroke
0 0 0 edgecolor
14 /Times-Roman set_font
142 128.8 moveto 51.06 (S:[2+,0-]) alignedtext
grestore
% Terminal2
gsave
1 setlinewidth
0 0 0 nodecolor
246 65 42.32 42.75 ellipse_path stroke
0 0 0 nodecolor
14 /Times-Roman set_font
220.06 60.8 moveto 51.88 (Yes, 0.21) alignedtext
grestore
% Wind->Terminal2
gsave
1 setlinewidth
0 0 0 edgecolor
newpath 246 182.76 moveto
246 166.45 246 141.14 246 118.25 curveto
stroke
0 0 0 edgecolor
newpath 249.5 117.94 moveto
246 107.94 lineto
242.5 117.94 lineto
closepath fill
1 setlinewidth
solid
0 0 0 edgecolor
newpath 249.5 117.94 moveto
246 107.94 lineto
242.5 117.94 lineto
closepath stroke
0 0 0 edgecolor
14 /Times-Roman set_font
246 128.8 moveto 51.06 (S:[3+,0-]) alignedtext
grestore
% Terminal3
gsave
1 setlinewidth
0 0 0 nodecolor
348 65 40.22 40.63 ellipse_path stroke
0 0 0 nodecolor
14 /Times-Roman set_font
323.69 60.8 moveto 48.61 (No, 0.14) alignedtext
grestore
% Wind->Terminal3
gsave
1 setlinewidth
0 0 0 edgecolor
newpath 261.74 184.38 moveto
273.21 172.65 288.79 155.93 301 140 curveto
308.38 130.37 315.72 119.57 322.32 109.26 curveto
stroke
0 0 0 edgecolor
newpath 325.32 111.07 moveto
327.69 100.74 lineto
319.4 107.34 lineto
closepath fill
1 setlinewidth
solid
0 0 0 edgecolor
newpath 325.32 111.07 moveto
327.69 100.74 lineto
319.4 107.34 lineto
closepath stroke
0 0 0 edgecolor
14 /Times-Roman set_font
310 128.8 moveto 51.06 (S:[0+,2-]) alignedtext
grestore
endpage
showpage
grestore
%%PageTrailer
%%EndPage: 1
%%Trailer
end
restore
%%EOF
