\relax 
\providecommand\hyper@newdestlabel[2]{}
\providecommand\HyperFirstAtBeginDocument{\AtBeginDocument}
\HyperFirstAtBeginDocument{\ifx\hyper@anchor\@undefined
\global\let\oldcontentsline\contentsline
\gdef\contentsline#1#2#3#4{\oldcontentsline{#1}{#2}{#3}}
\global\let\oldnewlabel\newlabel
\gdef\newlabel#1#2{\newlabelxx{#1}#2}
\gdef\newlabelxx#1#2#3#4#5#6{\oldnewlabel{#1}{{#2}{#3}}}
\AtEndDocument{\ifx\hyper@anchor\@undefined
\let\contentsline\oldcontentsline
\let\newlabel\oldnewlabel
\fi}
\fi}
\global\let\hyper@last\relax 
\gdef\HyperFirstAtBeginDocument#1{#1}
\providecommand\HyField@AuxAddToFields[1]{}
\providecommand\HyField@AuxAddToCoFields[2]{}
\providecommand \oddpage@label [2]{}
\@writefile{toc}{\contentsline {chapter}{\numberline {1}Hierarchical Index}{1}{chapter.1}}
\@writefile{lof}{\addvspace {10\p@ }}
\@writefile{lot}{\addvspace {10\p@ }}
\@writefile{toc}{\contentsline {section}{\numberline {1.1}Class Hierarchy}{1}{section.1.1}}
\@writefile{toc}{\contentsline {chapter}{\numberline {2}Class Index}{3}{chapter.2}}
\@writefile{lof}{\addvspace {10\p@ }}
\@writefile{lot}{\addvspace {10\p@ }}
\@writefile{toc}{\contentsline {section}{\numberline {2.1}Class List}{3}{section.2.1}}
\@writefile{toc}{\contentsline {chapter}{\numberline {3}File Index}{5}{chapter.3}}
\@writefile{lof}{\addvspace {10\p@ }}
\@writefile{lot}{\addvspace {10\p@ }}
\@writefile{toc}{\contentsline {section}{\numberline {3.1}File List}{5}{section.3.1}}
\@writefile{toc}{\contentsline {chapter}{\numberline {4}Class Documentation}{7}{chapter.4}}
\@writefile{lof}{\addvspace {10\p@ }}
\@writefile{lot}{\addvspace {10\p@ }}
\@writefile{toc}{\contentsline {section}{\numberline {4.1}\discretionary {\unhbox \voidb@x \hbox {\relax \fontsize  {7}{8}\selectfont  $\leftarrow \joinrel  \rhook $}}{}{}\_\discretionary {\unhbox \voidb@x \hbox {\relax \fontsize  {7}{8}\selectfont  $\leftarrow \joinrel  \rhook $}}{}{}\discretionary {\unhbox \voidb@x \hbox {\relax \fontsize  {7}{8}\selectfont  $\leftarrow \joinrel  \rhook $}}{}{}C\discretionary {\unhbox \voidb@x \hbox {\relax \fontsize  {7}{8}\selectfont  $\leftarrow \joinrel  \rhook $}}{}{}S\discretionary {\unhbox \voidb@x \hbox {\relax \fontsize  {7}{8}\selectfont  $\leftarrow \joinrel  \rhook $}}{}{}V\discretionary {\unhbox \voidb@x \hbox {\relax \fontsize  {7}{8}\selectfont  $\leftarrow \joinrel  \rhook $}}{}{}File Struct Reference}{7}{section.4.1}}
\newlabel{struct___c_s_v_file}{{4.1}{7}{\+\_\+\+C\+S\+V\+File Struct Reference}{section.4.1}{}}
\@writefile{toc}{\contentsline {subsection}{\numberline {4.1.1}Detailed Description}{7}{subsection.4.1.1}}
\@writefile{toc}{\contentsline {subsection}{\numberline {4.1.2}Member Data Documentation}{7}{subsection.4.1.2}}
\@writefile{toc}{\contentsline {subsubsection}{\numberline {4.1.2.1}Column\discretionary {\unhbox \voidb@x \hbox {\relax \fontsize  {7}{8}\selectfont  $\leftarrow \joinrel  \rhook $}}{}{}Names}{7}{subsubsection.4.1.2.1}}
\newlabel{struct___c_s_v_file_a40f747a9e93595205f683adb5e0fa6d0}{{4.1.2.1}{7}{\texorpdfstring {Column\+Names}{ColumnNames}}{subsubsection.4.1.2.1}{}}
\@writefile{toc}{\contentsline {subsubsection}{\numberline {4.1.2.2}Rows\discretionary {\unhbox \voidb@x \hbox {\relax \fontsize  {7}{8}\selectfont  $\leftarrow \joinrel  \rhook $}}{}{}Of\discretionary {\unhbox \voidb@x \hbox {\relax \fontsize  {7}{8}\selectfont  $\leftarrow \joinrel  \rhook $}}{}{}Columns}{7}{subsubsection.4.1.2.2}}
\newlabel{struct___c_s_v_file_a0941d498d4b7353a94861a169e4780d7}{{4.1.2.2}{7}{\texorpdfstring {Rows\+Of\+Columns}{RowsOfColumns}}{subsubsection.4.1.2.2}{}}
\@writefile{toc}{\contentsline {section}{\numberline {4.2}Decision\discretionary {\unhbox \voidb@x \hbox {\relax \fontsize  {7}{8}\selectfont  $\leftarrow \joinrel  \rhook $}}{}{}Node Class Reference}{8}{section.4.2}}
\newlabel{class_decision_node}{{4.2}{8}{Decision\+Node Class Reference}{section.4.2}{}}
\@writefile{toc}{\contentsline {subsection}{\numberline {4.2.1}Detailed Description}{9}{subsection.4.2.1}}
\@writefile{toc}{\contentsline {subsection}{\numberline {4.2.2}Constructor \& Destructor Documentation}{9}{subsection.4.2.2}}
\@writefile{toc}{\contentsline {subsubsection}{\numberline {4.2.2.1}Decision\discretionary {\unhbox \voidb@x \hbox {\relax \fontsize  {7}{8}\selectfont  $\leftarrow \joinrel  \rhook $}}{}{}Node(std\discretionary {\unhbox \voidb@x \hbox {\relax \fontsize  {7}{8}\selectfont  $\leftarrow \joinrel  \rhook $}}{}{}::string node\discretionary {\unhbox \voidb@x \hbox {\relax \fontsize  {7}{8}\selectfont  $\leftarrow \joinrel  \rhook $}}{}{}\_\discretionary {\unhbox \voidb@x \hbox {\relax \fontsize  {7}{8}\selectfont  $\leftarrow \joinrel  \rhook $}}{}{}name)}{9}{subsubsection.4.2.2.1}}
\newlabel{class_decision_node_a90d2d276f43b7b85b2829faa11e719c5}{{4.2.2.1}{9}{\texorpdfstring {Decision\+Node(std\+::string node\+\_\+name)}{DecisionNode(std::string node_name)}}{subsubsection.4.2.2.1}{}}
\@writefile{toc}{\contentsline {subsubsection}{\numberline {4.2.2.2}$\sim $\discretionary {\unhbox \voidb@x \hbox {\relax \fontsize  {7}{8}\selectfont  $\leftarrow \joinrel  \rhook $}}{}{}Decision\discretionary {\unhbox \voidb@x \hbox {\relax \fontsize  {7}{8}\selectfont  $\leftarrow \joinrel  \rhook $}}{}{}Node()}{9}{subsubsection.4.2.2.2}}
\newlabel{class_decision_node_ae0f701d6611eaeed4ff96aa978068a25}{{4.2.2.2}{9}{\texorpdfstring {$\sim $\+Decision\+Node()}{~DecisionNode()}}{subsubsection.4.2.2.2}{}}
\@writefile{toc}{\contentsline {subsection}{\numberline {4.2.3}Member Function Documentation}{10}{subsection.4.2.3}}
\@writefile{toc}{\contentsline {subsubsection}{\numberline {4.2.3.1}Add\discretionary {\unhbox \voidb@x \hbox {\relax \fontsize  {7}{8}\selectfont  $\leftarrow \joinrel  \rhook $}}{}{}Child(\discretionary {\unhbox \voidb@x \hbox {\relax \fontsize  {7}{8}\selectfont  $\leftarrow \joinrel  \rhook $}}{}{}Variable\discretionary {\unhbox \voidb@x \hbox {\relax \fontsize  {7}{8}\selectfont  $\leftarrow \joinrel  \rhook $}}{}{}Edge $\ast $new\discretionary {\unhbox \voidb@x \hbox {\relax \fontsize  {7}{8}\selectfont  $\leftarrow \joinrel  \rhook $}}{}{}\_\discretionary {\unhbox \voidb@x \hbox {\relax \fontsize  {7}{8}\selectfont  $\leftarrow \joinrel  \rhook $}}{}{}child)}{10}{subsubsection.4.2.3.1}}
\newlabel{class_decision_node_aa70fef2ae4363cb52954c201891e594c}{{4.2.3.1}{10}{\texorpdfstring {Add\+Child(\+Variable\+Edge $\ast $new\+\_\+child)}{AddChild(VariableEdge *new_child)}}{subsubsection.4.2.3.1}{}}
\@writefile{toc}{\contentsline {subsubsection}{\numberline {4.2.3.2}Classify(std\discretionary {\unhbox \voidb@x \hbox {\relax \fontsize  {7}{8}\selectfont  $\leftarrow \joinrel  \rhook $}}{}{}::vector$<$ std\discretionary {\unhbox \voidb@x \hbox {\relax \fontsize  {7}{8}\selectfont  $\leftarrow \joinrel  \rhook $}}{}{}::string $>$ instance)=0}{10}{subsubsection.4.2.3.2}}
\newlabel{class_decision_node_aa6995cc07e16f707942f8437e76e88fa}{{4.2.3.2}{10}{\texorpdfstring {Classify(std\+::vector$<$ std\+::string $>$ instance)=0}{Classify(std::vector< std::string > instance)=0}}{subsubsection.4.2.3.2}{}}
\@writefile{toc}{\contentsline {subsubsection}{\numberline {4.2.3.3}Generate\discretionary {\unhbox \voidb@x \hbox {\relax \fontsize  {7}{8}\selectfont  $\leftarrow \joinrel  \rhook $}}{}{}Graphviz\discretionary {\unhbox \voidb@x \hbox {\relax \fontsize  {7}{8}\selectfont  $\leftarrow \joinrel  \rhook $}}{}{}Children()}{10}{subsubsection.4.2.3.3}}
\newlabel{class_decision_node_a297d76da9d5a71c312827ae6aa0b703c}{{4.2.3.3}{10}{\texorpdfstring {Generate\+Graphviz\+Children()}{GenerateGraphvizChildren()}}{subsubsection.4.2.3.3}{}}
\@writefile{toc}{\contentsline {subsubsection}{\numberline {4.2.3.4}Generate\discretionary {\unhbox \voidb@x \hbox {\relax \fontsize  {7}{8}\selectfont  $\leftarrow \joinrel  \rhook $}}{}{}Graviz\discretionary {\unhbox \voidb@x \hbox {\relax \fontsize  {7}{8}\selectfont  $\leftarrow \joinrel  \rhook $}}{}{}Edge\discretionary {\unhbox \voidb@x \hbox {\relax \fontsize  {7}{8}\selectfont  $\leftarrow \joinrel  \rhook $}}{}{}Decoration(\discretionary {\unhbox \voidb@x \hbox {\relax \fontsize  {7}{8}\selectfont  $\leftarrow \joinrel  \rhook $}}{}{}Graph\discretionary {\unhbox \voidb@x \hbox {\relax \fontsize  {7}{8}\selectfont  $\leftarrow \joinrel  \rhook $}}{}{}Viz\discretionary {\unhbox \voidb@x \hbox {\relax \fontsize  {7}{8}\selectfont  $\leftarrow \joinrel  \rhook $}}{}{}Node\discretionary {\unhbox \voidb@x \hbox {\relax \fontsize  {7}{8}\selectfont  $\leftarrow \joinrel  \rhook $}}{}{}Decorator $\ast $edge)}{11}{subsubsection.4.2.3.4}}
\newlabel{class_decision_node_a8572ce2bd9a6ba829a33140d85b071db}{{4.2.3.4}{11}{\texorpdfstring {Generate\+Graviz\+Edge\+Decoration(\+Graph\+Viz\+Node\+Decorator $\ast $edge)}{GenerateGravizEdgeDecoration(GraphVizNodeDecorator *edge)}}{subsubsection.4.2.3.4}{}}
\@writefile{toc}{\contentsline {subsection}{\numberline {4.2.4}Member Data Documentation}{11}{subsection.4.2.4}}
\@writefile{toc}{\contentsline {subsubsection}{\numberline {4.2.4.1}Children}{11}{subsubsection.4.2.4.1}}
\newlabel{class_decision_node_a37b65547225b3638f14d9affdca1cf3b}{{4.2.4.1}{11}{\texorpdfstring {Children}{Children}}{subsubsection.4.2.4.1}{}}
\@writefile{toc}{\contentsline {subsubsection}{\numberline {4.2.4.2}Variable\discretionary {\unhbox \voidb@x \hbox {\relax \fontsize  {7}{8}\selectfont  $\leftarrow \joinrel  \rhook $}}{}{}Name}{11}{subsubsection.4.2.4.2}}
\newlabel{class_decision_node_a2a2ac266df4d6d0c07e99864a29ba90b}{{4.2.4.2}{11}{\texorpdfstring {Variable\+Name}{VariableName}}{subsubsection.4.2.4.2}{}}
\@writefile{toc}{\contentsline {section}{\numberline {4.3}Decision\discretionary {\unhbox \voidb@x \hbox {\relax \fontsize  {7}{8}\selectfont  $\leftarrow \joinrel  \rhook $}}{}{}Tree\discretionary {\unhbox \voidb@x \hbox {\relax \fontsize  {7}{8}\selectfont  $\leftarrow \joinrel  \rhook $}}{}{}Builder Class Reference}{12}{section.4.3}}
\newlabel{class_decision_tree_builder}{{4.3}{12}{Decision\+Tree\+Builder Class Reference}{section.4.3}{}}
\@writefile{toc}{\contentsline {subsection}{\numberline {4.3.1}Detailed Description}{13}{subsection.4.3.1}}
\@writefile{toc}{\contentsline {subsection}{\numberline {4.3.2}Constructor \& Destructor Documentation}{13}{subsection.4.3.2}}
\@writefile{toc}{\contentsline {subsubsection}{\numberline {4.3.2.1}Decision\discretionary {\unhbox \voidb@x \hbox {\relax \fontsize  {7}{8}\selectfont  $\leftarrow \joinrel  \rhook $}}{}{}Tree\discretionary {\unhbox \voidb@x \hbox {\relax \fontsize  {7}{8}\selectfont  $\leftarrow \joinrel  \rhook $}}{}{}Builder(\discretionary {\unhbox \voidb@x \hbox {\relax \fontsize  {7}{8}\selectfont  $\leftarrow \joinrel  \rhook $}}{}{}C\discretionary {\unhbox \voidb@x \hbox {\relax \fontsize  {7}{8}\selectfont  $\leftarrow \joinrel  \rhook $}}{}{}S\discretionary {\unhbox \voidb@x \hbox {\relax \fontsize  {7}{8}\selectfont  $\leftarrow \joinrel  \rhook $}}{}{}V\discretionary {\unhbox \voidb@x \hbox {\relax \fontsize  {7}{8}\selectfont  $\leftarrow \joinrel  \rhook $}}{}{}File $\ast $file)}{13}{subsubsection.4.3.2.1}}
\newlabel{class_decision_tree_builder_a7dbc9d6dc838ceff41d18d7a5197dbe0}{{4.3.2.1}{13}{\texorpdfstring {Decision\+Tree\+Builder(\+C\+S\+V\+File $\ast $file)}{DecisionTreeBuilder(CSVFile *file)}}{subsubsection.4.3.2.1}{}}
\@writefile{toc}{\contentsline {subsubsection}{\numberline {4.3.2.2}$\sim $\discretionary {\unhbox \voidb@x \hbox {\relax \fontsize  {7}{8}\selectfont  $\leftarrow \joinrel  \rhook $}}{}{}Decision\discretionary {\unhbox \voidb@x \hbox {\relax \fontsize  {7}{8}\selectfont  $\leftarrow \joinrel  \rhook $}}{}{}Tree\discretionary {\unhbox \voidb@x \hbox {\relax \fontsize  {7}{8}\selectfont  $\leftarrow \joinrel  \rhook $}}{}{}Builder()}{14}{subsubsection.4.3.2.2}}
\newlabel{class_decision_tree_builder_a1e312068407707ce9127106f1047d6df}{{4.3.2.2}{14}{\texorpdfstring {$\sim $\+Decision\+Tree\+Builder()}{~DecisionTreeBuilder()}}{subsubsection.4.3.2.2}{}}
\@writefile{toc}{\contentsline {subsection}{\numberline {4.3.3}Member Function Documentation}{14}{subsection.4.3.3}}
\@writefile{toc}{\contentsline {subsubsection}{\numberline {4.3.3.1}Build\discretionary {\unhbox \voidb@x \hbox {\relax \fontsize  {7}{8}\selectfont  $\leftarrow \joinrel  \rhook $}}{}{}Decision\discretionary {\unhbox \voidb@x \hbox {\relax \fontsize  {7}{8}\selectfont  $\leftarrow \joinrel  \rhook $}}{}{}Tree()=0}{14}{subsubsection.4.3.3.1}}
\newlabel{class_decision_tree_builder_a0fcf5b49fb7a1047e542446b671cec66}{{4.3.3.1}{14}{\texorpdfstring {Build\+Decision\+Tree()=0}{BuildDecisionTree()=0}}{subsubsection.4.3.3.1}{}}
\@writefile{toc}{\contentsline {subsubsection}{\numberline {4.3.3.2}Entropy(std\discretionary {\unhbox \voidb@x \hbox {\relax \fontsize  {7}{8}\selectfont  $\leftarrow \joinrel  \rhook $}}{}{}::vector$<$ size\discretionary {\unhbox \voidb@x \hbox {\relax \fontsize  {7}{8}\selectfont  $\leftarrow \joinrel  \rhook $}}{}{}\_\discretionary {\unhbox \voidb@x \hbox {\relax \fontsize  {7}{8}\selectfont  $\leftarrow \joinrel  \rhook $}}{}{}t $>$ class\discretionary {\unhbox \voidb@x \hbox {\relax \fontsize  {7}{8}\selectfont  $\leftarrow \joinrel  \rhook $}}{}{}\_\discretionary {\unhbox \voidb@x \hbox {\relax \fontsize  {7}{8}\selectfont  $\leftarrow \joinrel  \rhook $}}{}{}set)}{14}{subsubsection.4.3.3.2}}
\newlabel{class_decision_tree_builder_a09f7f9067dfb6aa20014b08b91fbb4a3}{{4.3.3.2}{14}{\texorpdfstring {Entropy(std\+::vector$<$ size\+\_\+t $>$ class\+\_\+set)}{Entropy(std::vector< size_t > class_set)}}{subsubsection.4.3.3.2}{}}
\@writefile{toc}{\contentsline {subsubsection}{\numberline {4.3.3.3}Gain(std\discretionary {\unhbox \voidb@x \hbox {\relax \fontsize  {7}{8}\selectfont  $\leftarrow \joinrel  \rhook $}}{}{}::vector$<$ size\discretionary {\unhbox \voidb@x \hbox {\relax \fontsize  {7}{8}\selectfont  $\leftarrow \joinrel  \rhook $}}{}{}\_\discretionary {\unhbox \voidb@x \hbox {\relax \fontsize  {7}{8}\selectfont  $\leftarrow \joinrel  \rhook $}}{}{}t $>$ class\discretionary {\unhbox \voidb@x \hbox {\relax \fontsize  {7}{8}\selectfont  $\leftarrow \joinrel  \rhook $}}{}{}\_\discretionary {\unhbox \voidb@x \hbox {\relax \fontsize  {7}{8}\selectfont  $\leftarrow \joinrel  \rhook $}}{}{}set, std\discretionary {\unhbox \voidb@x \hbox {\relax \fontsize  {7}{8}\selectfont  $\leftarrow \joinrel  \rhook $}}{}{}::string variable\discretionary {\unhbox \voidb@x \hbox {\relax \fontsize  {7}{8}\selectfont  $\leftarrow \joinrel  \rhook $}}{}{}\_\discretionary {\unhbox \voidb@x \hbox {\relax \fontsize  {7}{8}\selectfont  $\leftarrow \joinrel  \rhook $}}{}{}name)}{15}{subsubsection.4.3.3.3}}
\newlabel{class_decision_tree_builder_a99cd192cecf6d1d44440817f9402b038}{{4.3.3.3}{15}{\texorpdfstring {Gain(std\+::vector$<$ size\+\_\+t $>$ class\+\_\+set, std\+::string variable\+\_\+name)}{Gain(std::vector< size_t > class_set, std::string variable_name)}}{subsubsection.4.3.3.3}{}}
\@writefile{toc}{\contentsline {subsubsection}{\numberline {4.3.3.4}Is\discretionary {\unhbox \voidb@x \hbox {\relax \fontsize  {7}{8}\selectfont  $\leftarrow \joinrel  \rhook $}}{}{}Terminal(std\discretionary {\unhbox \voidb@x \hbox {\relax \fontsize  {7}{8}\selectfont  $\leftarrow \joinrel  \rhook $}}{}{}::vector$<$ size\discretionary {\unhbox \voidb@x \hbox {\relax \fontsize  {7}{8}\selectfont  $\leftarrow \joinrel  \rhook $}}{}{}\_\discretionary {\unhbox \voidb@x \hbox {\relax \fontsize  {7}{8}\selectfont  $\leftarrow \joinrel  \rhook $}}{}{}t $>$ class\discretionary {\unhbox \voidb@x \hbox {\relax \fontsize  {7}{8}\selectfont  $\leftarrow \joinrel  \rhook $}}{}{}\_\discretionary {\unhbox \voidb@x \hbox {\relax \fontsize  {7}{8}\selectfont  $\leftarrow \joinrel  \rhook $}}{}{}set, std\discretionary {\unhbox \voidb@x \hbox {\relax \fontsize  {7}{8}\selectfont  $\leftarrow \joinrel  \rhook $}}{}{}::string \&terminal\discretionary {\unhbox \voidb@x \hbox {\relax \fontsize  {7}{8}\selectfont  $\leftarrow \joinrel  \rhook $}}{}{}\_\discretionary {\unhbox \voidb@x \hbox {\relax \fontsize  {7}{8}\selectfont  $\leftarrow \joinrel  \rhook $}}{}{}value, double gain)}{16}{subsubsection.4.3.3.4}}
\newlabel{class_decision_tree_builder_ada6a5e175eb2a110c31b3b94987eb2b6}{{4.3.3.4}{16}{\texorpdfstring {Is\+Terminal(std\+::vector$<$ size\+\_\+t $>$ class\+\_\+set, std\+::string \&terminal\+\_\+value, double gain)}{IsTerminal(std::vector< size_t > class_set, std::string &terminal_value, double gain)}}{subsubsection.4.3.3.4}{}}
\@writefile{toc}{\contentsline {subsubsection}{\numberline {4.3.3.5}Segment\discretionary {\unhbox \voidb@x \hbox {\relax \fontsize  {7}{8}\selectfont  $\leftarrow \joinrel  \rhook $}}{}{}Set(std\discretionary {\unhbox \voidb@x \hbox {\relax \fontsize  {7}{8}\selectfont  $\leftarrow \joinrel  \rhook $}}{}{}::vector$<$ size\discretionary {\unhbox \voidb@x \hbox {\relax \fontsize  {7}{8}\selectfont  $\leftarrow \joinrel  \rhook $}}{}{}\_\discretionary {\unhbox \voidb@x \hbox {\relax \fontsize  {7}{8}\selectfont  $\leftarrow \joinrel  \rhook $}}{}{}t $>$ class\discretionary {\unhbox \voidb@x \hbox {\relax \fontsize  {7}{8}\selectfont  $\leftarrow \joinrel  \rhook $}}{}{}\_\discretionary {\unhbox \voidb@x \hbox {\relax \fontsize  {7}{8}\selectfont  $\leftarrow \joinrel  \rhook $}}{}{}set, std\discretionary {\unhbox \voidb@x \hbox {\relax \fontsize  {7}{8}\selectfont  $\leftarrow \joinrel  \rhook $}}{}{}::string variable)}{16}{subsubsection.4.3.3.5}}
\newlabel{class_decision_tree_builder_a7c919b376e8ff90e61c38e9800749303}{{4.3.3.5}{16}{\texorpdfstring {Segment\+Set(std\+::vector$<$ size\+\_\+t $>$ class\+\_\+set, std\+::string variable)}{SegmentSet(std::vector< size_t > class_set, std::string variable)}}{subsubsection.4.3.3.5}{}}
\@writefile{toc}{\contentsline {subsection}{\numberline {4.3.4}Member Data Documentation}{17}{subsection.4.3.4}}
\@writefile{toc}{\contentsline {subsubsection}{\numberline {4.3.4.1}csv\discretionary {\unhbox \voidb@x \hbox {\relax \fontsize  {7}{8}\selectfont  $\leftarrow \joinrel  \rhook $}}{}{}\_\discretionary {\unhbox \voidb@x \hbox {\relax \fontsize  {7}{8}\selectfont  $\leftarrow \joinrel  \rhook $}}{}{}file}{17}{subsubsection.4.3.4.1}}
\newlabel{class_decision_tree_builder_a4ff8a4eb1e458f5e05b01ea0b98b5058}{{4.3.4.1}{17}{\texorpdfstring {csv\+\_\+file}{csv_file}}{subsubsection.4.3.4.1}{}}
\@writefile{toc}{\contentsline {subsubsection}{\numberline {4.3.4.2}Index\discretionary {\unhbox \voidb@x \hbox {\relax \fontsize  {7}{8}\selectfont  $\leftarrow \joinrel  \rhook $}}{}{}Map}{17}{subsubsection.4.3.4.2}}
\newlabel{class_decision_tree_builder_a9b9719a9a1cf174b500d00eed085b81d}{{4.3.4.2}{17}{\texorpdfstring {Index\+Map}{IndexMap}}{subsubsection.4.3.4.2}{}}
\@writefile{toc}{\contentsline {subsubsection}{\numberline {4.3.4.3}Reverse\discretionary {\unhbox \voidb@x \hbox {\relax \fontsize  {7}{8}\selectfont  $\leftarrow \joinrel  \rhook $}}{}{}Index\discretionary {\unhbox \voidb@x \hbox {\relax \fontsize  {7}{8}\selectfont  $\leftarrow \joinrel  \rhook $}}{}{}Map}{17}{subsubsection.4.3.4.3}}
\newlabel{class_decision_tree_builder_ad193ca7488bb66a7711404f434ca02b7}{{4.3.4.3}{17}{\texorpdfstring {Reverse\+Index\+Map}{ReverseIndexMap}}{subsubsection.4.3.4.3}{}}
\@writefile{toc}{\contentsline {subsubsection}{\numberline {4.3.4.4}Target\discretionary {\unhbox \voidb@x \hbox {\relax \fontsize  {7}{8}\selectfont  $\leftarrow \joinrel  \rhook $}}{}{}Index}{17}{subsubsection.4.3.4.4}}
\newlabel{class_decision_tree_builder_ab1d01358c80a8d5d4ee2d17b272e7b80}{{4.3.4.4}{17}{\texorpdfstring {Target\+Index}{TargetIndex}}{subsubsection.4.3.4.4}{}}
\@writefile{toc}{\contentsline {subsubsection}{\numberline {4.3.4.5}Target\discretionary {\unhbox \voidb@x \hbox {\relax \fontsize  {7}{8}\selectfont  $\leftarrow \joinrel  \rhook $}}{}{}Variable}{17}{subsubsection.4.3.4.5}}
\newlabel{class_decision_tree_builder_a929d8f3a3fffd7b9d0aab53a74096170}{{4.3.4.5}{17}{\texorpdfstring {Target\+Variable}{TargetVariable}}{subsubsection.4.3.4.5}{}}
\@writefile{toc}{\contentsline {subsubsection}{\numberline {4.3.4.6}Variable\discretionary {\unhbox \voidb@x \hbox {\relax \fontsize  {7}{8}\selectfont  $\leftarrow \joinrel  \rhook $}}{}{}Values}{17}{subsubsection.4.3.4.6}}
\newlabel{class_decision_tree_builder_acacde9e5f56697acd1e7de30813b3095}{{4.3.4.6}{17}{\texorpdfstring {Variable\+Values}{VariableValues}}{subsubsection.4.3.4.6}{}}
\@writefile{toc}{\contentsline {section}{\numberline {4.4}Decision\discretionary {\unhbox \voidb@x \hbox {\relax \fontsize  {7}{8}\selectfont  $\leftarrow \joinrel  \rhook $}}{}{}Tree\discretionary {\unhbox \voidb@x \hbox {\relax \fontsize  {7}{8}\selectfont  $\leftarrow \joinrel  \rhook $}}{}{}Node Class Reference}{18}{section.4.4}}
\newlabel{class_decision_tree_node}{{4.4}{18}{Decision\+Tree\+Node Class Reference}{section.4.4}{}}
\@writefile{toc}{\contentsline {subsection}{\numberline {4.4.1}Detailed Description}{19}{subsection.4.4.1}}
\@writefile{toc}{\contentsline {subsection}{\numberline {4.4.2}Constructor \& Destructor Documentation}{19}{subsection.4.4.2}}
\@writefile{toc}{\contentsline {subsubsection}{\numberline {4.4.2.1}Decision\discretionary {\unhbox \voidb@x \hbox {\relax \fontsize  {7}{8}\selectfont  $\leftarrow \joinrel  \rhook $}}{}{}Tree\discretionary {\unhbox \voidb@x \hbox {\relax \fontsize  {7}{8}\selectfont  $\leftarrow \joinrel  \rhook $}}{}{}Node(std\discretionary {\unhbox \voidb@x \hbox {\relax \fontsize  {7}{8}\selectfont  $\leftarrow \joinrel  \rhook $}}{}{}::string variable\discretionary {\unhbox \voidb@x \hbox {\relax \fontsize  {7}{8}\selectfont  $\leftarrow \joinrel  \rhook $}}{}{}\_\discretionary {\unhbox \voidb@x \hbox {\relax \fontsize  {7}{8}\selectfont  $\leftarrow \joinrel  \rhook $}}{}{}name, size\discretionary {\unhbox \voidb@x \hbox {\relax \fontsize  {7}{8}\selectfont  $\leftarrow \joinrel  \rhook $}}{}{}\_\discretionary {\unhbox \voidb@x \hbox {\relax \fontsize  {7}{8}\selectfont  $\leftarrow \joinrel  \rhook $}}{}{}t column)}{19}{subsubsection.4.4.2.1}}
\newlabel{class_decision_tree_node_a0960e8d8dd1df3654c3ad0d61a0ccb68}{{4.4.2.1}{19}{\texorpdfstring {Decision\+Tree\+Node(std\+::string variable\+\_\+name, size\+\_\+t column)}{DecisionTreeNode(std::string variable_name, size_t column)}}{subsubsection.4.4.2.1}{}}
\@writefile{toc}{\contentsline {subsubsection}{\numberline {4.4.2.2}$\sim $\discretionary {\unhbox \voidb@x \hbox {\relax \fontsize  {7}{8}\selectfont  $\leftarrow \joinrel  \rhook $}}{}{}Decision\discretionary {\unhbox \voidb@x \hbox {\relax \fontsize  {7}{8}\selectfont  $\leftarrow \joinrel  \rhook $}}{}{}Tree\discretionary {\unhbox \voidb@x \hbox {\relax \fontsize  {7}{8}\selectfont  $\leftarrow \joinrel  \rhook $}}{}{}Node()}{19}{subsubsection.4.4.2.2}}
\newlabel{class_decision_tree_node_a8df91c426980019f0b9eb496be748f05}{{4.4.2.2}{19}{\texorpdfstring {$\sim $\+Decision\+Tree\+Node()}{~DecisionTreeNode()}}{subsubsection.4.4.2.2}{}}
\@writefile{toc}{\contentsline {subsection}{\numberline {4.4.3}Member Function Documentation}{20}{subsection.4.4.3}}
\@writefile{toc}{\contentsline {subsubsection}{\numberline {4.4.3.1}Classify(std\discretionary {\unhbox \voidb@x \hbox {\relax \fontsize  {7}{8}\selectfont  $\leftarrow \joinrel  \rhook $}}{}{}::vector$<$ std\discretionary {\unhbox \voidb@x \hbox {\relax \fontsize  {7}{8}\selectfont  $\leftarrow \joinrel  \rhook $}}{}{}::string $>$ instance)}{20}{subsubsection.4.4.3.1}}
\newlabel{class_decision_tree_node_ab80e90d09def369c538d2a708076eb76}{{4.4.3.1}{20}{\texorpdfstring {Classify(std\+::vector$<$ std\+::string $>$ instance)}{Classify(std::vector< std::string > instance)}}{subsubsection.4.4.3.1}{}}
\@writefile{toc}{\contentsline {subsubsection}{\numberline {4.4.3.2}Generate\discretionary {\unhbox \voidb@x \hbox {\relax \fontsize  {7}{8}\selectfont  $\leftarrow \joinrel  \rhook $}}{}{}Model\discretionary {\unhbox \voidb@x \hbox {\relax \fontsize  {7}{8}\selectfont  $\leftarrow \joinrel  \rhook $}}{}{}File(size\discretionary {\unhbox \voidb@x \hbox {\relax \fontsize  {7}{8}\selectfont  $\leftarrow \joinrel  \rhook $}}{}{}\_\discretionary {\unhbox \voidb@x \hbox {\relax \fontsize  {7}{8}\selectfont  $\leftarrow \joinrel  \rhook $}}{}{}t depth)}{20}{subsubsection.4.4.3.2}}
\newlabel{class_decision_tree_node_a5960a7c4109ae3070819aaeaf3c94b4a}{{4.4.3.2}{20}{\texorpdfstring {Generate\+Model\+File(size\+\_\+t depth)}{GenerateModelFile(size_t depth)}}{subsubsection.4.4.3.2}{}}
\@writefile{toc}{\contentsline {subsection}{\numberline {4.4.4}Member Data Documentation}{21}{subsection.4.4.4}}
\@writefile{toc}{\contentsline {subsubsection}{\numberline {4.4.4.1}column\discretionary {\unhbox \voidb@x \hbox {\relax \fontsize  {7}{8}\selectfont  $\leftarrow \joinrel  \rhook $}}{}{}\_\discretionary {\unhbox \voidb@x \hbox {\relax \fontsize  {7}{8}\selectfont  $\leftarrow \joinrel  \rhook $}}{}{}index}{21}{subsubsection.4.4.4.1}}
\newlabel{class_decision_tree_node_a062bca903190759c7e45260e34e77716}{{4.4.4.1}{21}{\texorpdfstring {column\+\_\+index}{column_index}}{subsubsection.4.4.4.1}{}}
\@writefile{toc}{\contentsline {section}{\numberline {4.5}Graph\discretionary {\unhbox \voidb@x \hbox {\relax \fontsize  {7}{8}\selectfont  $\leftarrow \joinrel  \rhook $}}{}{}Viz\discretionary {\unhbox \voidb@x \hbox {\relax \fontsize  {7}{8}\selectfont  $\leftarrow \joinrel  \rhook $}}{}{}Node\discretionary {\unhbox \voidb@x \hbox {\relax \fontsize  {7}{8}\selectfont  $\leftarrow \joinrel  \rhook $}}{}{}Decorator Class Reference}{21}{section.4.5}}
\newlabel{class_graph_viz_node_decorator}{{4.5}{21}{Graph\+Viz\+Node\+Decorator Class Reference}{section.4.5}{}}
\@writefile{toc}{\contentsline {subsection}{\numberline {4.5.1}Detailed Description}{22}{subsection.4.5.1}}
\@writefile{toc}{\contentsline {subsection}{\numberline {4.5.2}Constructor \& Destructor Documentation}{22}{subsection.4.5.2}}
\@writefile{toc}{\contentsline {subsubsection}{\numberline {4.5.2.1}Graph\discretionary {\unhbox \voidb@x \hbox {\relax \fontsize  {7}{8}\selectfont  $\leftarrow \joinrel  \rhook $}}{}{}Viz\discretionary {\unhbox \voidb@x \hbox {\relax \fontsize  {7}{8}\selectfont  $\leftarrow \joinrel  \rhook $}}{}{}Node\discretionary {\unhbox \voidb@x \hbox {\relax \fontsize  {7}{8}\selectfont  $\leftarrow \joinrel  \rhook $}}{}{}Decorator()}{22}{subsubsection.4.5.2.1}}
\newlabel{class_graph_viz_node_decorator_a03b42c1393ca3dad7cacd80584540999}{{4.5.2.1}{22}{\texorpdfstring {Graph\+Viz\+Node\+Decorator()}{GraphVizNodeDecorator()}}{subsubsection.4.5.2.1}{}}
\@writefile{toc}{\contentsline {subsubsection}{\numberline {4.5.2.2}$\sim $\discretionary {\unhbox \voidb@x \hbox {\relax \fontsize  {7}{8}\selectfont  $\leftarrow \joinrel  \rhook $}}{}{}Graph\discretionary {\unhbox \voidb@x \hbox {\relax \fontsize  {7}{8}\selectfont  $\leftarrow \joinrel  \rhook $}}{}{}Viz\discretionary {\unhbox \voidb@x \hbox {\relax \fontsize  {7}{8}\selectfont  $\leftarrow \joinrel  \rhook $}}{}{}Node\discretionary {\unhbox \voidb@x \hbox {\relax \fontsize  {7}{8}\selectfont  $\leftarrow \joinrel  \rhook $}}{}{}Decorator()}{22}{subsubsection.4.5.2.2}}
\newlabel{class_graph_viz_node_decorator_ace27f0bbca753162583ede4a5c6f49ac}{{4.5.2.2}{22}{\texorpdfstring {$\sim $\+Graph\+Viz\+Node\+Decorator()}{~GraphVizNodeDecorator()}}{subsubsection.4.5.2.2}{}}
\@writefile{toc}{\contentsline {subsection}{\numberline {4.5.3}Member Function Documentation}{23}{subsection.4.5.3}}
\@writefile{toc}{\contentsline {subsubsection}{\numberline {4.5.3.1}Generate\discretionary {\unhbox \voidb@x \hbox {\relax \fontsize  {7}{8}\selectfont  $\leftarrow \joinrel  \rhook $}}{}{}Graphviz\discretionary {\unhbox \voidb@x \hbox {\relax \fontsize  {7}{8}\selectfont  $\leftarrow \joinrel  \rhook $}}{}{}Children()=0}{23}{subsubsection.4.5.3.1}}
\newlabel{class_graph_viz_node_decorator_a5f4beb0aebf859a18746f9982a24bcaa}{{4.5.3.1}{23}{\texorpdfstring {Generate\+Graphviz\+Children()=0}{GenerateGraphvizChildren()=0}}{subsubsection.4.5.3.1}{}}
\@writefile{toc}{\contentsline {subsubsection}{\numberline {4.5.3.2}Generate\discretionary {\unhbox \voidb@x \hbox {\relax \fontsize  {7}{8}\selectfont  $\leftarrow \joinrel  \rhook $}}{}{}Graviz\discretionary {\unhbox \voidb@x \hbox {\relax \fontsize  {7}{8}\selectfont  $\leftarrow \joinrel  \rhook $}}{}{}Edge(\discretionary {\unhbox \voidb@x \hbox {\relax \fontsize  {7}{8}\selectfont  $\leftarrow \joinrel  \rhook $}}{}{}Graph\discretionary {\unhbox \voidb@x \hbox {\relax \fontsize  {7}{8}\selectfont  $\leftarrow \joinrel  \rhook $}}{}{}Viz\discretionary {\unhbox \voidb@x \hbox {\relax \fontsize  {7}{8}\selectfont  $\leftarrow \joinrel  \rhook $}}{}{}Node\discretionary {\unhbox \voidb@x \hbox {\relax \fontsize  {7}{8}\selectfont  $\leftarrow \joinrel  \rhook $}}{}{}Decorator $\ast $edge, bool digraph)}{23}{subsubsection.4.5.3.2}}
\newlabel{class_graph_viz_node_decorator_a88d3d5a34ef50c18a2cabbe5c4317b41}{{4.5.3.2}{23}{\texorpdfstring {Generate\+Graviz\+Edge(\+Graph\+Viz\+Node\+Decorator $\ast $edge, bool digraph)}{GenerateGravizEdge(GraphVizNodeDecorator *edge, bool digraph)}}{subsubsection.4.5.3.2}{}}
\@writefile{toc}{\contentsline {subsubsection}{\numberline {4.5.3.3}Generate\discretionary {\unhbox \voidb@x \hbox {\relax \fontsize  {7}{8}\selectfont  $\leftarrow \joinrel  \rhook $}}{}{}Graviz\discretionary {\unhbox \voidb@x \hbox {\relax \fontsize  {7}{8}\selectfont  $\leftarrow \joinrel  \rhook $}}{}{}Edge\discretionary {\unhbox \voidb@x \hbox {\relax \fontsize  {7}{8}\selectfont  $\leftarrow \joinrel  \rhook $}}{}{}Decoration(\discretionary {\unhbox \voidb@x \hbox {\relax \fontsize  {7}{8}\selectfont  $\leftarrow \joinrel  \rhook $}}{}{}Graph\discretionary {\unhbox \voidb@x \hbox {\relax \fontsize  {7}{8}\selectfont  $\leftarrow \joinrel  \rhook $}}{}{}Viz\discretionary {\unhbox \voidb@x \hbox {\relax \fontsize  {7}{8}\selectfont  $\leftarrow \joinrel  \rhook $}}{}{}Node\discretionary {\unhbox \voidb@x \hbox {\relax \fontsize  {7}{8}\selectfont  $\leftarrow \joinrel  \rhook $}}{}{}Decorator $\ast $edge)}{23}{subsubsection.4.5.3.3}}
\newlabel{class_graph_viz_node_decorator_ae947016e4f6d2fc4849d8c1cead8ce2d}{{4.5.3.3}{23}{\texorpdfstring {Generate\+Graviz\+Edge\+Decoration(\+Graph\+Viz\+Node\+Decorator $\ast $edge)}{GenerateGravizEdgeDecoration(GraphVizNodeDecorator *edge)}}{subsubsection.4.5.3.3}{}}
\@writefile{toc}{\contentsline {subsubsection}{\numberline {4.5.3.4}Generate\discretionary {\unhbox \voidb@x \hbox {\relax \fontsize  {7}{8}\selectfont  $\leftarrow \joinrel  \rhook $}}{}{}Graviz\discretionary {\unhbox \voidb@x \hbox {\relax \fontsize  {7}{8}\selectfont  $\leftarrow \joinrel  \rhook $}}{}{}Node()}{24}{subsubsection.4.5.3.4}}
\newlabel{class_graph_viz_node_decorator_a81762f519da9c196defca7588c4d882f}{{4.5.3.4}{24}{\texorpdfstring {Generate\+Graviz\+Node()}{GenerateGravizNode()}}{subsubsection.4.5.3.4}{}}
\@writefile{toc}{\contentsline {subsection}{\numberline {4.5.4}Member Data Documentation}{24}{subsection.4.5.4}}
\@writefile{toc}{\contentsline {subsubsection}{\numberline {4.5.4.1}Node\discretionary {\unhbox \voidb@x \hbox {\relax \fontsize  {7}{8}\selectfont  $\leftarrow \joinrel  \rhook $}}{}{}Label}{24}{subsubsection.4.5.4.1}}
\newlabel{class_graph_viz_node_decorator_a088adecfd68ac440895652d3d8da85be}{{4.5.4.1}{24}{\texorpdfstring {Node\+Label}{NodeLabel}}{subsubsection.4.5.4.1}{}}
\@writefile{toc}{\contentsline {subsubsection}{\numberline {4.5.4.2}Node\discretionary {\unhbox \voidb@x \hbox {\relax \fontsize  {7}{8}\selectfont  $\leftarrow \joinrel  \rhook $}}{}{}Style}{24}{subsubsection.4.5.4.2}}
\newlabel{class_graph_viz_node_decorator_aafcc43d61017b92badb7aa448a637c47}{{4.5.4.2}{24}{\texorpdfstring {Node\+Style}{NodeStyle}}{subsubsection.4.5.4.2}{}}
\@writefile{toc}{\contentsline {subsubsection}{\numberline {4.5.4.3}Unique\discretionary {\unhbox \voidb@x \hbox {\relax \fontsize  {7}{8}\selectfont  $\leftarrow \joinrel  \rhook $}}{}{}Identifier}{24}{subsubsection.4.5.4.3}}
\newlabel{class_graph_viz_node_decorator_ae873c4ceec531987d14d207d2db58ebc}{{4.5.4.3}{24}{\texorpdfstring {Unique\+Identifier}{UniqueIdentifier}}{subsubsection.4.5.4.3}{}}
\@writefile{toc}{\contentsline {section}{\numberline {4.6}I\discretionary {\unhbox \voidb@x \hbox {\relax \fontsize  {7}{8}\selectfont  $\leftarrow \joinrel  \rhook $}}{}{}D3\discretionary {\unhbox \voidb@x \hbox {\relax \fontsize  {7}{8}\selectfont  $\leftarrow \joinrel  \rhook $}}{}{}Tree\discretionary {\unhbox \voidb@x \hbox {\relax \fontsize  {7}{8}\selectfont  $\leftarrow \joinrel  \rhook $}}{}{}Builder Class Reference}{25}{section.4.6}}
\newlabel{class_i_d3_tree_builder}{{4.6}{25}{I\+D3\+Tree\+Builder Class Reference}{section.4.6}{}}
\@writefile{toc}{\contentsline {subsection}{\numberline {4.6.1}Detailed Description}{26}{subsection.4.6.1}}
\@writefile{toc}{\contentsline {subsection}{\numberline {4.6.2}Constructor \& Destructor Documentation}{26}{subsection.4.6.2}}
\@writefile{toc}{\contentsline {subsubsection}{\numberline {4.6.2.1}I\discretionary {\unhbox \voidb@x \hbox {\relax \fontsize  {7}{8}\selectfont  $\leftarrow \joinrel  \rhook $}}{}{}D3\discretionary {\unhbox \voidb@x \hbox {\relax \fontsize  {7}{8}\selectfont  $\leftarrow \joinrel  \rhook $}}{}{}Tree\discretionary {\unhbox \voidb@x \hbox {\relax \fontsize  {7}{8}\selectfont  $\leftarrow \joinrel  \rhook $}}{}{}Builder(\discretionary {\unhbox \voidb@x \hbox {\relax \fontsize  {7}{8}\selectfont  $\leftarrow \joinrel  \rhook $}}{}{}C\discretionary {\unhbox \voidb@x \hbox {\relax \fontsize  {7}{8}\selectfont  $\leftarrow \joinrel  \rhook $}}{}{}S\discretionary {\unhbox \voidb@x \hbox {\relax \fontsize  {7}{8}\selectfont  $\leftarrow \joinrel  \rhook $}}{}{}V\discretionary {\unhbox \voidb@x \hbox {\relax \fontsize  {7}{8}\selectfont  $\leftarrow \joinrel  \rhook $}}{}{}File $\ast $file)}{26}{subsubsection.4.6.2.1}}
\newlabel{class_i_d3_tree_builder_a6e2e350994ff4bb2971eb887097dc79a}{{4.6.2.1}{26}{\texorpdfstring {I\+D3\+Tree\+Builder(\+C\+S\+V\+File $\ast $file)}{ID3TreeBuilder(CSVFile *file)}}{subsubsection.4.6.2.1}{}}
\@writefile{toc}{\contentsline {subsubsection}{\numberline {4.6.2.2}$\sim $\discretionary {\unhbox \voidb@x \hbox {\relax \fontsize  {7}{8}\selectfont  $\leftarrow \joinrel  \rhook $}}{}{}I\discretionary {\unhbox \voidb@x \hbox {\relax \fontsize  {7}{8}\selectfont  $\leftarrow \joinrel  \rhook $}}{}{}D3\discretionary {\unhbox \voidb@x \hbox {\relax \fontsize  {7}{8}\selectfont  $\leftarrow \joinrel  \rhook $}}{}{}Tree\discretionary {\unhbox \voidb@x \hbox {\relax \fontsize  {7}{8}\selectfont  $\leftarrow \joinrel  \rhook $}}{}{}Builder()}{26}{subsubsection.4.6.2.2}}
\newlabel{class_i_d3_tree_builder_a3860fe97fd1ea2408a484136b1c5c7be}{{4.6.2.2}{26}{\texorpdfstring {$\sim $\+I\+D3\+Tree\+Builder()}{~ID3TreeBuilder()}}{subsubsection.4.6.2.2}{}}
\@writefile{toc}{\contentsline {subsection}{\numberline {4.6.3}Member Function Documentation}{26}{subsection.4.6.3}}
\@writefile{toc}{\contentsline {subsubsection}{\numberline {4.6.3.1}Build\discretionary {\unhbox \voidb@x \hbox {\relax \fontsize  {7}{8}\selectfont  $\leftarrow \joinrel  \rhook $}}{}{}Decision\discretionary {\unhbox \voidb@x \hbox {\relax \fontsize  {7}{8}\selectfont  $\leftarrow \joinrel  \rhook $}}{}{}Tree()}{26}{subsubsection.4.6.3.1}}
\newlabel{class_i_d3_tree_builder_a422123bfabbf118139ed9576e07e350f}{{4.6.3.1}{26}{\texorpdfstring {Build\+Decision\+Tree()}{BuildDecisionTree()}}{subsubsection.4.6.3.1}{}}
\@writefile{toc}{\contentsline {subsubsection}{\numberline {4.6.3.2}Build\discretionary {\unhbox \voidb@x \hbox {\relax \fontsize  {7}{8}\selectfont  $\leftarrow \joinrel  \rhook $}}{}{}I\discretionary {\unhbox \voidb@x \hbox {\relax \fontsize  {7}{8}\selectfont  $\leftarrow \joinrel  \rhook $}}{}{}D3\discretionary {\unhbox \voidb@x \hbox {\relax \fontsize  {7}{8}\selectfont  $\leftarrow \joinrel  \rhook $}}{}{}Recursive(std\discretionary {\unhbox \voidb@x \hbox {\relax \fontsize  {7}{8}\selectfont  $\leftarrow \joinrel  \rhook $}}{}{}::vector$<$ std\discretionary {\unhbox \voidb@x \hbox {\relax \fontsize  {7}{8}\selectfont  $\leftarrow \joinrel  \rhook $}}{}{}::string $>$ variables, std\discretionary {\unhbox \voidb@x \hbox {\relax \fontsize  {7}{8}\selectfont  $\leftarrow \joinrel  \rhook $}}{}{}::vector$<$ size\discretionary {\unhbox \voidb@x \hbox {\relax \fontsize  {7}{8}\selectfont  $\leftarrow \joinrel  \rhook $}}{}{}\_\discretionary {\unhbox \voidb@x \hbox {\relax \fontsize  {7}{8}\selectfont  $\leftarrow \joinrel  \rhook $}}{}{}t $>$ indexes)}{27}{subsubsection.4.6.3.2}}
\newlabel{class_i_d3_tree_builder_a5894450a6437b48b34bb1fd8604a5863}{{4.6.3.2}{27}{\texorpdfstring {Build\+I\+D3\+Recursive(std\+::vector$<$ std\+::string $>$ variables, std\+::vector$<$ size\+\_\+t $>$ indexes)}{BuildID3Recursive(std::vector< std::string > variables, std::vector< size_t > indexes)}}{subsubsection.4.6.3.2}{}}
\@writefile{toc}{\contentsline {section}{\numberline {4.7}Identifier\discretionary {\unhbox \voidb@x \hbox {\relax \fontsize  {7}{8}\selectfont  $\leftarrow \joinrel  \rhook $}}{}{}Database Class Reference}{28}{section.4.7}}
\newlabel{class_identifier_database}{{4.7}{28}{Identifier\+Database Class Reference}{section.4.7}{}}
\@writefile{toc}{\contentsline {subsection}{\numberline {4.7.1}Detailed Description}{29}{subsection.4.7.1}}
\@writefile{toc}{\contentsline {subsection}{\numberline {4.7.2}Constructor \& Destructor Documentation}{29}{subsection.4.7.2}}
\@writefile{toc}{\contentsline {subsubsection}{\numberline {4.7.2.1}Identifier\discretionary {\unhbox \voidb@x \hbox {\relax \fontsize  {7}{8}\selectfont  $\leftarrow \joinrel  \rhook $}}{}{}Database()}{29}{subsubsection.4.7.2.1}}
\newlabel{class_identifier_database_adfe9872add79c913caffeffc3e0ebf66}{{4.7.2.1}{29}{\texorpdfstring {Identifier\+Database()}{IdentifierDatabase()}}{subsubsection.4.7.2.1}{}}
\@writefile{toc}{\contentsline {subsubsection}{\numberline {4.7.2.2}$\sim $\discretionary {\unhbox \voidb@x \hbox {\relax \fontsize  {7}{8}\selectfont  $\leftarrow \joinrel  \rhook $}}{}{}Identifier\discretionary {\unhbox \voidb@x \hbox {\relax \fontsize  {7}{8}\selectfont  $\leftarrow \joinrel  \rhook $}}{}{}Database()}{29}{subsubsection.4.7.2.2}}
\newlabel{class_identifier_database_a1f1c0adf5664d6ad9fe2fbe53aa0d859}{{4.7.2.2}{29}{\texorpdfstring {$\sim $\+Identifier\+Database()}{~IdentifierDatabase()}}{subsubsection.4.7.2.2}{}}
\@writefile{toc}{\contentsline {subsection}{\numberline {4.7.3}Member Function Documentation}{29}{subsection.4.7.3}}
\@writefile{toc}{\contentsline {subsubsection}{\numberline {4.7.3.1}Generate\discretionary {\unhbox \voidb@x \hbox {\relax \fontsize  {7}{8}\selectfont  $\leftarrow \joinrel  \rhook $}}{}{}I\discretionary {\unhbox \voidb@x \hbox {\relax \fontsize  {7}{8}\selectfont  $\leftarrow \joinrel  \rhook $}}{}{}D()}{29}{subsubsection.4.7.3.1}}
\newlabel{class_identifier_database_af77ff136c101cf0c8accd6ccd99817b0}{{4.7.3.1}{29}{\texorpdfstring {Generate\+I\+D()}{GenerateID()}}{subsubsection.4.7.3.1}{}}
\@writefile{toc}{\contentsline {subsubsection}{\numberline {4.7.3.2}Retire\discretionary {\unhbox \voidb@x \hbox {\relax \fontsize  {7}{8}\selectfont  $\leftarrow \joinrel  \rhook $}}{}{}I\discretionary {\unhbox \voidb@x \hbox {\relax \fontsize  {7}{8}\selectfont  $\leftarrow \joinrel  \rhook $}}{}{}D(std\discretionary {\unhbox \voidb@x \hbox {\relax \fontsize  {7}{8}\selectfont  $\leftarrow \joinrel  \rhook $}}{}{}::string id)}{30}{subsubsection.4.7.3.2}}
\newlabel{class_identifier_database_a4abaf8aeb5107bc3ded2ffce22c4bef2}{{4.7.3.2}{30}{\texorpdfstring {Retire\+I\+D(std\+::string id)}{RetireID(std::string id)}}{subsubsection.4.7.3.2}{}}
\@writefile{toc}{\contentsline {subsection}{\numberline {4.7.4}Member Data Documentation}{30}{subsection.4.7.4}}
\@writefile{toc}{\contentsline {subsubsection}{\numberline {4.7.4.1}Database}{30}{subsubsection.4.7.4.1}}
\newlabel{class_identifier_database_af823d965412f90ca0734165b901f6b75}{{4.7.4.1}{30}{\texorpdfstring {Database}{Database}}{subsubsection.4.7.4.1}{}}
\@writefile{toc}{\contentsline {subsubsection}{\numberline {4.7.4.2}Valid\discretionary {\unhbox \voidb@x \hbox {\relax \fontsize  {7}{8}\selectfont  $\leftarrow \joinrel  \rhook $}}{}{}Characters}{30}{subsubsection.4.7.4.2}}
\newlabel{class_identifier_database_a990850af2def1cec4fad15004b09622b}{{4.7.4.2}{30}{\texorpdfstring {Valid\+Characters}{ValidCharacters}}{subsubsection.4.7.4.2}{}}
\@writefile{toc}{\contentsline {section}{\numberline {4.8}Terminal\discretionary {\unhbox \voidb@x \hbox {\relax \fontsize  {7}{8}\selectfont  $\leftarrow \joinrel  \rhook $}}{}{}Leaf Class Reference}{31}{section.4.8}}
\newlabel{class_terminal_leaf}{{4.8}{31}{Terminal\+Leaf Class Reference}{section.4.8}{}}
\@writefile{toc}{\contentsline {subsection}{\numberline {4.8.1}Detailed Description}{32}{subsection.4.8.1}}
\@writefile{toc}{\contentsline {subsection}{\numberline {4.8.2}Constructor \& Destructor Documentation}{32}{subsection.4.8.2}}
\@writefile{toc}{\contentsline {subsubsection}{\numberline {4.8.2.1}Terminal\discretionary {\unhbox \voidb@x \hbox {\relax \fontsize  {7}{8}\selectfont  $\leftarrow \joinrel  \rhook $}}{}{}Leaf(std\discretionary {\unhbox \voidb@x \hbox {\relax \fontsize  {7}{8}\selectfont  $\leftarrow \joinrel  \rhook $}}{}{}::string terminal\discretionary {\unhbox \voidb@x \hbox {\relax \fontsize  {7}{8}\selectfont  $\leftarrow \joinrel  \rhook $}}{}{}\_\discretionary {\unhbox \voidb@x \hbox {\relax \fontsize  {7}{8}\selectfont  $\leftarrow \joinrel  \rhook $}}{}{}value)}{32}{subsubsection.4.8.2.1}}
\newlabel{class_terminal_leaf_a3e96c8ff5aa03495256e9016265efa22}{{4.8.2.1}{32}{\texorpdfstring {Terminal\+Leaf(std\+::string terminal\+\_\+value)}{TerminalLeaf(std::string terminal_value)}}{subsubsection.4.8.2.1}{}}
\@writefile{toc}{\contentsline {subsubsection}{\numberline {4.8.2.2}$\sim $\discretionary {\unhbox \voidb@x \hbox {\relax \fontsize  {7}{8}\selectfont  $\leftarrow \joinrel  \rhook $}}{}{}Terminal\discretionary {\unhbox \voidb@x \hbox {\relax \fontsize  {7}{8}\selectfont  $\leftarrow \joinrel  \rhook $}}{}{}Leaf()}{33}{subsubsection.4.8.2.2}}
\newlabel{class_terminal_leaf_a708a23a3aa41a58dd6ecd188140bc5fb}{{4.8.2.2}{33}{\texorpdfstring {$\sim $\+Terminal\+Leaf()}{~TerminalLeaf()}}{subsubsection.4.8.2.2}{}}
\@writefile{toc}{\contentsline {subsection}{\numberline {4.8.3}Member Function Documentation}{33}{subsection.4.8.3}}
\@writefile{toc}{\contentsline {subsubsection}{\numberline {4.8.3.1}Classify(std\discretionary {\unhbox \voidb@x \hbox {\relax \fontsize  {7}{8}\selectfont  $\leftarrow \joinrel  \rhook $}}{}{}::vector$<$ std\discretionary {\unhbox \voidb@x \hbox {\relax \fontsize  {7}{8}\selectfont  $\leftarrow \joinrel  \rhook $}}{}{}::string $>$ instance)}{33}{subsubsection.4.8.3.1}}
\newlabel{class_terminal_leaf_a741e67ebdbdb82986964a2cb27a1ddd8}{{4.8.3.1}{33}{\texorpdfstring {Classify(std\+::vector$<$ std\+::string $>$ instance)}{Classify(std::vector< std::string > instance)}}{subsubsection.4.8.3.1}{}}
\@writefile{toc}{\contentsline {subsubsection}{\numberline {4.8.3.2}Generate\discretionary {\unhbox \voidb@x \hbox {\relax \fontsize  {7}{8}\selectfont  $\leftarrow \joinrel  \rhook $}}{}{}Graphviz\discretionary {\unhbox \voidb@x \hbox {\relax \fontsize  {7}{8}\selectfont  $\leftarrow \joinrel  \rhook $}}{}{}Children()}{33}{subsubsection.4.8.3.2}}
\newlabel{class_terminal_leaf_ad6806da34897a61f5148a27ed3b5a347}{{4.8.3.2}{33}{\texorpdfstring {Generate\+Graphviz\+Children()}{GenerateGraphvizChildren()}}{subsubsection.4.8.3.2}{}}
\@writefile{toc}{\contentsline {subsection}{\numberline {4.8.4}Member Data Documentation}{33}{subsection.4.8.4}}
\@writefile{toc}{\contentsline {subsubsection}{\numberline {4.8.4.1}Terminal\discretionary {\unhbox \voidb@x \hbox {\relax \fontsize  {7}{8}\selectfont  $\leftarrow \joinrel  \rhook $}}{}{}Value}{33}{subsubsection.4.8.4.1}}
\newlabel{class_terminal_leaf_af19d49ba3b87ceda7c164582cf118172}{{4.8.4.1}{33}{\texorpdfstring {Terminal\+Value}{TerminalValue}}{subsubsection.4.8.4.1}{}}
\@writefile{toc}{\contentsline {section}{\numberline {4.9}Variable\discretionary {\unhbox \voidb@x \hbox {\relax \fontsize  {7}{8}\selectfont  $\leftarrow \joinrel  \rhook $}}{}{}Edge Struct Reference}{34}{section.4.9}}
\newlabel{struct_variable_edge}{{4.9}{34}{Variable\+Edge Struct Reference}{section.4.9}{}}
\@writefile{toc}{\contentsline {subsection}{\numberline {4.9.1}Detailed Description}{34}{subsection.4.9.1}}
\@writefile{toc}{\contentsline {subsection}{\numberline {4.9.2}Member Data Documentation}{34}{subsection.4.9.2}}
\@writefile{toc}{\contentsline {subsubsection}{\numberline {4.9.2.1}Edge\discretionary {\unhbox \voidb@x \hbox {\relax \fontsize  {7}{8}\selectfont  $\leftarrow \joinrel  \rhook $}}{}{}Label}{34}{subsubsection.4.9.2.1}}
\newlabel{struct_variable_edge_a0d6c440ee98fd98980f5b98ce2a93dc4}{{4.9.2.1}{34}{\texorpdfstring {Edge\+Label}{EdgeLabel}}{subsubsection.4.9.2.1}{}}
\@writefile{toc}{\contentsline {subsubsection}{\numberline {4.9.2.2}Target}{34}{subsubsection.4.9.2.2}}
\newlabel{struct_variable_edge_a969f5dc3b3f0ec9deda4fc00ef96530a}{{4.9.2.2}{34}{\texorpdfstring {Target}{Target}}{subsubsection.4.9.2.2}{}}
\@writefile{toc}{\contentsline {subsubsection}{\numberline {4.9.2.3}Variable\discretionary {\unhbox \voidb@x \hbox {\relax \fontsize  {7}{8}\selectfont  $\leftarrow \joinrel  \rhook $}}{}{}Value}{35}{subsubsection.4.9.2.3}}
\newlabel{struct_variable_edge_a05ca789c3a604ad4b3922e4f31932a32}{{4.9.2.3}{35}{\texorpdfstring {Variable\+Value}{VariableValue}}{subsubsection.4.9.2.3}{}}
\@writefile{toc}{\contentsline {chapter}{\numberline {5}File Documentation}{37}{chapter.5}}
\@writefile{lof}{\addvspace {10\p@ }}
\@writefile{lot}{\addvspace {10\p@ }}
\@writefile{toc}{\contentsline {section}{\numberline {5.1}machine\discretionary {\unhbox \voidb@x \hbox {\relax \fontsize  {7}{8}\selectfont  $\leftarrow \joinrel  \rhook $}}{}{}\_\discretionary {\unhbox \voidb@x \hbox {\relax \fontsize  {7}{8}\selectfont  $\leftarrow \joinrel  \rhook $}}{}{}learning/src/csv\discretionary {\unhbox \voidb@x \hbox {\relax \fontsize  {7}{8}\selectfont  $\leftarrow \joinrel  \rhook $}}{}{}\_\discretionary {\unhbox \voidb@x \hbox {\relax \fontsize  {7}{8}\selectfont  $\leftarrow \joinrel  \rhook $}}{}{}parser.cpp File Reference}{37}{section.5.1}}
\newlabel{csv__parser_8cpp}{{5.1}{37}{machine\+\_\+learning/src/csv\+\_\+parser.cpp File Reference}{section.5.1}{}}
\@writefile{toc}{\contentsline {subsection}{\numberline {5.1.1}Function Documentation}{37}{subsection.5.1.1}}
\@writefile{toc}{\contentsline {subsubsection}{\numberline {5.1.1.1}Read\discretionary {\unhbox \voidb@x \hbox {\relax \fontsize  {7}{8}\selectfont  $\leftarrow \joinrel  \rhook $}}{}{}C\discretionary {\unhbox \voidb@x \hbox {\relax \fontsize  {7}{8}\selectfont  $\leftarrow \joinrel  \rhook $}}{}{}S\discretionary {\unhbox \voidb@x \hbox {\relax \fontsize  {7}{8}\selectfont  $\leftarrow \joinrel  \rhook $}}{}{}V\discretionary {\unhbox \voidb@x \hbox {\relax \fontsize  {7}{8}\selectfont  $\leftarrow \joinrel  \rhook $}}{}{}File(std\discretionary {\unhbox \voidb@x \hbox {\relax \fontsize  {7}{8}\selectfont  $\leftarrow \joinrel  \rhook $}}{}{}::string filename)}{37}{subsubsection.5.1.1.1}}
\newlabel{csv__parser_8cpp_aec249d06552345acf4ca240bb2f8aaf1}{{5.1.1.1}{37}{\texorpdfstring {Read\+C\+S\+V\+File(std\+::string filename)}{ReadCSVFile(std::string filename)}}{subsubsection.5.1.1.1}{}}
\@writefile{toc}{\contentsline {subsubsection}{\numberline {5.1.1.2}split(const string \&s, const string \&delim, const bool keep\discretionary {\unhbox \voidb@x \hbox {\relax \fontsize  {7}{8}\selectfont  $\leftarrow \joinrel  \rhook $}}{}{}\_\discretionary {\unhbox \voidb@x \hbox {\relax \fontsize  {7}{8}\selectfont  $\leftarrow \joinrel  \rhook $}}{}{}empty=true)}{38}{subsubsection.5.1.1.2}}
\newlabel{csv__parser_8cpp_a3f3f9947fda845df7815725b064db225}{{5.1.1.2}{38}{\texorpdfstring {split(const string \&s, const string \&delim, const bool keep\+\_\+empty=true)}{split(const string &s, const string &delim, const bool keep_empty=true)}}{subsubsection.5.1.1.2}{}}
\@writefile{toc}{\contentsline {subsubsection}{\numberline {5.1.1.3}Write\discretionary {\unhbox \voidb@x \hbox {\relax \fontsize  {7}{8}\selectfont  $\leftarrow \joinrel  \rhook $}}{}{}C\discretionary {\unhbox \voidb@x \hbox {\relax \fontsize  {7}{8}\selectfont  $\leftarrow \joinrel  \rhook $}}{}{}S\discretionary {\unhbox \voidb@x \hbox {\relax \fontsize  {7}{8}\selectfont  $\leftarrow \joinrel  \rhook $}}{}{}V\discretionary {\unhbox \voidb@x \hbox {\relax \fontsize  {7}{8}\selectfont  $\leftarrow \joinrel  \rhook $}}{}{}File(std\discretionary {\unhbox \voidb@x \hbox {\relax \fontsize  {7}{8}\selectfont  $\leftarrow \joinrel  \rhook $}}{}{}::string filename, C\discretionary {\unhbox \voidb@x \hbox {\relax \fontsize  {7}{8}\selectfont  $\leftarrow \joinrel  \rhook $}}{}{}S\discretionary {\unhbox \voidb@x \hbox {\relax \fontsize  {7}{8}\selectfont  $\leftarrow \joinrel  \rhook $}}{}{}V\discretionary {\unhbox \voidb@x \hbox {\relax \fontsize  {7}{8}\selectfont  $\leftarrow \joinrel  \rhook $}}{}{}File $\ast $csv)}{39}{subsubsection.5.1.1.3}}
\newlabel{csv__parser_8cpp_a1a32f168dcc8f7255f3d8877425e0c2c}{{5.1.1.3}{39}{\texorpdfstring {Write\+C\+S\+V\+File(std\+::string filename, C\+S\+V\+File $\ast $csv)}{WriteCSVFile(std::string filename, CSVFile *csv)}}{subsubsection.5.1.1.3}{}}
\@writefile{toc}{\contentsline {section}{\numberline {5.2}csv\discretionary {\unhbox \voidb@x \hbox {\relax \fontsize  {7}{8}\selectfont  $\leftarrow \joinrel  \rhook $}}{}{}\_\discretionary {\unhbox \voidb@x \hbox {\relax \fontsize  {7}{8}\selectfont  $\leftarrow \joinrel  \rhook $}}{}{}parser.\discretionary {\unhbox \voidb@x \hbox {\relax \fontsize  {7}{8}\selectfont  $\leftarrow \joinrel  \rhook $}}{}{}cpp}{40}{section.5.2}}
\newlabel{csv__parser_8cpp_source}{{5.2}{40}{csv\+\_\+parser.\+cpp}{section.5.2}{}}
\@writefile{toc}{\contentsline {section}{\numberline {5.3}machine\discretionary {\unhbox \voidb@x \hbox {\relax \fontsize  {7}{8}\selectfont  $\leftarrow \joinrel  \rhook $}}{}{}\_\discretionary {\unhbox \voidb@x \hbox {\relax \fontsize  {7}{8}\selectfont  $\leftarrow \joinrel  \rhook $}}{}{}learning/src/csv\discretionary {\unhbox \voidb@x \hbox {\relax \fontsize  {7}{8}\selectfont  $\leftarrow \joinrel  \rhook $}}{}{}\_\discretionary {\unhbox \voidb@x \hbox {\relax \fontsize  {7}{8}\selectfont  $\leftarrow \joinrel  \rhook $}}{}{}parser.h File Reference}{41}{section.5.3}}
\newlabel{csv__parser_8h}{{5.3}{41}{machine\+\_\+learning/src/csv\+\_\+parser.h File Reference}{section.5.3}{}}
\@writefile{toc}{\contentsline {subsection}{\numberline {5.3.1}Typedef Documentation}{42}{subsection.5.3.1}}
\@writefile{toc}{\contentsline {subsubsection}{\numberline {5.3.1.1}C\discretionary {\unhbox \voidb@x \hbox {\relax \fontsize  {7}{8}\selectfont  $\leftarrow \joinrel  \rhook $}}{}{}S\discretionary {\unhbox \voidb@x \hbox {\relax \fontsize  {7}{8}\selectfont  $\leftarrow \joinrel  \rhook $}}{}{}V\discretionary {\unhbox \voidb@x \hbox {\relax \fontsize  {7}{8}\selectfont  $\leftarrow \joinrel  \rhook $}}{}{}File}{42}{subsubsection.5.3.1.1}}
\newlabel{csv__parser_8h_a05a9dfcc8712ab5de3b5c832dd553f81}{{5.3.1.1}{42}{\texorpdfstring {C\+S\+V\+File}{CSVFile}}{subsubsection.5.3.1.1}{}}
\@writefile{toc}{\contentsline {subsection}{\numberline {5.3.2}Function Documentation}{42}{subsection.5.3.2}}
\@writefile{toc}{\contentsline {subsubsection}{\numberline {5.3.2.1}Read\discretionary {\unhbox \voidb@x \hbox {\relax \fontsize  {7}{8}\selectfont  $\leftarrow \joinrel  \rhook $}}{}{}C\discretionary {\unhbox \voidb@x \hbox {\relax \fontsize  {7}{8}\selectfont  $\leftarrow \joinrel  \rhook $}}{}{}S\discretionary {\unhbox \voidb@x \hbox {\relax \fontsize  {7}{8}\selectfont  $\leftarrow \joinrel  \rhook $}}{}{}V\discretionary {\unhbox \voidb@x \hbox {\relax \fontsize  {7}{8}\selectfont  $\leftarrow \joinrel  \rhook $}}{}{}File(std\discretionary {\unhbox \voidb@x \hbox {\relax \fontsize  {7}{8}\selectfont  $\leftarrow \joinrel  \rhook $}}{}{}::string filename)}{42}{subsubsection.5.3.2.1}}
\newlabel{csv__parser_8h_aec249d06552345acf4ca240bb2f8aaf1}{{5.3.2.1}{42}{\texorpdfstring {Read\+C\+S\+V\+File(std\+::string filename)}{ReadCSVFile(std::string filename)}}{subsubsection.5.3.2.1}{}}
\@writefile{toc}{\contentsline {subsubsection}{\numberline {5.3.2.2}Write\discretionary {\unhbox \voidb@x \hbox {\relax \fontsize  {7}{8}\selectfont  $\leftarrow \joinrel  \rhook $}}{}{}C\discretionary {\unhbox \voidb@x \hbox {\relax \fontsize  {7}{8}\selectfont  $\leftarrow \joinrel  \rhook $}}{}{}S\discretionary {\unhbox \voidb@x \hbox {\relax \fontsize  {7}{8}\selectfont  $\leftarrow \joinrel  \rhook $}}{}{}V\discretionary {\unhbox \voidb@x \hbox {\relax \fontsize  {7}{8}\selectfont  $\leftarrow \joinrel  \rhook $}}{}{}File(std\discretionary {\unhbox \voidb@x \hbox {\relax \fontsize  {7}{8}\selectfont  $\leftarrow \joinrel  \rhook $}}{}{}::string filename, C\discretionary {\unhbox \voidb@x \hbox {\relax \fontsize  {7}{8}\selectfont  $\leftarrow \joinrel  \rhook $}}{}{}S\discretionary {\unhbox \voidb@x \hbox {\relax \fontsize  {7}{8}\selectfont  $\leftarrow \joinrel  \rhook $}}{}{}V\discretionary {\unhbox \voidb@x \hbox {\relax \fontsize  {7}{8}\selectfont  $\leftarrow \joinrel  \rhook $}}{}{}File $\ast $csv)}{43}{subsubsection.5.3.2.2}}
\newlabel{csv__parser_8h_a1a32f168dcc8f7255f3d8877425e0c2c}{{5.3.2.2}{43}{\texorpdfstring {Write\+C\+S\+V\+File(std\+::string filename, C\+S\+V\+File $\ast $csv)}{WriteCSVFile(std::string filename, CSVFile *csv)}}{subsubsection.5.3.2.2}{}}
\@writefile{toc}{\contentsline {section}{\numberline {5.4}csv\discretionary {\unhbox \voidb@x \hbox {\relax \fontsize  {7}{8}\selectfont  $\leftarrow \joinrel  \rhook $}}{}{}\_\discretionary {\unhbox \voidb@x \hbox {\relax \fontsize  {7}{8}\selectfont  $\leftarrow \joinrel  \rhook $}}{}{}parser.\discretionary {\unhbox \voidb@x \hbox {\relax \fontsize  {7}{8}\selectfont  $\leftarrow \joinrel  \rhook $}}{}{}h}{44}{section.5.4}}
\newlabel{csv__parser_8h_source}{{5.4}{44}{csv\+\_\+parser.\+h}{section.5.4}{}}
\@writefile{toc}{\contentsline {section}{\numberline {5.5}machine\discretionary {\unhbox \voidb@x \hbox {\relax \fontsize  {7}{8}\selectfont  $\leftarrow \joinrel  \rhook $}}{}{}\_\discretionary {\unhbox \voidb@x \hbox {\relax \fontsize  {7}{8}\selectfont  $\leftarrow \joinrel  \rhook $}}{}{}learning/src/\discretionary {\unhbox \voidb@x \hbox {\relax \fontsize  {7}{8}\selectfont  $\leftarrow \joinrel  \rhook $}}{}{}Decision\discretionary {\unhbox \voidb@x \hbox {\relax \fontsize  {7}{8}\selectfont  $\leftarrow \joinrel  \rhook $}}{}{}Tree\discretionary {\unhbox \voidb@x \hbox {\relax \fontsize  {7}{8}\selectfont  $\leftarrow \joinrel  \rhook $}}{}{}Node.cpp File Reference}{44}{section.5.5}}
\newlabel{_decision_tree_node_8cpp}{{5.5}{44}{machine\+\_\+learning/src/\+Decision\+Tree\+Node.cpp File Reference}{section.5.5}{}}
\@writefile{toc}{\contentsline {subsection}{\numberline {5.5.1}Function Documentation}{44}{subsection.5.5.1}}
\@writefile{toc}{\contentsline {subsubsection}{\numberline {5.5.1.1}Generate\discretionary {\unhbox \voidb@x \hbox {\relax \fontsize  {7}{8}\selectfont  $\leftarrow \joinrel  \rhook $}}{}{}Line(size\discretionary {\unhbox \voidb@x \hbox {\relax \fontsize  {7}{8}\selectfont  $\leftarrow \joinrel  \rhook $}}{}{}\_\discretionary {\unhbox \voidb@x \hbox {\relax \fontsize  {7}{8}\selectfont  $\leftarrow \joinrel  \rhook $}}{}{}t depth, std\discretionary {\unhbox \voidb@x \hbox {\relax \fontsize  {7}{8}\selectfont  $\leftarrow \joinrel  \rhook $}}{}{}::string Variable, std\discretionary {\unhbox \voidb@x \hbox {\relax \fontsize  {7}{8}\selectfont  $\leftarrow \joinrel  \rhook $}}{}{}::string Variable\discretionary {\unhbox \voidb@x \hbox {\relax \fontsize  {7}{8}\selectfont  $\leftarrow \joinrel  \rhook $}}{}{}Value, std\discretionary {\unhbox \voidb@x \hbox {\relax \fontsize  {7}{8}\selectfont  $\leftarrow \joinrel  \rhook $}}{}{}::string Result)}{44}{subsubsection.5.5.1.1}}
\newlabel{_decision_tree_node_8cpp_a2df89b6ace5299a42014c34c69051f9d}{{5.5.1.1}{44}{\texorpdfstring {Generate\+Line(size\+\_\+t depth, std\+::string Variable, std\+::string Variable\+Value, std\+::string Result)}{GenerateLine(size_t depth, std::string Variable, std::string VariableValue, std::string Result)}}{subsubsection.5.5.1.1}{}}
\@writefile{toc}{\contentsline {section}{\numberline {5.6}Decision\discretionary {\unhbox \voidb@x \hbox {\relax \fontsize  {7}{8}\selectfont  $\leftarrow \joinrel  \rhook $}}{}{}Tree\discretionary {\unhbox \voidb@x \hbox {\relax \fontsize  {7}{8}\selectfont  $\leftarrow \joinrel  \rhook $}}{}{}Node.\discretionary {\unhbox \voidb@x \hbox {\relax \fontsize  {7}{8}\selectfont  $\leftarrow \joinrel  \rhook $}}{}{}cpp}{45}{section.5.6}}
\newlabel{_decision_tree_node_8cpp_source}{{5.6}{45}{Decision\+Tree\+Node.\+cpp}{section.5.6}{}}
\@writefile{toc}{\contentsline {section}{\numberline {5.7}machine\discretionary {\unhbox \voidb@x \hbox {\relax \fontsize  {7}{8}\selectfont  $\leftarrow \joinrel  \rhook $}}{}{}\_\discretionary {\unhbox \voidb@x \hbox {\relax \fontsize  {7}{8}\selectfont  $\leftarrow \joinrel  \rhook $}}{}{}learning/src/\discretionary {\unhbox \voidb@x \hbox {\relax \fontsize  {7}{8}\selectfont  $\leftarrow \joinrel  \rhook $}}{}{}Decision\discretionary {\unhbox \voidb@x \hbox {\relax \fontsize  {7}{8}\selectfont  $\leftarrow \joinrel  \rhook $}}{}{}Tree\discretionary {\unhbox \voidb@x \hbox {\relax \fontsize  {7}{8}\selectfont  $\leftarrow \joinrel  \rhook $}}{}{}Node.h File Reference}{53}{section.5.7}}
\newlabel{_decision_tree_node_8h}{{5.7}{53}{machine\+\_\+learning/src/\+Decision\+Tree\+Node.h File Reference}{section.5.7}{}}
\@writefile{toc}{\contentsline {section}{\numberline {5.8}Decision\discretionary {\unhbox \voidb@x \hbox {\relax \fontsize  {7}{8}\selectfont  $\leftarrow \joinrel  \rhook $}}{}{}Tree\discretionary {\unhbox \voidb@x \hbox {\relax \fontsize  {7}{8}\selectfont  $\leftarrow \joinrel  \rhook $}}{}{}Node.\discretionary {\unhbox \voidb@x \hbox {\relax \fontsize  {7}{8}\selectfont  $\leftarrow \joinrel  \rhook $}}{}{}h}{54}{section.5.8}}
\newlabel{_decision_tree_node_8h_source}{{5.8}{54}{Decision\+Tree\+Node.\+h}{section.5.8}{}}
\@writefile{toc}{\contentsline {section}{\numberline {5.9}machine\discretionary {\unhbox \voidb@x \hbox {\relax \fontsize  {7}{8}\selectfont  $\leftarrow \joinrel  \rhook $}}{}{}\_\discretionary {\unhbox \voidb@x \hbox {\relax \fontsize  {7}{8}\selectfont  $\leftarrow \joinrel  \rhook $}}{}{}learning/src/\discretionary {\unhbox \voidb@x \hbox {\relax \fontsize  {7}{8}\selectfont  $\leftarrow \joinrel  \rhook $}}{}{}Graph\discretionary {\unhbox \voidb@x \hbox {\relax \fontsize  {7}{8}\selectfont  $\leftarrow \joinrel  \rhook $}}{}{}Viz\discretionary {\unhbox \voidb@x \hbox {\relax \fontsize  {7}{8}\selectfont  $\leftarrow \joinrel  \rhook $}}{}{}Node\discretionary {\unhbox \voidb@x \hbox {\relax \fontsize  {7}{8}\selectfont  $\leftarrow \joinrel  \rhook $}}{}{}Decorator.cpp File Reference}{56}{section.5.9}}
\newlabel{_graph_viz_node_decorator_8cpp}{{5.9}{56}{machine\+\_\+learning/src/\+Graph\+Viz\+Node\+Decorator.cpp File Reference}{section.5.9}{}}
\@writefile{toc}{\contentsline {subsection}{\numberline {5.9.1}Function Documentation}{57}{subsection.5.9.1}}
\@writefile{toc}{\contentsline {subsubsection}{\numberline {5.9.1.1}Generate\discretionary {\unhbox \voidb@x \hbox {\relax \fontsize  {7}{8}\selectfont  $\leftarrow \joinrel  \rhook $}}{}{}Graphviz(\discretionary {\unhbox \voidb@x \hbox {\relax \fontsize  {7}{8}\selectfont  $\leftarrow \joinrel  \rhook $}}{}{}Graph\discretionary {\unhbox \voidb@x \hbox {\relax \fontsize  {7}{8}\selectfont  $\leftarrow \joinrel  \rhook $}}{}{}Viz\discretionary {\unhbox \voidb@x \hbox {\relax \fontsize  {7}{8}\selectfont  $\leftarrow \joinrel  \rhook $}}{}{}Node\discretionary {\unhbox \voidb@x \hbox {\relax \fontsize  {7}{8}\selectfont  $\leftarrow \joinrel  \rhook $}}{}{}Decorator $\ast $root, bool digraph, std\discretionary {\unhbox \voidb@x \hbox {\relax \fontsize  {7}{8}\selectfont  $\leftarrow \joinrel  \rhook $}}{}{}::string name)}{57}{subsubsection.5.9.1.1}}
\newlabel{_graph_viz_node_decorator_8cpp_a2cb3f79c7fe551574253e84d969a8a9c}{{5.9.1.1}{57}{\texorpdfstring {Generate\+Graphviz(\+Graph\+Viz\+Node\+Decorator $\ast $root, bool digraph, std\+::string name)}{GenerateGraphviz(GraphVizNodeDecorator *root, bool digraph, std::string name)}}{subsubsection.5.9.1.1}{}}
\@writefile{toc}{\contentsline {subsubsection}{\numberline {5.9.1.2}Recurse\discretionary {\unhbox \voidb@x \hbox {\relax \fontsize  {7}{8}\selectfont  $\leftarrow \joinrel  \rhook $}}{}{}Graph\discretionary {\unhbox \voidb@x \hbox {\relax \fontsize  {7}{8}\selectfont  $\leftarrow \joinrel  \rhook $}}{}{}Viz\discretionary {\unhbox \voidb@x \hbox {\relax \fontsize  {7}{8}\selectfont  $\leftarrow \joinrel  \rhook $}}{}{}Node\discretionary {\unhbox \voidb@x \hbox {\relax \fontsize  {7}{8}\selectfont  $\leftarrow \joinrel  \rhook $}}{}{}Decorators(\discretionary {\unhbox \voidb@x \hbox {\relax \fontsize  {7}{8}\selectfont  $\leftarrow \joinrel  \rhook $}}{}{}Graph\discretionary {\unhbox \voidb@x \hbox {\relax \fontsize  {7}{8}\selectfont  $\leftarrow \joinrel  \rhook $}}{}{}Viz\discretionary {\unhbox \voidb@x \hbox {\relax \fontsize  {7}{8}\selectfont  $\leftarrow \joinrel  \rhook $}}{}{}Node\discretionary {\unhbox \voidb@x \hbox {\relax \fontsize  {7}{8}\selectfont  $\leftarrow \joinrel  \rhook $}}{}{}Decorator $\ast $root, std\discretionary {\unhbox \voidb@x \hbox {\relax \fontsize  {7}{8}\selectfont  $\leftarrow \joinrel  \rhook $}}{}{}::vector$<$ Graph\discretionary {\unhbox \voidb@x \hbox {\relax \fontsize  {7}{8}\selectfont  $\leftarrow \joinrel  \rhook $}}{}{}Viz\discretionary {\unhbox \voidb@x \hbox {\relax \fontsize  {7}{8}\selectfont  $\leftarrow \joinrel  \rhook $}}{}{}Node\discretionary {\unhbox \voidb@x \hbox {\relax \fontsize  {7}{8}\selectfont  $\leftarrow \joinrel  \rhook $}}{}{}Decorator $\ast $ $>$ \&visited, std\discretionary {\unhbox \voidb@x \hbox {\relax \fontsize  {7}{8}\selectfont  $\leftarrow \joinrel  \rhook $}}{}{}::stringstream \&printer, bool digraph)}{57}{subsubsection.5.9.1.2}}
\newlabel{_graph_viz_node_decorator_8cpp_af63b06d1c3847ddf56501c2a3e2fc6b6}{{5.9.1.2}{57}{\texorpdfstring {Recurse\+Graph\+Viz\+Node\+Decorators(\+Graph\+Viz\+Node\+Decorator $\ast $root, std\+::vector$<$ Graph\+Viz\+Node\+Decorator $\ast $ $>$ \&visited, std\+::stringstream \&printer, bool digraph)}{RecurseGraphVizNodeDecorators(GraphVizNodeDecorator *root, std::vector< GraphVizNodeDecorator * > &visited, std::stringstream &printer, bool digraph)}}{subsubsection.5.9.1.2}{}}
\@writefile{toc}{\contentsline {subsection}{\numberline {5.9.2}Variable Documentation}{58}{subsection.5.9.2}}
\@writefile{toc}{\contentsline {subsubsection}{\numberline {5.9.2.1}Static\discretionary {\unhbox \voidb@x \hbox {\relax \fontsize  {7}{8}\selectfont  $\leftarrow \joinrel  \rhook $}}{}{}Identifiers}{58}{subsubsection.5.9.2.1}}
\newlabel{_graph_viz_node_decorator_8cpp_a5583873198604b2b546077da1f30de53}{{5.9.2.1}{58}{\texorpdfstring {Static\+Identifiers}{StaticIdentifiers}}{subsubsection.5.9.2.1}{}}
\@writefile{toc}{\contentsline {section}{\numberline {5.10}Graph\discretionary {\unhbox \voidb@x \hbox {\relax \fontsize  {7}{8}\selectfont  $\leftarrow \joinrel  \rhook $}}{}{}Viz\discretionary {\unhbox \voidb@x \hbox {\relax \fontsize  {7}{8}\selectfont  $\leftarrow \joinrel  \rhook $}}{}{}Node\discretionary {\unhbox \voidb@x \hbox {\relax \fontsize  {7}{8}\selectfont  $\leftarrow \joinrel  \rhook $}}{}{}Decorator.\discretionary {\unhbox \voidb@x \hbox {\relax \fontsize  {7}{8}\selectfont  $\leftarrow \joinrel  \rhook $}}{}{}cpp}{58}{section.5.10}}
\newlabel{_graph_viz_node_decorator_8cpp_source}{{5.10}{58}{Graph\+Viz\+Node\+Decorator.\+cpp}{section.5.10}{}}
\@writefile{toc}{\contentsline {section}{\numberline {5.11}machine\discretionary {\unhbox \voidb@x \hbox {\relax \fontsize  {7}{8}\selectfont  $\leftarrow \joinrel  \rhook $}}{}{}\_\discretionary {\unhbox \voidb@x \hbox {\relax \fontsize  {7}{8}\selectfont  $\leftarrow \joinrel  \rhook $}}{}{}learning/src/\discretionary {\unhbox \voidb@x \hbox {\relax \fontsize  {7}{8}\selectfont  $\leftarrow \joinrel  \rhook $}}{}{}Graph\discretionary {\unhbox \voidb@x \hbox {\relax \fontsize  {7}{8}\selectfont  $\leftarrow \joinrel  \rhook $}}{}{}Viz\discretionary {\unhbox \voidb@x \hbox {\relax \fontsize  {7}{8}\selectfont  $\leftarrow \joinrel  \rhook $}}{}{}Node\discretionary {\unhbox \voidb@x \hbox {\relax \fontsize  {7}{8}\selectfont  $\leftarrow \joinrel  \rhook $}}{}{}Decorator.h File Reference}{61}{section.5.11}}
\newlabel{_graph_viz_node_decorator_8h}{{5.11}{61}{machine\+\_\+learning/src/\+Graph\+Viz\+Node\+Decorator.h File Reference}{section.5.11}{}}
\@writefile{toc}{\contentsline {subsection}{\numberline {5.11.1}Function Documentation}{62}{subsection.5.11.1}}
\@writefile{toc}{\contentsline {subsubsection}{\numberline {5.11.1.1}Generate\discretionary {\unhbox \voidb@x \hbox {\relax \fontsize  {7}{8}\selectfont  $\leftarrow \joinrel  \rhook $}}{}{}Graphviz(\discretionary {\unhbox \voidb@x \hbox {\relax \fontsize  {7}{8}\selectfont  $\leftarrow \joinrel  \rhook $}}{}{}Graph\discretionary {\unhbox \voidb@x \hbox {\relax \fontsize  {7}{8}\selectfont  $\leftarrow \joinrel  \rhook $}}{}{}Viz\discretionary {\unhbox \voidb@x \hbox {\relax \fontsize  {7}{8}\selectfont  $\leftarrow \joinrel  \rhook $}}{}{}Node\discretionary {\unhbox \voidb@x \hbox {\relax \fontsize  {7}{8}\selectfont  $\leftarrow \joinrel  \rhook $}}{}{}Decorator $\ast $root, bool digraph, std\discretionary {\unhbox \voidb@x \hbox {\relax \fontsize  {7}{8}\selectfont  $\leftarrow \joinrel  \rhook $}}{}{}::string name)}{62}{subsubsection.5.11.1.1}}
\newlabel{_graph_viz_node_decorator_8h_a2cb3f79c7fe551574253e84d969a8a9c}{{5.11.1.1}{62}{\texorpdfstring {Generate\+Graphviz(\+Graph\+Viz\+Node\+Decorator $\ast $root, bool digraph, std\+::string name)}{GenerateGraphviz(GraphVizNodeDecorator *root, bool digraph, std::string name)}}{subsubsection.5.11.1.1}{}}
\@writefile{toc}{\contentsline {section}{\numberline {5.12}Graph\discretionary {\unhbox \voidb@x \hbox {\relax \fontsize  {7}{8}\selectfont  $\leftarrow \joinrel  \rhook $}}{}{}Viz\discretionary {\unhbox \voidb@x \hbox {\relax \fontsize  {7}{8}\selectfont  $\leftarrow \joinrel  \rhook $}}{}{}Node\discretionary {\unhbox \voidb@x \hbox {\relax \fontsize  {7}{8}\selectfont  $\leftarrow \joinrel  \rhook $}}{}{}Decorator.\discretionary {\unhbox \voidb@x \hbox {\relax \fontsize  {7}{8}\selectfont  $\leftarrow \joinrel  \rhook $}}{}{}h}{63}{section.5.12}}
\newlabel{_graph_viz_node_decorator_8h_source}{{5.12}{63}{Graph\+Viz\+Node\+Decorator.\+h}{section.5.12}{}}
\@writefile{toc}{\contentsline {section}{\numberline {5.13}machine\discretionary {\unhbox \voidb@x \hbox {\relax \fontsize  {7}{8}\selectfont  $\leftarrow \joinrel  \rhook $}}{}{}\_\discretionary {\unhbox \voidb@x \hbox {\relax \fontsize  {7}{8}\selectfont  $\leftarrow \joinrel  \rhook $}}{}{}learning/src/machine\discretionary {\unhbox \voidb@x \hbox {\relax \fontsize  {7}{8}\selectfont  $\leftarrow \joinrel  \rhook $}}{}{}\_\discretionary {\unhbox \voidb@x \hbox {\relax \fontsize  {7}{8}\selectfont  $\leftarrow \joinrel  \rhook $}}{}{}learning.cpp File Reference}{63}{section.5.13}}
\newlabel{machine__learning_8cpp}{{5.13}{63}{machine\+\_\+learning/src/machine\+\_\+learning.cpp File Reference}{section.5.13}{}}
\@writefile{toc}{\contentsline {subsection}{\numberline {5.13.1}Function Documentation}{64}{subsection.5.13.1}}
\@writefile{toc}{\contentsline {subsubsection}{\numberline {5.13.1.1}main(int argc, char $\ast $argv[])}{64}{subsubsection.5.13.1.1}}
\newlabel{machine__learning_8cpp_a0ddf1224851353fc92bfbff6f499fa97}{{5.13.1.1}{64}{\texorpdfstring {main(int argc, char $\ast $argv[])}{main(int argc, char *argv[])}}{subsubsection.5.13.1.1}{}}
\@writefile{toc}{\contentsline {section}{\numberline {5.14}machine\discretionary {\unhbox \voidb@x \hbox {\relax \fontsize  {7}{8}\selectfont  $\leftarrow \joinrel  \rhook $}}{}{}\_\discretionary {\unhbox \voidb@x \hbox {\relax \fontsize  {7}{8}\selectfont  $\leftarrow \joinrel  \rhook $}}{}{}learning.\discretionary {\unhbox \voidb@x \hbox {\relax \fontsize  {7}{8}\selectfont  $\leftarrow \joinrel  \rhook $}}{}{}cpp}{65}{section.5.14}}
\newlabel{machine__learning_8cpp_source}{{5.14}{65}{machine\+\_\+learning.\+cpp}{section.5.14}{}}
\@writefile{toc}{\contentsline {section}{\numberline {5.15}machine\discretionary {\unhbox \voidb@x \hbox {\relax \fontsize  {7}{8}\selectfont  $\leftarrow \joinrel  \rhook $}}{}{}\_\discretionary {\unhbox \voidb@x \hbox {\relax \fontsize  {7}{8}\selectfont  $\leftarrow \joinrel  \rhook $}}{}{}learning/src/main.h File Reference}{66}{section.5.15}}
\newlabel{main_8h}{{5.15}{66}{machine\+\_\+learning/src/main.h File Reference}{section.5.15}{}}
\@writefile{toc}{\contentsline {section}{\numberline {5.16}main.\discretionary {\unhbox \voidb@x \hbox {\relax \fontsize  {7}{8}\selectfont  $\leftarrow \joinrel  \rhook $}}{}{}h}{67}{section.5.16}}
\newlabel{main_8h_source}{{5.16}{67}{main.\+h}{section.5.16}{}}
\@writefile{toc}{\contentsline {chapter}{Index}{69}{section*.80}}
