\relax 
\@writefile{toc}{\contentsline {section}{\numberline {1}Introduction}{2}}
\@writefile{toc}{\contentsline {section}{\numberline {2}Background}{3}}
\@writefile{toc}{\contentsline {section}{\numberline {3}Hypothesis}{4}}
\@writefile{toc}{\contentsline {section}{\numberline {4}Experiment}{5}}
\@writefile{toc}{\contentsline {section}{\numberline {5}Results}{6}}
\@writefile{toc}{\contentsline {section}{\numberline {6}Challenges}{7}}
\@writefile{toc}{\contentsline {section}{\numberline {7}Conclusion}{8}}
\@writefile{toc}{\contentsline {section}{\numberline {8}Future Work}{9}}
\citation{*}
\bibdata{TermPaper}
\bibcite{DragonBook}{Alfred V.\nobreakspace  {}Aho, 1988}
\bibcite{GrammarParser}{Code, a}
\bibcite{LambdaGrammar}{Code, b}
\bibcite{LambdaCalc}{Code, c}
\bibcite{ProofOfZero}{Code, d}
\bibcite{TopLoop}{Code, e}
\bibcite{PEG}{Ford, 2004}
\bibcite{SICP}{Harold\nobreakspace  {}Abelson, 1996}
\bibcite{PredSuccZero}{Horwitz, 2010}
\bibcite{MetaII}{Neighbors, 2015}
\bibcite{MechanicsBook}{Parsons, 1992}
\bibcite{MLWpro}{Paulson, 2000}
\bibcite{LISP}{Queinnec, 1994}
\bibstyle{apalike}
\@writefile{toc}{\contentsline {section}{\numberline {9}References}{10}}
