%!PS-Adobe-3.0 EPSF-3.0
%%Creator: graphviz version 2.36.0 (20140111.2315)
%%Title: decision
%%Pages: 1
%%BoundingBox: 36 36 255 360
%%EndComments
save
%%BeginProlog
/DotDict 200 dict def
DotDict begin

/setupLatin1 {
mark
/EncodingVector 256 array def
 EncodingVector 0

ISOLatin1Encoding 0 255 getinterval putinterval
EncodingVector 45 /hyphen put

% Set up ISO Latin 1 character encoding
/starnetISO {
        dup dup findfont dup length dict begin
        { 1 index /FID ne { def }{ pop pop } ifelse
        } forall
        /Encoding EncodingVector def
        currentdict end definefont
} def
/Times-Roman starnetISO def
/Times-Italic starnetISO def
/Times-Bold starnetISO def
/Times-BoldItalic starnetISO def
/Helvetica starnetISO def
/Helvetica-Oblique starnetISO def
/Helvetica-Bold starnetISO def
/Helvetica-BoldOblique starnetISO def
/Courier starnetISO def
/Courier-Oblique starnetISO def
/Courier-Bold starnetISO def
/Courier-BoldOblique starnetISO def
cleartomark
} bind def

%%BeginResource: procset graphviz 0 0
/coord-font-family /Times-Roman def
/default-font-family /Times-Roman def
/coordfont coord-font-family findfont 8 scalefont def

/InvScaleFactor 1.0 def
/set_scale {
       dup 1 exch div /InvScaleFactor exch def
       scale
} bind def

% styles
/solid { [] 0 setdash } bind def
/dashed { [9 InvScaleFactor mul dup ] 0 setdash } bind def
/dotted { [1 InvScaleFactor mul 6 InvScaleFactor mul] 0 setdash } bind def
/invis {/fill {newpath} def /stroke {newpath} def /show {pop newpath} def} bind def
/bold { 2 setlinewidth } bind def
/filled { } bind def
/unfilled { } bind def
/rounded { } bind def
/diagonals { } bind def
/tapered { } bind def

% hooks for setting color 
/nodecolor { sethsbcolor } bind def
/edgecolor { sethsbcolor } bind def
/graphcolor { sethsbcolor } bind def
/nopcolor {pop pop pop} bind def

/beginpage {	% i j npages
	/npages exch def
	/j exch def
	/i exch def
	/str 10 string def
	npages 1 gt {
		gsave
			coordfont setfont
			0 0 moveto
			(\() show i str cvs show (,) show j str cvs show (\)) show
		grestore
	} if
} bind def

/set_font {
	findfont exch
	scalefont setfont
} def

% draw text fitted to its expected width
/alignedtext {			% width text
	/text exch def
	/width exch def
	gsave
		width 0 gt {
			[] 0 setdash
			text stringwidth pop width exch sub text length div 0 text ashow
		} if
	grestore
} def

/boxprim {				% xcorner ycorner xsize ysize
		4 2 roll
		moveto
		2 copy
		exch 0 rlineto
		0 exch rlineto
		pop neg 0 rlineto
		closepath
} bind def

/ellipse_path {
	/ry exch def
	/rx exch def
	/y exch def
	/x exch def
	matrix currentmatrix
	newpath
	x y translate
	rx ry scale
	0 0 1 0 360 arc
	setmatrix
} bind def

/endpage { showpage } bind def
/showpage { } def

/layercolorseq
	[	% layer color sequence - darkest to lightest
		[0 0 0]
		[.2 .8 .8]
		[.4 .8 .8]
		[.6 .8 .8]
		[.8 .8 .8]
	]
def

/layerlen layercolorseq length def

/setlayer {/maxlayer exch def /curlayer exch def
	layercolorseq curlayer 1 sub layerlen mod get
	aload pop sethsbcolor
	/nodecolor {nopcolor} def
	/edgecolor {nopcolor} def
	/graphcolor {nopcolor} def
} bind def

/onlayer { curlayer ne {invis} if } def

/onlayers {
	/myupper exch def
	/mylower exch def
	curlayer mylower lt
	curlayer myupper gt
	or
	{invis} if
} def

/curlayer 0 def

%%EndResource
%%EndProlog
%%BeginSetup
14 default-font-family set_font
1 setmiterlimit
% /arrowlength 10 def
% /arrowwidth 5 def

% make sure pdfmark is harmless for PS-interpreters other than Distiller
/pdfmark where {pop} {userdict /pdfmark /cleartomark load put} ifelse
% make '<<' and '>>' safe on PS Level 1 devices
/languagelevel where {pop languagelevel}{1} ifelse
2 lt {
    userdict (<<) cvn ([) cvn load put
    userdict (>>) cvn ([) cvn load put
} if

%%EndSetup
setupLatin1
%%Page: 1 1
%%PageBoundingBox: 36 36 255 360
%%PageOrientation: Portrait
0 0 1 beginpage
gsave
36 36 219 324 boxprim clip newpath
1 1 set_scale 0 rotate 40 40 translate
0 0 0 graphcolor
14 /Times-Roman set_font
14.39 6.8 moveto 182.23 (Decision tree for:  A V \( B ^ C \) ) alignedtext
% A
gsave
1 setlinewidth
0 0 0 nodecolor
159 298 27 18 ellipse_path stroke
0 0 0 nodecolor
14 /Times-Roman set_font
153.94 293.8 moveto 10.11 (A) alignedtext
grestore
% B
gsave
1 setlinewidth
0 0 0 nodecolor
112 212 27 18 ellipse_path stroke
0 0 0 nodecolor
14 /Times-Roman set_font
107.33 207.8 moveto 9.34 (B) alignedtext
grestore
% A->B
gsave
1 setlinewidth
0 0 0 edgecolor
newpath 149.94 280.8 moveto
143.18 268.72 133.81 251.98 126.08 238.16 curveto
stroke
0 0 0 edgecolor
newpath 128.97 236.16 moveto
121.03 229.15 lineto
122.86 239.58 lineto
closepath fill
1 setlinewidth
solid
0 0 0 edgecolor
newpath 128.97 236.16 moveto
121.03 229.15 lineto
122.86 239.58 lineto
closepath stroke
0 0 0 edgecolor
14 /Times-Roman set_font
139 250.8 moveto 26.43 (false) alignedtext
grestore
% A1
gsave
1 setlinewidth
0 0 0 nodecolor
184 212 27 18 ellipse_path stroke
0 0 0 nodecolor
14 /Times-Roman set_font
180.5 207.8 moveto 7 (1) alignedtext
grestore
% A->A1
gsave
1 setlinewidth
0 0 0 edgecolor
newpath 164.06 280 moveto
167.48 268.5 172.07 253.07 175.99 239.92 curveto
stroke
0 0 0 edgecolor
newpath 179.45 240.56 moveto
178.95 229.97 lineto
172.74 238.56 lineto
closepath fill
1 setlinewidth
solid
0 0 0 edgecolor
newpath 179.45 240.56 moveto
178.95 229.97 lineto
172.74 238.56 lineto
closepath stroke
0 0 0 edgecolor
14 /Times-Roman set_font
173 250.8 moveto 21.77 (true) alignedtext
grestore
% C
gsave
1 setlinewidth
0 0 0 nodecolor
63 126 27 18 ellipse_path stroke
0 0 0 nodecolor
14 /Times-Roman set_font
58.33 121.8 moveto 9.34 (C) alignedtext
grestore
% B->C
gsave
1 setlinewidth
0 0 0 edgecolor
newpath 102.55 194.8 moveto
95.5 182.72 85.74 165.98 77.67 152.16 curveto
stroke
0 0 0 edgecolor
newpath 80.48 150.02 moveto
72.42 143.15 lineto
74.43 153.55 lineto
closepath fill
1 setlinewidth
solid
0 0 0 edgecolor
newpath 80.48 150.02 moveto
72.42 143.15 lineto
74.43 153.55 lineto
closepath stroke
0 0 0 edgecolor
14 /Times-Roman set_font
91 164.8 moveto 21.77 (true) alignedtext
grestore
% B1
gsave
1 setlinewidth
0 0 0 nodecolor
135 126 27 18 ellipse_path stroke
0 0 0 nodecolor
14 /Times-Roman set_font
131.5 121.8 moveto 7 (0) alignedtext
grestore
% B->B1
gsave
1 setlinewidth
0 0 0 edgecolor
newpath 116.65 194 moveto
119.8 182.5 124.03 167.07 127.63 153.92 curveto
stroke
0 0 0 edgecolor
newpath 131.09 154.54 moveto
130.35 143.97 lineto
124.34 152.69 lineto
closepath fill
1 setlinewidth
solid
0 0 0 edgecolor
newpath 131.09 154.54 moveto
130.35 143.97 lineto
124.34 152.69 lineto
closepath stroke
0 0 0 edgecolor
14 /Times-Roman set_font
125 164.8 moveto 26.43 (false) alignedtext
grestore
% C1
gsave
1 setlinewidth
0 0 0 nodecolor
27 40 27 18 ellipse_path stroke
0 0 0 nodecolor
14 /Times-Roman set_font
23.5 35.8 moveto 7 (1) alignedtext
grestore
% C->C1
gsave
1 setlinewidth
0 0 0 edgecolor
newpath 55.89 108.4 moveto
50.81 96.55 43.88 80.38 38.08 66.85 curveto
stroke
0 0 0 edgecolor
newpath 41.25 65.37 moveto
34.1 57.56 lineto
34.82 68.13 lineto
closepath fill
1 setlinewidth
solid
0 0 0 edgecolor
newpath 41.25 65.37 moveto
34.1 57.56 lineto
34.82 68.13 lineto
closepath stroke
0 0 0 edgecolor
14 /Times-Roman set_font
48 78.8 moveto 21.77 (true) alignedtext
grestore
% C2
gsave
1 setlinewidth
0 0 0 nodecolor
99 40 27 18 ellipse_path stroke
0 0 0 nodecolor
14 /Times-Roman set_font
95.5 35.8 moveto 7 (0) alignedtext
grestore
% C->C2
gsave
1 setlinewidth
0 0 0 edgecolor
newpath 70.11 108.4 moveto
75.19 96.55 82.12 80.38 87.92 66.85 curveto
stroke
0 0 0 edgecolor
newpath 91.18 68.13 moveto
91.9 57.56 lineto
84.75 65.37 lineto
closepath fill
1 setlinewidth
solid
0 0 0 edgecolor
newpath 91.18 68.13 moveto
91.9 57.56 lineto
84.75 65.37 lineto
closepath stroke
0 0 0 edgecolor
14 /Times-Roman set_font
84 78.8 moveto 26.43 (false) alignedtext
grestore
endpage
showpage
grestore
%%PageTrailer
%%EndPage: 1
%%Trailer
end
restore
%%EOF
