%!PS-Adobe-3.0 EPSF-3.0
%%Creator: graphviz version 2.36.0 (20140111.2315)
%%Title: decision
%%Pages: 1
%%BoundingBox: 36 36 412 516
%%EndComments
save
%%BeginProlog
/DotDict 200 dict def
DotDict begin

/setupLatin1 {
mark
/EncodingVector 256 array def
 EncodingVector 0

ISOLatin1Encoding 0 255 getinterval putinterval
EncodingVector 45 /hyphen put

% Set up ISO Latin 1 character encoding
/starnetISO {
        dup dup findfont dup length dict begin
        { 1 index /FID ne { def }{ pop pop } ifelse
        } forall
        /Encoding EncodingVector def
        currentdict end definefont
} def
/Times-Roman starnetISO def
/Times-Italic starnetISO def
/Times-Bold starnetISO def
/Times-BoldItalic starnetISO def
/Helvetica starnetISO def
/Helvetica-Oblique starnetISO def
/Helvetica-Bold starnetISO def
/Helvetica-BoldOblique starnetISO def
/Courier starnetISO def
/Courier-Oblique starnetISO def
/Courier-Bold starnetISO def
/Courier-BoldOblique starnetISO def
cleartomark
} bind def

%%BeginResource: procset graphviz 0 0
/coord-font-family /Times-Roman def
/default-font-family /Times-Roman def
/coordfont coord-font-family findfont 8 scalefont def

/InvScaleFactor 1.0 def
/set_scale {
       dup 1 exch div /InvScaleFactor exch def
       scale
} bind def

% styles
/solid { [] 0 setdash } bind def
/dashed { [9 InvScaleFactor mul dup ] 0 setdash } bind def
/dotted { [1 InvScaleFactor mul 6 InvScaleFactor mul] 0 setdash } bind def
/invis {/fill {newpath} def /stroke {newpath} def /show {pop newpath} def} bind def
/bold { 2 setlinewidth } bind def
/filled { } bind def
/unfilled { } bind def
/rounded { } bind def
/diagonals { } bind def
/tapered { } bind def

% hooks for setting color 
/nodecolor { sethsbcolor } bind def
/edgecolor { sethsbcolor } bind def
/graphcolor { sethsbcolor } bind def
/nopcolor {pop pop pop} bind def

/beginpage {	% i j npages
	/npages exch def
	/j exch def
	/i exch def
	/str 10 string def
	npages 1 gt {
		gsave
			coordfont setfont
			0 0 moveto
			(\() show i str cvs show (,) show j str cvs show (\)) show
		grestore
	} if
} bind def

/set_font {
	findfont exch
	scalefont setfont
} def

% draw text fitted to its expected width
/alignedtext {			% width text
	/text exch def
	/width exch def
	gsave
		width 0 gt {
			[] 0 setdash
			text stringwidth pop width exch sub text length div 0 text ashow
		} if
	grestore
} def

/boxprim {				% xcorner ycorner xsize ysize
		4 2 roll
		moveto
		2 copy
		exch 0 rlineto
		0 exch rlineto
		pop neg 0 rlineto
		closepath
} bind def

/ellipse_path {
	/ry exch def
	/rx exch def
	/y exch def
	/x exch def
	matrix currentmatrix
	newpath
	x y translate
	rx ry scale
	0 0 1 0 360 arc
	setmatrix
} bind def

/endpage { showpage } bind def
/showpage { } def

/layercolorseq
	[	% layer color sequence - darkest to lightest
		[0 0 0]
		[.2 .8 .8]
		[.4 .8 .8]
		[.6 .8 .8]
		[.8 .8 .8]
	]
def

/layerlen layercolorseq length def

/setlayer {/maxlayer exch def /curlayer exch def
	layercolorseq curlayer 1 sub layerlen mod get
	aload pop sethsbcolor
	/nodecolor {nopcolor} def
	/edgecolor {nopcolor} def
	/graphcolor {nopcolor} def
} bind def

/onlayer { curlayer ne {invis} if } def

/onlayers {
	/myupper exch def
	/mylower exch def
	curlayer mylower lt
	curlayer myupper gt
	or
	{invis} if
} def

/curlayer 0 def

%%EndResource
%%EndProlog
%%BeginSetup
14 default-font-family set_font
1 setmiterlimit
% /arrowlength 10 def
% /arrowwidth 5 def

% make sure pdfmark is harmless for PS-interpreters other than Distiller
/pdfmark where {pop} {userdict /pdfmark /cleartomark load put} ifelse
% make '<<' and '>>' safe on PS Level 1 devices
/languagelevel where {pop languagelevel}{1} ifelse
2 lt {
    userdict (<<) cvn ([) cvn load put
    userdict (>>) cvn ([) cvn load put
} if

%%EndSetup
setupLatin1
%%Page: 1 1
%%PageBoundingBox: 36 36 412 516
%%PageOrientation: Portrait
0 0 1 beginpage
gsave
36 36 376 480 boxprim clip newpath
1 1 set_scale 0 rotate 40 40 translate
0 0 0 graphcolor
14 /Times-Roman set_font
124.71 6.8 moveto 118.95 (Play Tennis ID3 Tree) alignedtext
% invis
gsave
0 0 0 nodecolor
97 470 1.8 1.8 ellipse_path fill
1 setlinewidth
filled
0 0 0 nodecolor
97 470 1.8 1.8 ellipse_path stroke
grestore
% Outlook
gsave
1 setlinewidth
0 0 0 nodecolor
newpath 135 348 moveto
59 348 lineto
59 312 lineto
135 312 lineto
closepath stroke
0 0 0 nodecolor
14 /Times-Roman set_font
74.06 332.8 moveto 45.89 (Outlook) alignedtext
0 0 0 nodecolor
14 /Times-Roman set_font
67 318.8 moveto 60.01 ( G = 0.246) alignedtext
grestore
% invis->Outlook
gsave
1 setlinewidth
0 0 0 edgecolor
newpath 97 468.12 moveto
97 459.89 97 395.92 97 358.33 curveto
stroke
0 0 0 edgecolor
newpath 100.5 358.05 moveto
97 348.05 lineto
93.5 358.05 lineto
closepath fill
1 setlinewidth
solid
0 0 0 edgecolor
newpath 100.5 358.05 moveto
97 348.05 lineto
93.5 358.05 lineto
closepath stroke
0 0 0 edgecolor
14 /Times-Roman set_font
132.65 438.8 moveto 51.06 (S:[9+,5-]) alignedtext
0 0 0 edgecolor
14 /Times-Roman set_font
130.71 424.8 moveto 54.95 (E = 0.940) alignedtext
0 0 0 edgecolor
14 /Times-Roman set_font
109.32 410.8 moveto 97.72 (G\(Outlook\)=.246) alignedtext
0 0 0 edgecolor
14 /Times-Roman set_font
105.43 396.8 moveto 105.5 (G\(Humidity\)=.151) alignedtext
0 0 0 edgecolor
14 /Times-Roman set_font
116.99 382.8 moveto 82.38 (G\(Wind\)=.048) alignedtext
0 0 0 edgecolor
14 /Times-Roman set_font
97 368.8 moveto 122.36 (G\(Temperature\)=.029) alignedtext
grestore
% Terminal1
gsave
1 setlinewidth
0 0 0 nodecolor
22 169 22.47 22.96 ellipse_path stroke
0 0 0 nodecolor
14 /Times-Roman set_font
11.81 164.8 moveto 20.38 (Yes) alignedtext
grestore
% Outlook->Terminal1
gsave
1 setlinewidth
0 0 0 edgecolor
newpath 60.35 311.89 moveto
53.27 307.04 46.61 301.1 41.94 294 curveto
24.03 266.78 20.24 229.1 20.18 202.43 curveto
stroke
0 0 0 edgecolor
newpath 23.68 202.15 moveto
20.34 192.1 lineto
16.68 202.04 lineto
closepath fill
1 setlinewidth
solid
0 0 0 edgecolor
newpath 23.68 202.15 moveto
20.34 192.1 lineto
16.68 202.04 lineto
closepath stroke
0 0 0 edgecolor
14 /Times-Roman set_font
42.65 261.8 moveto 49.75 (Overcast) alignedtext
0 0 0 edgecolor
14 /Times-Roman set_font
42 247.8 moveto 51.06 (S:[4+,0-]) alignedtext
0 0 0 edgecolor
14 /Times-Roman set_font
52.31 233.8 moveto 30.45 (E = 0) alignedtext
grestore
% Humidity
gsave
1 setlinewidth
0 0 0 nodecolor
newpath 134.88 187 moveto
63.12 187 lineto
63.12 151 lineto
134.88 151 lineto
closepath stroke
0 0 0 nodecolor
14 /Times-Roman set_font
72.17 171.8 moveto 53.67 (Humidity) alignedtext
0 0 0 nodecolor
14 /Times-Roman set_font
70.75 157.8 moveto 56.51 (G = 0.970) alignedtext
grestore
% Outlook->Humidity
gsave
1 setlinewidth
0 0 0 edgecolor
newpath 96.94 311.66 moveto
96.89 288.48 96.92 246.15 97.64 210 curveto
97.72 205.9 97.83 201.56 97.96 197.31 curveto
stroke
0 0 0 edgecolor
newpath 101.47 197.24 moveto
98.31 187.13 lineto
94.47 197 lineto
closepath fill
1 setlinewidth
solid
0 0 0 edgecolor
newpath 101.47 197.24 moveto
98.31 187.13 lineto
94.47 197 lineto
closepath stroke
0 0 0 edgecolor
14 /Times-Roman set_font
141.29 282.8 moveto 35.79 (Sunny) alignedtext
0 0 0 edgecolor
14 /Times-Roman set_font
133.65 268.8 moveto 51.06 (S:[2+,3-]) alignedtext
0 0 0 edgecolor
14 /Times-Roman set_font
131.71 254.8 moveto 54.95 (E = 0.971) alignedtext
0 0 0 edgecolor
14 /Times-Roman set_font
106.43 240.8 moveto 105.5 (G\(Humidity\)=.970) alignedtext
0 0 0 edgecolor
14 /Times-Roman set_font
98 226.8 moveto 122.36 (G\(Temperature\)=.570) alignedtext
0 0 0 edgecolor
14 /Times-Roman set_font
117.99 212.8 moveto 82.38 (G\(Wind\)=.019) alignedtext
grestore
% Wind
gsave
1 setlinewidth
0 0 0 nodecolor
newpath 277.88 187 moveto
206.12 187 lineto
206.12 151 lineto
277.88 151 lineto
closepath stroke
0 0 0 nodecolor
14 /Times-Roman set_font
226.73 171.8 moveto 30.55 (Wind) alignedtext
0 0 0 nodecolor
14 /Times-Roman set_font
213.75 157.8 moveto 56.51 (G = 0.971) alignedtext
grestore
% Outlook->Wind
gsave
1 setlinewidth
0 0 0 edgecolor
newpath 135.01 328.36 moveto
162.58 325.78 198.65 317.64 220 294 curveto
243.68 267.79 246.23 225.28 244.89 197.48 curveto
stroke
0 0 0 edgecolor
newpath 248.37 196.99 moveto
244.2 187.26 lineto
241.39 197.47 lineto
closepath fill
1 setlinewidth
solid
0 0 0 edgecolor
newpath 248.37 196.99 moveto
244.2 187.26 lineto
241.39 197.47 lineto
closepath stroke
0 0 0 edgecolor
14 /Times-Roman set_font
293.96 282.8 moveto 26.44 (Rain) alignedtext
0 0 0 edgecolor
14 /Times-Roman set_font
281.65 268.8 moveto 51.06 (S:[3+,2-]) alignedtext
0 0 0 edgecolor
14 /Times-Roman set_font
279.71 254.8 moveto 54.95 (E = 0.971) alignedtext
0 0 0 edgecolor
14 /Times-Roman set_font
254.43 240.8 moveto 105.5 (G\(Humidity\)=.020) alignedtext
0 0 0 edgecolor
14 /Times-Roman set_font
265.99 226.8 moveto 82.38 (G\(Wind\)=.971) alignedtext
0 0 0 edgecolor
14 /Times-Roman set_font
246 212.8 moveto 122.36 (G\(Temperature\)=.020) alignedtext
grestore
% Terminal4
gsave
1 setlinewidth
0 0 0 nodecolor
42 45 20.37 20.83 ellipse_path stroke
0 0 0 nodecolor
14 /Times-Roman set_font
33.44 40.8 moveto 17.11 (No) alignedtext
grestore
% Humidity->Terminal4
gsave
1 setlinewidth
0 0 0 edgecolor
newpath 70.53 150.96 moveto
62.56 144.75 54.77 137.01 49.94 128 curveto
41.52 112.28 39.42 92.42 39.48 76.18 curveto
stroke
0 0 0 edgecolor
newpath 42.98 76.22 moveto
39.79 66.11 lineto
35.98 76 lineto
closepath fill
1 setlinewidth
solid
0 0 0 edgecolor
newpath 42.98 76.22 moveto
39.79 66.11 lineto
35.98 76 lineto
closepath stroke
0 0 0 edgecolor
14 /Times-Roman set_font
61.53 116.8 moveto 28 (High) alignedtext
0 0 0 edgecolor
14 /Times-Roman set_font
50 102.8 moveto 51.06 (S:[0+,3-]) alignedtext
0 0 0 edgecolor
14 /Times-Roman set_font
60.31 88.8 moveto 30.45 (E = 0) alignedtext
grestore
% Terminal5
gsave
1 setlinewidth
0 0 0 nodecolor
116 45 22.47 22.96 ellipse_path stroke
0 0 0 nodecolor
14 /Times-Roman set_font
105.81 40.8 moveto 20.38 (Yes) alignedtext
grestore
% Humidity->Terminal5
gsave
1 setlinewidth
0 0 0 edgecolor
newpath 101.4 150.78 moveto
104.02 131.98 108.27 101.46 111.51 78.2 curveto
stroke
0 0 0 edgecolor
newpath 115.01 78.48 moveto
112.92 68.09 lineto
108.08 77.51 lineto
closepath fill
1 setlinewidth
solid
0 0 0 edgecolor
newpath 115.01 78.48 moveto
112.92 68.09 lineto
108.08 77.51 lineto
closepath stroke
0 0 0 edgecolor
14 /Times-Roman set_font
115.15 116.8 moveto 42.77 (Normal) alignedtext
0 0 0 edgecolor
14 /Times-Roman set_font
111 102.8 moveto 51.06 (S:[2+,0-]) alignedtext
0 0 0 edgecolor
14 /Times-Roman set_font
121.31 88.8 moveto 30.45 (E = 0) alignedtext
grestore
% Terminal2
gsave
1 setlinewidth
0 0 0 nodecolor
224 45 22.47 22.96 ellipse_path stroke
0 0 0 nodecolor
14 /Times-Roman set_font
213.81 40.8 moveto 20.38 (Yes) alignedtext
grestore
% Wind->Terminal2
gsave
1 setlinewidth
0 0 0 edgecolor
newpath 232.99 150.96 moveto
229.8 144.04 226.59 135.83 224.94 128 curveto
221.54 111.81 221.03 93.43 221.49 78.17 curveto
stroke
0 0 0 edgecolor
newpath 224.99 78.33 moveto
221.94 68.18 lineto
217.99 78.01 lineto
closepath fill
1 setlinewidth
solid
0 0 0 edgecolor
newpath 224.99 78.33 moveto
221.94 68.18 lineto
217.99 78.01 lineto
closepath stroke
0 0 0 edgecolor
14 /Times-Roman set_font
234.77 116.8 moveto 31.53 (Weak) alignedtext
0 0 0 edgecolor
14 /Times-Roman set_font
225 102.8 moveto 51.06 (S:[3+,0-]) alignedtext
0 0 0 edgecolor
14 /Times-Roman set_font
235.31 88.8 moveto 30.45 (E = 0) alignedtext
grestore
% Terminal3
gsave
1 setlinewidth
0 0 0 nodecolor
298 45 20.37 20.83 ellipse_path stroke
0 0 0 nodecolor
14 /Times-Roman set_font
289.44 40.8 moveto 17.11 (No) alignedtext
grestore
% Wind->Terminal3
gsave
1 setlinewidth
0 0 0 edgecolor
newpath 259.42 150.93 moveto
265.4 144.25 271.68 136.23 276 128 curveto
284.54 111.73 289.98 91.85 293.31 75.75 curveto
stroke
0 0 0 edgecolor
newpath 296.78 76.26 moveto
295.21 65.78 lineto
289.9 74.95 lineto
closepath fill
1 setlinewidth
solid
0 0 0 edgecolor
newpath 296.78 76.26 moveto
295.21 65.78 lineto
289.9 74.95 lineto
closepath stroke
0 0 0 edgecolor
14 /Times-Roman set_font
297.86 116.8 moveto 37.34 (Strong) alignedtext
0 0 0 edgecolor
14 /Times-Roman set_font
291 102.8 moveto 51.06 (S:[0+,2-]) alignedtext
0 0 0 edgecolor
14 /Times-Roman set_font
301.31 88.8 moveto 30.45 (E = 0) alignedtext
grestore
endpage
showpage
grestore
%%PageTrailer
%%EndPage: 1
%%Trailer
end
restore
%%EOF
