%!PS-Adobe-3.0 EPSF-3.0
%%Creator: graphviz version 2.36.0 (20140111.2315)
%%Title: decision
%%Pages: 1
%%BoundingBox: 36 36 314 360
%%EndComments
save
%%BeginProlog
/DotDict 200 dict def
DotDict begin

/setupLatin1 {
mark
/EncodingVector 256 array def
 EncodingVector 0

ISOLatin1Encoding 0 255 getinterval putinterval
EncodingVector 45 /hyphen put

% Set up ISO Latin 1 character encoding
/starnetISO {
        dup dup findfont dup length dict begin
        { 1 index /FID ne { def }{ pop pop } ifelse
        } forall
        /Encoding EncodingVector def
        currentdict end definefont
} def
/Times-Roman starnetISO def
/Times-Italic starnetISO def
/Times-Bold starnetISO def
/Times-BoldItalic starnetISO def
/Helvetica starnetISO def
/Helvetica-Oblique starnetISO def
/Helvetica-Bold starnetISO def
/Helvetica-BoldOblique starnetISO def
/Courier starnetISO def
/Courier-Oblique starnetISO def
/Courier-Bold starnetISO def
/Courier-BoldOblique starnetISO def
cleartomark
} bind def

%%BeginResource: procset graphviz 0 0
/coord-font-family /Times-Roman def
/default-font-family /Times-Roman def
/coordfont coord-font-family findfont 8 scalefont def

/InvScaleFactor 1.0 def
/set_scale {
       dup 1 exch div /InvScaleFactor exch def
       scale
} bind def

% styles
/solid { [] 0 setdash } bind def
/dashed { [9 InvScaleFactor mul dup ] 0 setdash } bind def
/dotted { [1 InvScaleFactor mul 6 InvScaleFactor mul] 0 setdash } bind def
/invis {/fill {newpath} def /stroke {newpath} def /show {pop newpath} def} bind def
/bold { 2 setlinewidth } bind def
/filled { } bind def
/unfilled { } bind def
/rounded { } bind def
/diagonals { } bind def
/tapered { } bind def

% hooks for setting color 
/nodecolor { sethsbcolor } bind def
/edgecolor { sethsbcolor } bind def
/graphcolor { sethsbcolor } bind def
/nopcolor {pop pop pop} bind def

/beginpage {	% i j npages
	/npages exch def
	/j exch def
	/i exch def
	/str 10 string def
	npages 1 gt {
		gsave
			coordfont setfont
			0 0 moveto
			(\() show i str cvs show (,) show j str cvs show (\)) show
		grestore
	} if
} bind def

/set_font {
	findfont exch
	scalefont setfont
} def

% draw text fitted to its expected width
/alignedtext {			% width text
	/text exch def
	/width exch def
	gsave
		width 0 gt {
			[] 0 setdash
			text stringwidth pop width exch sub text length div 0 text ashow
		} if
	grestore
} def

/boxprim {				% xcorner ycorner xsize ysize
		4 2 roll
		moveto
		2 copy
		exch 0 rlineto
		0 exch rlineto
		pop neg 0 rlineto
		closepath
} bind def

/ellipse_path {
	/ry exch def
	/rx exch def
	/y exch def
	/x exch def
	matrix currentmatrix
	newpath
	x y translate
	rx ry scale
	0 0 1 0 360 arc
	setmatrix
} bind def

/endpage { showpage } bind def
/showpage { } def

/layercolorseq
	[	% layer color sequence - darkest to lightest
		[0 0 0]
		[.2 .8 .8]
		[.4 .8 .8]
		[.6 .8 .8]
		[.8 .8 .8]
	]
def

/layerlen layercolorseq length def

/setlayer {/maxlayer exch def /curlayer exch def
	layercolorseq curlayer 1 sub layerlen mod get
	aload pop sethsbcolor
	/nodecolor {nopcolor} def
	/edgecolor {nopcolor} def
	/graphcolor {nopcolor} def
} bind def

/onlayer { curlayer ne {invis} if } def

/onlayers {
	/myupper exch def
	/mylower exch def
	curlayer mylower lt
	curlayer myupper gt
	or
	{invis} if
} def

/curlayer 0 def

%%EndResource
%%EndProlog
%%BeginSetup
14 default-font-family set_font
1 setmiterlimit
% /arrowlength 10 def
% /arrowwidth 5 def

% make sure pdfmark is harmless for PS-interpreters other than Distiller
/pdfmark where {pop} {userdict /pdfmark /cleartomark load put} ifelse
% make '<<' and '>>' safe on PS Level 1 devices
/languagelevel where {pop languagelevel}{1} ifelse
2 lt {
    userdict (<<) cvn ([) cvn load put
    userdict (>>) cvn ([) cvn load put
} if

%%EndSetup
setupLatin1
%%Page: 1 1
%%PageBoundingBox: 36 36 314 360
%%PageOrientation: Portrait
0 0 1 beginpage
gsave
36 36 278 324 boxprim clip newpath
1 1 set_scale 0 rotate 40 40 translate
0 0 0 graphcolor
14 /Times-Roman set_font
30.5 6.8 moveto 209 (Decision tree for:  \(A ^ B\) V \( C ^ D\)) alignedtext
% A
gsave
1 setlinewidth
0 0 0 nodecolor
138 298 27 18 ellipse_path stroke
0 0 0 nodecolor
14 /Times-Roman set_font
132.94 293.8 moveto 10.11 (A) alignedtext
grestore
% B
gsave
1 setlinewidth
0 0 0 nodecolor
99 212 27 18 ellipse_path stroke
0 0 0 nodecolor
14 /Times-Roman set_font
94.33 207.8 moveto 9.34 (B) alignedtext
grestore
% A->B
gsave
1 setlinewidth
0 0 0 edgecolor
newpath 130.29 280.4 moveto
124.79 268.55 117.28 252.38 111 238.85 curveto
stroke
0 0 0 edgecolor
newpath 114.07 237.16 moveto
106.69 229.56 lineto
107.73 240.11 lineto
closepath fill
1 setlinewidth
solid
0 0 0 edgecolor
newpath 114.07 237.16 moveto
106.69 229.56 lineto
107.73 240.11 lineto
closepath stroke
0 0 0 edgecolor
14 /Times-Roman set_font
121 250.8 moveto 21.77 (true) alignedtext
grestore
% C
gsave
1 setlinewidth
0 0 0 nodecolor
171 212 27 18 ellipse_path stroke
0 0 0 nodecolor
14 /Times-Roman set_font
166.33 207.8 moveto 9.34 (C) alignedtext
grestore
% A->C
gsave
1 setlinewidth
0 0 0 edgecolor
newpath 144.52 280.4 moveto
149.13 268.67 155.41 252.7 160.69 239.24 curveto
stroke
0 0 0 edgecolor
newpath 164.09 240.15 moveto
164.49 229.56 lineto
157.58 237.59 lineto
closepath fill
1 setlinewidth
solid
0 0 0 edgecolor
newpath 164.09 240.15 moveto
164.49 229.56 lineto
157.58 237.59 lineto
closepath stroke
0 0 0 edgecolor
14 /Times-Roman set_font
157 250.8 moveto 26.43 (false) alignedtext
grestore
% B1
gsave
1 setlinewidth
0 0 0 nodecolor
27 126 27 18 ellipse_path stroke
0 0 0 nodecolor
14 /Times-Roman set_font
23.5 121.8 moveto 7 (1) alignedtext
grestore
% B->B1
gsave
1 setlinewidth
0 0 0 edgecolor
newpath 86.13 195.98 moveto
75.07 183.08 58.96 164.29 46.35 149.58 curveto
stroke
0 0 0 edgecolor
newpath 48.93 147.2 moveto
39.76 141.89 lineto
43.61 151.76 lineto
closepath fill
1 setlinewidth
solid
0 0 0 edgecolor
newpath 48.93 147.2 moveto
39.76 141.89 lineto
43.61 151.76 lineto
closepath stroke
0 0 0 edgecolor
14 /Times-Roman set_font
68 164.8 moveto 21.77 (true) alignedtext
grestore
% B2
gsave
1 setlinewidth
0 0 0 nodecolor
99 126 27 18 ellipse_path stroke
0 0 0 nodecolor
14 /Times-Roman set_font
95.5 121.8 moveto 7 (0) alignedtext
grestore
% B->B2
gsave
1 setlinewidth
0 0 0 edgecolor
newpath 99 193.6 moveto
99 182.26 99 167.23 99 154.32 curveto
stroke
0 0 0 edgecolor
newpath 102.5 154.1 moveto
99 144.1 lineto
95.5 154.1 lineto
closepath fill
1 setlinewidth
solid
0 0 0 edgecolor
newpath 102.5 154.1 moveto
99 144.1 lineto
95.5 154.1 lineto
closepath stroke
0 0 0 edgecolor
14 /Times-Roman set_font
99 164.8 moveto 26.43 (false) alignedtext
grestore
% D
gsave
1 setlinewidth
0 0 0 nodecolor
171 126 27 18 ellipse_path stroke
0 0 0 nodecolor
14 /Times-Roman set_font
165.94 121.8 moveto 10.11 (D) alignedtext
grestore
% C->D
gsave
1 setlinewidth
0 0 0 edgecolor
newpath 171 193.6 moveto
171 182.26 171 167.23 171 154.32 curveto
stroke
0 0 0 edgecolor
newpath 174.5 154.1 moveto
171 144.1 lineto
167.5 154.1 lineto
closepath fill
1 setlinewidth
solid
0 0 0 edgecolor
newpath 174.5 154.1 moveto
171 144.1 lineto
167.5 154.1 lineto
closepath stroke
0 0 0 edgecolor
14 /Times-Roman set_font
171 164.8 moveto 21.77 (true) alignedtext
grestore
% C0
gsave
1 setlinewidth
0 0 0 nodecolor
243 126 27 18 ellipse_path stroke
0 0 0 nodecolor
14 /Times-Roman set_font
239.5 121.8 moveto 7 (0) alignedtext
grestore
% C->C0
gsave
1 setlinewidth
0 0 0 edgecolor
newpath 183.87 195.98 moveto
194.93 183.08 211.04 164.29 223.65 149.58 curveto
stroke
0 0 0 edgecolor
newpath 226.39 151.76 moveto
230.24 141.89 lineto
221.07 147.2 lineto
closepath fill
1 setlinewidth
solid
0 0 0 edgecolor
newpath 226.39 151.76 moveto
230.24 141.89 lineto
221.07 147.2 lineto
closepath stroke
0 0 0 edgecolor
14 /Times-Roman set_font
212 164.8 moveto 26.43 (false) alignedtext
grestore
% D1
gsave
1 setlinewidth
0 0 0 nodecolor
135 40 27 18 ellipse_path stroke
0 0 0 nodecolor
14 /Times-Roman set_font
131.5 35.8 moveto 7 (1) alignedtext
grestore
% D->D1
gsave
1 setlinewidth
0 0 0 edgecolor
newpath 163.89 108.4 moveto
158.81 96.55 151.88 80.38 146.08 66.85 curveto
stroke
0 0 0 edgecolor
newpath 149.25 65.37 moveto
142.1 57.56 lineto
142.82 68.13 lineto
closepath fill
1 setlinewidth
solid
0 0 0 edgecolor
newpath 149.25 65.37 moveto
142.1 57.56 lineto
142.82 68.13 lineto
closepath stroke
0 0 0 edgecolor
14 /Times-Roman set_font
156 78.8 moveto 21.77 (true) alignedtext
grestore
% D2
gsave
1 setlinewidth
0 0 0 nodecolor
207 40 27 18 ellipse_path stroke
0 0 0 nodecolor
14 /Times-Roman set_font
203.5 35.8 moveto 7 (0) alignedtext
grestore
% D->D2
gsave
1 setlinewidth
0 0 0 edgecolor
newpath 178.11 108.4 moveto
183.19 96.55 190.12 80.38 195.92 66.85 curveto
stroke
0 0 0 edgecolor
newpath 199.18 68.13 moveto
199.9 57.56 lineto
192.75 65.37 lineto
closepath fill
1 setlinewidth
solid
0 0 0 edgecolor
newpath 199.18 68.13 moveto
199.9 57.56 lineto
192.75 65.37 lineto
closepath stroke
0 0 0 edgecolor
14 /Times-Roman set_font
192 78.8 moveto 26.43 (false) alignedtext
grestore
endpage
showpage
grestore
%%PageTrailer
%%EndPage: 1
%%Trailer
end
restore
%%EOF
