%!PS-Adobe-3.0 EPSF-3.0
%%Creator: graphviz version 2.36.0 (20140111.2315)
%%Title: decision
%%Pages: 1
%%BoundingBox: 36 36 314 274
%%EndComments
save
%%BeginProlog
/DotDict 200 dict def
DotDict begin

/setupLatin1 {
mark
/EncodingVector 256 array def
 EncodingVector 0

ISOLatin1Encoding 0 255 getinterval putinterval
EncodingVector 45 /hyphen put

% Set up ISO Latin 1 character encoding
/starnetISO {
        dup dup findfont dup length dict begin
        { 1 index /FID ne { def }{ pop pop } ifelse
        } forall
        /Encoding EncodingVector def
        currentdict end definefont
} def
/Times-Roman starnetISO def
/Times-Italic starnetISO def
/Times-Bold starnetISO def
/Times-BoldItalic starnetISO def
/Helvetica starnetISO def
/Helvetica-Oblique starnetISO def
/Helvetica-Bold starnetISO def
/Helvetica-BoldOblique starnetISO def
/Courier starnetISO def
/Courier-Oblique starnetISO def
/Courier-Bold starnetISO def
/Courier-BoldOblique starnetISO def
cleartomark
} bind def

%%BeginResource: procset graphviz 0 0
/coord-font-family /Times-Roman def
/default-font-family /Times-Roman def
/coordfont coord-font-family findfont 8 scalefont def

/InvScaleFactor 1.0 def
/set_scale {
       dup 1 exch div /InvScaleFactor exch def
       scale
} bind def

% styles
/solid { [] 0 setdash } bind def
/dashed { [9 InvScaleFactor mul dup ] 0 setdash } bind def
/dotted { [1 InvScaleFactor mul 6 InvScaleFactor mul] 0 setdash } bind def
/invis {/fill {newpath} def /stroke {newpath} def /show {pop newpath} def} bind def
/bold { 2 setlinewidth } bind def
/filled { } bind def
/unfilled { } bind def
/rounded { } bind def
/diagonals { } bind def
/tapered { } bind def

% hooks for setting color 
/nodecolor { sethsbcolor } bind def
/edgecolor { sethsbcolor } bind def
/graphcolor { sethsbcolor } bind def
/nopcolor {pop pop pop} bind def

/beginpage {	% i j npages
	/npages exch def
	/j exch def
	/i exch def
	/str 10 string def
	npages 1 gt {
		gsave
			coordfont setfont
			0 0 moveto
			(\() show i str cvs show (,) show j str cvs show (\)) show
		grestore
	} if
} bind def

/set_font {
	findfont exch
	scalefont setfont
} def

% draw text fitted to its expected width
/alignedtext {			% width text
	/text exch def
	/width exch def
	gsave
		width 0 gt {
			[] 0 setdash
			text stringwidth pop width exch sub text length div 0 text ashow
		} if
	grestore
} def

/boxprim {				% xcorner ycorner xsize ysize
		4 2 roll
		moveto
		2 copy
		exch 0 rlineto
		0 exch rlineto
		pop neg 0 rlineto
		closepath
} bind def

/ellipse_path {
	/ry exch def
	/rx exch def
	/y exch def
	/x exch def
	matrix currentmatrix
	newpath
	x y translate
	rx ry scale
	0 0 1 0 360 arc
	setmatrix
} bind def

/endpage { showpage } bind def
/showpage { } def

/layercolorseq
	[	% layer color sequence - darkest to lightest
		[0 0 0]
		[.2 .8 .8]
		[.4 .8 .8]
		[.6 .8 .8]
		[.8 .8 .8]
	]
def

/layerlen layercolorseq length def

/setlayer {/maxlayer exch def /curlayer exch def
	layercolorseq curlayer 1 sub layerlen mod get
	aload pop sethsbcolor
	/nodecolor {nopcolor} def
	/edgecolor {nopcolor} def
	/graphcolor {nopcolor} def
} bind def

/onlayer { curlayer ne {invis} if } def

/onlayers {
	/myupper exch def
	/mylower exch def
	curlayer mylower lt
	curlayer myupper gt
	or
	{invis} if
} def

/curlayer 0 def

%%EndResource
%%EndProlog
%%BeginSetup
14 default-font-family set_font
1 setmiterlimit
% /arrowlength 10 def
% /arrowwidth 5 def

% make sure pdfmark is harmless for PS-interpreters other than Distiller
/pdfmark where {pop} {userdict /pdfmark /cleartomark load put} ifelse
% make '<<' and '>>' safe on PS Level 1 devices
/languagelevel where {pop languagelevel}{1} ifelse
2 lt {
    userdict (<<) cvn ([) cvn load put
    userdict (>>) cvn ([) cvn load put
} if

%%EndSetup
setupLatin1
%%Page: 1 1
%%PageBoundingBox: 36 36 314 274
%%PageOrientation: Portrait
0 0 1 beginpage
gsave
36 36 278 238 boxprim clip newpath
1 1 set_scale 0 rotate 40 40 translate
0 0 0 graphcolor
14 /Times-Roman set_font
55.28 6.8 moveto 159.43 (Decision tree for:  A XOR B) alignedtext
% A
gsave
1 setlinewidth
0 0 0 nodecolor
138 212 27 18 ellipse_path stroke
0 0 0 nodecolor
14 /Times-Roman set_font
132.94 207.8 moveto 10.11 (A) alignedtext
grestore
% AB1
gsave
1 setlinewidth
0 0 0 nodecolor
99 126 27 18 ellipse_path stroke
0 0 0 nodecolor
14 /Times-Roman set_font
94.33 121.8 moveto 9.34 (B) alignedtext
grestore
% A->AB1
gsave
1 setlinewidth
0 0 0 edgecolor
newpath 130.29 194.4 moveto
124.79 182.55 117.28 166.38 111 152.85 curveto
stroke
0 0 0 edgecolor
newpath 114.07 151.16 moveto
106.69 143.56 lineto
107.73 154.11 lineto
closepath fill
1 setlinewidth
solid
0 0 0 edgecolor
newpath 114.07 151.16 moveto
106.69 143.56 lineto
107.73 154.11 lineto
closepath stroke
0 0 0 edgecolor
14 /Times-Roman set_font
121 164.8 moveto 21.77 (true) alignedtext
grestore
% AB2
gsave
1 setlinewidth
0 0 0 nodecolor
171 126 27 18 ellipse_path stroke
0 0 0 nodecolor
14 /Times-Roman set_font
166.33 121.8 moveto 9.34 (B) alignedtext
grestore
% A->AB2
gsave
1 setlinewidth
0 0 0 edgecolor
newpath 144.52 194.4 moveto
149.13 182.67 155.41 166.7 160.69 153.24 curveto
stroke
0 0 0 edgecolor
newpath 164.09 154.15 moveto
164.49 143.56 lineto
157.58 151.59 lineto
closepath fill
1 setlinewidth
solid
0 0 0 edgecolor
newpath 164.09 154.15 moveto
164.49 143.56 lineto
157.58 151.59 lineto
closepath stroke
0 0 0 edgecolor
14 /Times-Roman set_font
157 164.8 moveto 26.43 (false) alignedtext
grestore
% AB11
gsave
1 setlinewidth
0 0 0 nodecolor
27 40 27 18 ellipse_path stroke
0 0 0 nodecolor
14 /Times-Roman set_font
23.5 35.8 moveto 7 (0) alignedtext
grestore
% AB1->AB11
gsave
1 setlinewidth
0 0 0 edgecolor
newpath 86.13 109.98 moveto
75.07 97.08 58.96 78.29 46.35 63.58 curveto
stroke
0 0 0 edgecolor
newpath 48.93 61.2 moveto
39.76 55.89 lineto
43.61 65.76 lineto
closepath fill
1 setlinewidth
solid
0 0 0 edgecolor
newpath 48.93 61.2 moveto
39.76 55.89 lineto
43.61 65.76 lineto
closepath stroke
0 0 0 edgecolor
14 /Times-Roman set_font
68 78.8 moveto 21.77 (true) alignedtext
grestore
% AB12
gsave
1 setlinewidth
0 0 0 nodecolor
99 40 27 18 ellipse_path stroke
0 0 0 nodecolor
14 /Times-Roman set_font
95.5 35.8 moveto 7 (1) alignedtext
grestore
% AB1->AB12
gsave
1 setlinewidth
0 0 0 edgecolor
newpath 99 107.6 moveto
99 96.26 99 81.23 99 68.32 curveto
stroke
0 0 0 edgecolor
newpath 102.5 68.1 moveto
99 58.1 lineto
95.5 68.1 lineto
closepath fill
1 setlinewidth
solid
0 0 0 edgecolor
newpath 102.5 68.1 moveto
99 58.1 lineto
95.5 68.1 lineto
closepath stroke
0 0 0 edgecolor
14 /Times-Roman set_font
99 78.8 moveto 26.43 (false) alignedtext
grestore
% AB21
gsave
1 setlinewidth
0 0 0 nodecolor
171 40 27 18 ellipse_path stroke
0 0 0 nodecolor
14 /Times-Roman set_font
167.5 35.8 moveto 7 (1) alignedtext
grestore
% AB2->AB21
gsave
1 setlinewidth
0 0 0 edgecolor
newpath 171 107.6 moveto
171 96.26 171 81.23 171 68.32 curveto
stroke
0 0 0 edgecolor
newpath 174.5 68.1 moveto
171 58.1 lineto
167.5 68.1 lineto
closepath fill
1 setlinewidth
solid
0 0 0 edgecolor
newpath 174.5 68.1 moveto
171 58.1 lineto
167.5 68.1 lineto
closepath stroke
0 0 0 edgecolor
14 /Times-Roman set_font
171 78.8 moveto 21.77 (true) alignedtext
grestore
% AB22
gsave
1 setlinewidth
0 0 0 nodecolor
243 40 27 18 ellipse_path stroke
0 0 0 nodecolor
14 /Times-Roman set_font
239.5 35.8 moveto 7 (0) alignedtext
grestore
% AB2->AB22
gsave
1 setlinewidth
0 0 0 edgecolor
newpath 183.87 109.98 moveto
194.93 97.08 211.04 78.29 223.65 63.58 curveto
stroke
0 0 0 edgecolor
newpath 226.39 65.76 moveto
230.24 55.89 lineto
221.07 61.2 lineto
closepath fill
1 setlinewidth
solid
0 0 0 edgecolor
newpath 226.39 65.76 moveto
230.24 55.89 lineto
221.07 61.2 lineto
closepath stroke
0 0 0 edgecolor
14 /Times-Roman set_font
212 78.8 moveto 26.43 (false) alignedtext
grestore
endpage
showpage
grestore
%%PageTrailer
%%EndPage: 1
%%Trailer
end
restore
%%EOF
