%!PS-Adobe-3.0 EPSF-3.0
%%Creator: (MATLAB, The Mathworks, Inc. Version 9.2.0.538062 \(R2017a\). Operating System: Mac OS X)
%%Title: /Users/roscoecasita/Desktop/School/W17/uoregon-cis572/Presentation/DataGraph.eps
%%CreationDate: 2017-03-20T09:55:34
%%Pages: (atend)
%%BoundingBox: 0 0 560 420
%%LanguageLevel: 3
%%EndComments
%%BeginProlog
%%BeginResource: procset (Apache XML Graphics Std ProcSet) 1.2 0
%%Version: 1.2 0
%%Copyright: (Copyright 2001-2003,2010 The Apache Software Foundation. License terms: http://www.apache.org/licenses/LICENSE-2.0)
/bd{bind def}bind def
/ld{load def}bd
/GR/grestore ld
/M/moveto ld
/LJ/setlinejoin ld
/C/curveto ld
/f/fill ld
/LW/setlinewidth ld
/GC/setgray ld
/t/show ld
/N/newpath ld
/CT/concat ld
/cp/closepath ld
/S/stroke ld
/L/lineto ld
/CC/setcmykcolor ld
/A/ashow ld
/GS/gsave ld
/RC/setrgbcolor ld
/RM/rmoveto ld
/ML/setmiterlimit ld
/re {4 2 roll M
1 index 0 rlineto
0 exch rlineto
neg 0 rlineto
cp } bd
/_ctm matrix def
/_tm matrix def
/BT { _ctm currentmatrix pop matrix _tm copy pop 0 0 moveto } bd
/ET { _ctm setmatrix } bd
/iTm { _ctm setmatrix _tm concat } bd
/Tm { _tm astore pop iTm 0 0 moveto } bd
/ux 0.0 def
/uy 0.0 def
/F {
  /Tp exch def
  /Tf exch def
  Tf findfont Tp scalefont setfont
  /cf Tf def  /cs Tp def
} bd
/ULS {currentpoint /uy exch def /ux exch def} bd
/ULE {
  /Tcx currentpoint pop def
  gsave
  newpath
  cf findfont cs scalefont dup
  /FontMatrix get 0 get /Ts exch def /FontInfo get dup
  /UnderlinePosition get Ts mul /To exch def
  /UnderlineThickness get Ts mul /Tt exch def
  ux uy To add moveto  Tcx uy To add lineto
  Tt setlinewidth stroke
  grestore
} bd
/OLE {
  /Tcx currentpoint pop def
  gsave
  newpath
  cf findfont cs scalefont dup
  /FontMatrix get 0 get /Ts exch def /FontInfo get dup
  /UnderlinePosition get Ts mul /To exch def
  /UnderlineThickness get Ts mul /Tt exch def
  ux uy To add cs add moveto Tcx uy To add cs add lineto
  Tt setlinewidth stroke
  grestore
} bd
/SOE {
  /Tcx currentpoint pop def
  gsave
  newpath
  cf findfont cs scalefont dup
  /FontMatrix get 0 get /Ts exch def /FontInfo get dup
  /UnderlinePosition get Ts mul /To exch def
  /UnderlineThickness get Ts mul /Tt exch def
  ux uy To add cs 10 mul 26 idiv add moveto Tcx uy To add cs 10 mul 26 idiv add lineto
  Tt setlinewidth stroke
  grestore
} bd
/QT {
/Y22 exch store
/X22 exch store
/Y21 exch store
/X21 exch store
currentpoint
/Y21 load 2 mul add 3 div exch
/X21 load 2 mul add 3 div exch
/X21 load 2 mul /X22 load add 3 div
/Y21 load 2 mul /Y22 load add 3 div
/X22 load /Y22 load curveto
} bd
/SSPD {
dup length /d exch dict def
{
/v exch def
/k exch def
currentpagedevice k known {
/cpdv currentpagedevice k get def
v cpdv ne {
/upd false def
/nullv v type /nulltype eq def
/nullcpdv cpdv type /nulltype eq def
nullv nullcpdv or
{
/upd true def
} {
/sametype v type cpdv type eq def
sametype {
v type /arraytype eq {
/vlen v length def
/cpdvlen cpdv length def
vlen cpdvlen eq {
0 1 vlen 1 sub {
/i exch def
/obj v i get def
/cpdobj cpdv i get def
obj cpdobj ne {
/upd true def
exit
} if
} for
} {
/upd true def
} ifelse
} {
v type /dicttype eq {
v {
/dv exch def
/dk exch def
/cpddv cpdv dk get def
dv cpddv ne {
/upd true def
exit
} if
} forall
} {
/upd true def
} ifelse
} ifelse
} if
} ifelse
upd true eq {
d k v put
} if
} if
} if
} forall
d length 0 gt {
d setpagedevice
} if
} bd
/RE { % /NewFontName [NewEncodingArray] /FontName RE -
  findfont dup length dict begin
  {
    1 index /FID ne
    {def} {pop pop} ifelse
  } forall
  /Encoding exch def
  /FontName 1 index def
  currentdict definefont pop
  end
} bind def
%%EndResource
%%BeginResource: procset (Apache XML Graphics EPS ProcSet) 1.0 0
%%Version: 1.0 0
%%Copyright: (Copyright 2002-2003 The Apache Software Foundation. License terms: http://www.apache.org/licenses/LICENSE-2.0)
/BeginEPSF { %def
/b4_Inc_state save def         % Save state for cleanup
/dict_count countdictstack def % Count objects on dict stack
/op_count count 1 sub def      % Count objects on operand stack
userdict begin                 % Push userdict on dict stack
/showpage { } def              % Redefine showpage, { } = null proc
0 setgray 0 setlinecap         % Prepare graphics state
1 setlinewidth 0 setlinejoin
10 setmiterlimit [ ] 0 setdash newpath
/languagelevel where           % If level not equal to 1 then
{pop languagelevel             % set strokeadjust and
1 ne                           % overprint to their defaults.
{false setstrokeadjust false setoverprint
} if
} if
} bd
/EndEPSF { %def
count op_count sub {pop} repeat            % Clean up stacks
countdictstack dict_count sub {end} repeat
b4_Inc_state restore
} bd
%%EndResource
%FOPBeginFontDict
%%IncludeResource: font Courier-Bold
%%IncludeResource: font Helvetica
%%IncludeResource: font Courier-BoldOblique
%%IncludeResource: font Courier-Oblique
%%IncludeResource: font Times-Roman
%%IncludeResource: font Helvetica-BoldOblique
%%IncludeResource: font Helvetica-Bold
%%IncludeResource: font Helvetica-Oblique
%%IncludeResource: font Times-BoldItalic
%%IncludeResource: font Courier
%%IncludeResource: font Times-Italic
%%IncludeResource: font Times-Bold
%%IncludeResource: font Symbol
%%IncludeResource: font ZapfDingbats
%FOPEndFontDict
%%BeginResource: encoding WinAnsiEncoding
/WinAnsiEncoding [
/.notdef /.notdef /.notdef /.notdef /.notdef
/.notdef /.notdef /.notdef /.notdef /.notdef
/.notdef /.notdef /.notdef /.notdef /.notdef
/.notdef /.notdef /.notdef /.notdef /.notdef
/.notdef /.notdef /.notdef /.notdef /.notdef
/.notdef /.notdef /.notdef /.notdef /.notdef
/.notdef /.notdef /space /exclam /quotedbl
/numbersign /dollar /percent /ampersand /quotesingle
/parenleft /parenright /asterisk /plus /comma
/hyphen /period /slash /zero /one
/two /three /four /five /six
/seven /eight /nine /colon /semicolon
/less /equal /greater /question /at
/A /B /C /D /E
/F /G /H /I /J
/K /L /M /N /O
/P /Q /R /S /T
/U /V /W /X /Y
/Z /bracketleft /backslash /bracketright /asciicircum
/underscore /quoteleft /a /b /c
/d /e /f /g /h
/i /j /k /l /m
/n /o /p /q /r
/s /t /u /v /w
/x /y /z /braceleft /bar
/braceright /asciitilde /bullet /Euro /bullet
/quotesinglbase /florin /quotedblbase /ellipsis /dagger
/daggerdbl /circumflex /perthousand /Scaron /guilsinglleft
/OE /bullet /Zcaron /bullet /bullet
/quoteleft /quoteright /quotedblleft /quotedblright /bullet
/endash /emdash /asciitilde /trademark /scaron
/guilsinglright /oe /bullet /zcaron /Ydieresis
/space /exclamdown /cent /sterling /currency
/yen /brokenbar /section /dieresis /copyright
/ordfeminine /guillemotleft /logicalnot /sfthyphen /registered
/macron /degree /plusminus /twosuperior /threesuperior
/acute /mu /paragraph /middot /cedilla
/onesuperior /ordmasculine /guillemotright /onequarter /onehalf
/threequarters /questiondown /Agrave /Aacute /Acircumflex
/Atilde /Adieresis /Aring /AE /Ccedilla
/Egrave /Eacute /Ecircumflex /Edieresis /Igrave
/Iacute /Icircumflex /Idieresis /Eth /Ntilde
/Ograve /Oacute /Ocircumflex /Otilde /Odieresis
/multiply /Oslash /Ugrave /Uacute /Ucircumflex
/Udieresis /Yacute /Thorn /germandbls /agrave
/aacute /acircumflex /atilde /adieresis /aring
/ae /ccedilla /egrave /eacute /ecircumflex
/edieresis /igrave /iacute /icircumflex /idieresis
/eth /ntilde /ograve /oacute /ocircumflex
/otilde /odieresis /divide /oslash /ugrave
/uacute /ucircumflex /udieresis /yacute /thorn
/ydieresis
] def
%%EndResource
%FOPBeginFontReencode
/Courier-Bold findfont
dup length dict begin
  {1 index /FID ne {def} {pop pop} ifelse} forall
  /Encoding WinAnsiEncoding def
  currentdict
end
/Courier-Bold exch definefont pop
/Helvetica findfont
dup length dict begin
  {1 index /FID ne {def} {pop pop} ifelse} forall
  /Encoding WinAnsiEncoding def
  currentdict
end
/Helvetica exch definefont pop
/Courier-BoldOblique findfont
dup length dict begin
  {1 index /FID ne {def} {pop pop} ifelse} forall
  /Encoding WinAnsiEncoding def
  currentdict
end
/Courier-BoldOblique exch definefont pop
/Courier-Oblique findfont
dup length dict begin
  {1 index /FID ne {def} {pop pop} ifelse} forall
  /Encoding WinAnsiEncoding def
  currentdict
end
/Courier-Oblique exch definefont pop
/Times-Roman findfont
dup length dict begin
  {1 index /FID ne {def} {pop pop} ifelse} forall
  /Encoding WinAnsiEncoding def
  currentdict
end
/Times-Roman exch definefont pop
/Helvetica-BoldOblique findfont
dup length dict begin
  {1 index /FID ne {def} {pop pop} ifelse} forall
  /Encoding WinAnsiEncoding def
  currentdict
end
/Helvetica-BoldOblique exch definefont pop
/Helvetica-Bold findfont
dup length dict begin
  {1 index /FID ne {def} {pop pop} ifelse} forall
  /Encoding WinAnsiEncoding def
  currentdict
end
/Helvetica-Bold exch definefont pop
/Helvetica-Oblique findfont
dup length dict begin
  {1 index /FID ne {def} {pop pop} ifelse} forall
  /Encoding WinAnsiEncoding def
  currentdict
end
/Helvetica-Oblique exch definefont pop
/Times-BoldItalic findfont
dup length dict begin
  {1 index /FID ne {def} {pop pop} ifelse} forall
  /Encoding WinAnsiEncoding def
  currentdict
end
/Times-BoldItalic exch definefont pop
/Courier findfont
dup length dict begin
  {1 index /FID ne {def} {pop pop} ifelse} forall
  /Encoding WinAnsiEncoding def
  currentdict
end
/Courier exch definefont pop
/Times-Italic findfont
dup length dict begin
  {1 index /FID ne {def} {pop pop} ifelse} forall
  /Encoding WinAnsiEncoding def
  currentdict
end
/Times-Italic exch definefont pop
/Times-Bold findfont
dup length dict begin
  {1 index /FID ne {def} {pop pop} ifelse} forall
  /Encoding WinAnsiEncoding def
  currentdict
end
/Times-Bold exch definefont pop
%FOPEndFontReencode
%%EndProlog
%%Page: 1 1
%%PageBoundingBox: 0 0 560 420
%%BeginPageSetup
[1 0 0 -1 0 420] CT
%%EndPageSetup
GS
1 GC
N
0 0 560 420 re
f
GR
GS
1 GC
N
0 0 560 420 re
f
GR
GS
1 GC
N
73 374 M
507 374 L
507 31.5 L
73 31.5 L
cp
f
GR
GS
0.149 GC
2 setlinecap
1 LJ
0.5 LW
N
73 374 M
507 374 L
S
GR
GS
0.149 GC
2 setlinecap
1 LJ
0.5 LW
N
73 31.5 M
507 31.5 L
S
GR
GS
0.149 GC
2 setlinecap
1 LJ
0.5 LW
N
73 374 M
73 369.66 L
S
GR
GS
0.149 GC
2 setlinecap
1 LJ
0.5 LW
N
159.8 374 M
159.8 369.66 L
S
GR
GS
0.149 GC
2 setlinecap
1 LJ
0.5 LW
N
246.6 374 M
246.6 369.66 L
S
GR
GS
0.149 GC
2 setlinecap
1 LJ
0.5 LW
N
333.4 374 M
333.4 369.66 L
S
GR
GS
0.149 GC
2 setlinecap
1 LJ
0.5 LW
N
420.2 374 M
420.2 369.66 L
S
GR
GS
0.149 GC
2 setlinecap
1 LJ
0.5 LW
N
507 374 M
507 369.66 L
S
GR
GS
0.149 GC
2 setlinecap
1 LJ
0.5 LW
N
73 31.5 M
73 35.84 L
S
GR
GS
0.149 GC
2 setlinecap
1 LJ
0.5 LW
N
159.8 31.5 M
159.8 35.84 L
S
GR
GS
0.149 GC
2 setlinecap
1 LJ
0.5 LW
N
246.6 31.5 M
246.6 35.84 L
S
GR
GS
0.149 GC
2 setlinecap
1 LJ
0.5 LW
N
333.4 31.5 M
333.4 35.84 L
S
GR
GS
0.149 GC
2 setlinecap
1 LJ
0.5 LW
N
420.2 31.5 M
420.2 35.84 L
S
GR
GS
0.149 GC
2 setlinecap
1 LJ
0.5 LW
N
507 31.5 M
507 35.84 L
S
GR
GS
[1 0 0 1 73 378] CT
0.149 GC
/Helvetica 10 F
GS
[1 0 0 1 0 0] CT
-3 10 moveto 
1 -1 scale
(0) t 
GR
GR
GS
[1 0 0 1 159.8 378] CT
0.149 GC
/Helvetica 10 F
GS
[1 0 0 1 0 0] CT
-6 10 moveto 
1 -1 scale
(50) t 
GR
GR
GS
[1 0 0 1 246.60001 378] CT
0.149 GC
/Helvetica 10 F
GS
[1 0 0 1 0 0] CT
-8.5 10 moveto 
1 -1 scale
(100) t 
GR
GR
GS
[1 0 0 1 333.39999 378] CT
0.149 GC
/Helvetica 10 F
GS
[1 0 0 1 0 0] CT
-8.5 10 moveto 
1 -1 scale
(150) t 
GR
GR
GS
[1 0 0 1 420.20001 378] CT
0.149 GC
/Helvetica 10 F
GS
[1 0 0 1 0 0] CT
-8.5 10 moveto 
1 -1 scale
(200) t 
GR
GR
GS
[1 0 0 1 507 378] CT
0.149 GC
/Helvetica 10 F
GS
[1 0 0 1 0 0] CT
-8.5 10 moveto 
1 -1 scale
(250) t 
GR
GR
GS
[1 0 0 1 290.00021 391.49994] CT
0.149 GC
/Helvetica 11 F
GS
[1 0 0 1 0 0] CT
-88.5 11 moveto 
1 -1 scale
(Number of Prediction Forests Used.) t 
GR
GR
GS
0.149 GC
2 setlinecap
1 LJ
0.5 LW
N
73 374 M
73 31.5 L
S
GR
GS
0.149 GC
2 setlinecap
1 LJ
0.5 LW
N
507 374 M
507 31.5 L
S
GR
GS
0.149 GC
2 setlinecap
1 LJ
0.5 LW
N
73 374 M
77.34 374 L
S
GR
GS
0.149 GC
2 setlinecap
1 LJ
0.5 LW
N
73 305.5 M
77.34 305.5 L
S
GR
GS
0.149 GC
2 setlinecap
1 LJ
0.5 LW
N
73 237 M
77.34 237 L
S
GR
GS
0.149 GC
2 setlinecap
1 LJ
0.5 LW
N
73 168.5 M
77.34 168.5 L
S
GR
GS
0.149 GC
2 setlinecap
1 LJ
0.5 LW
N
73 100 M
77.34 100 L
S
GR
GS
0.149 GC
2 setlinecap
1 LJ
0.5 LW
N
73 31.5 M
77.34 31.5 L
S
GR
GS
0.149 GC
2 setlinecap
1 LJ
0.5 LW
N
507 374 M
502.66 374 L
S
GR
GS
0.149 GC
2 setlinecap
1 LJ
0.5 LW
N
507 305.5 M
502.66 305.5 L
S
GR
GS
0.149 GC
2 setlinecap
1 LJ
0.5 LW
N
507 237 M
502.66 237 L
S
GR
GS
0.149 GC
2 setlinecap
1 LJ
0.5 LW
N
507 168.5 M
502.66 168.5 L
S
GR
GS
0.149 GC
2 setlinecap
1 LJ
0.5 LW
N
507 100 M
502.66 100 L
S
GR
GS
0.149 GC
2 setlinecap
1 LJ
0.5 LW
N
507 31.5 M
502.66 31.5 L
S
GR
GS
[1 0 0 1 69 373.99994] CT
0.149 GC
/Helvetica 10 F
GS
[1 0 0 1 0 0] CT
-20 3.5 moveto 
1 -1 scale
(0.09) t 
GR
GR
GS
[1 0 0 1 69 305.50003] CT
0.149 GC
/Helvetica 10 F
GS
[1 0 0 1 0 0] CT
-26 3.5 moveto 
1 -1 scale
(0.095) t 
GR
GR
GS
[1 0 0 1 69 236.99998] CT
0.149 GC
/Helvetica 10 F
GS
[1 0 0 1 0 0] CT
-14 3.5 moveto 
1 -1 scale
(0.1) t 
GR
GR
GS
[1 0 0 1 69 168.50005] CT
0.149 GC
/Helvetica 10 F
GS
[1 0 0 1 0 0] CT
-26 3.5 moveto 
1 -1 scale
(0.105) t 
GR
GR
GS
[1 0 0 1 69 100.00001] CT
0.149 GC
/Helvetica 10 F
GS
[1 0 0 1 0 0] CT
-20 3.5 moveto 
1 -1 scale
(0.11) t 
GR
GR
GS
[1 0 0 1 69 31.49997] CT
0.149 GC
/Helvetica 10 F
GS
[1 0 0 1 0 0] CT
-26 3.5 moveto 
1 -1 scale
(0.115) t 
GR
GR
GS
[0 -1 1 0 40.5 202.7498] CT
0.149 GC
/Helvetica 11 F
GS
[1 0 0 1 0 0] CT
-35 -3 moveto 
1 -1 scale
(Kaggle Rating) t 
GR
GR
GS
[1 0 0 1 290.00027 30.12495] CT
/Helvetica-Bold 11 F
GS
[1 0 0 1 0 0] CT
-109 -3 moveto 
1 -1 scale
(Kaggle Rating vs Prediction Forest Count) t 
GR
GR
GS
[1 0 0 1 343.81601 300.15701] CT
0 0.447 0.741 RC
10.0 ML
N
-2.121 -2.121 M
2.121 2.121 L
-2.121 2.121 M
2.121 -2.121 L
S
GR
GS
[1 0 0 1 102.512 296.45798] CT
0 0.447 0.741 RC
10.0 ML
N
-2.121 -2.121 M
2.121 2.121 L
-2.121 2.121 M
2.121 -2.121 L
S
GR
GS
[1 0 0 1 133.75999 291.66299] CT
0 0.447 0.741 RC
10.0 ML
N
-2.121 -2.121 M
2.121 2.121 L
-2.121 2.121 M
2.121 -2.121 L
S
GR
GS
[1 0 0 1 361.17599 291.52603] CT
0 0.447 0.741 RC
10.0 ML
N
-2.121 -2.121 M
2.121 2.121 L
-2.121 2.121 M
2.121 -2.121 L
S
GR
GS
[1 0 0 1 503.52802 265.08505] CT
0 0.447 0.741 RC
10.0 ML
N
-2.121 -2.121 M
2.121 2.121 L
-2.121 2.121 M
2.121 -2.121 L
S
GR
GS
[1 0 0 1 199.728 294.677] CT
0 0.447 0.741 RC
10.0 ML
N
-2.121 -2.121 M
2.121 2.121 L
-2.121 2.121 M
2.121 -2.121 L
S
GR
GS
[1 0 0 1 420.20001 267.96198] CT
0 0.447 0.741 RC
10.0 ML
N
-2.121 -2.121 M
2.121 2.121 L
-2.121 2.121 M
2.121 -2.121 L
S
GR
GS
[1 0 0 1 434.08801 265.08505] CT
0 0.447 0.741 RC
10.0 ML
N
-2.121 -2.121 M
2.121 2.121 L
-2.121 2.121 M
2.121 -2.121 L
S
GR
GS
[1 0 0 1 494.84799 265.08505] CT
0 0.447 0.741 RC
10.0 ML
N
-2.121 -2.121 M
2.121 2.121 L
-2.121 2.121 M
2.121 -2.121 L
S
GR
GS
[1 0 0 1 147.64799 289.88205] CT
0 0.447 0.741 RC
10.0 ML
N
-2.121 -2.121 M
2.121 2.121 L
-2.121 2.121 M
2.121 -2.121 L
S
GR
GS
[1 0 0 1 362.91199 147.95] CT
0 0.447 0.741 RC
10.0 ML
N
-2.121 -2.121 M
2.121 2.121 L
-2.121 2.121 M
2.121 -2.121 L
S
GR
GS
[1 0 0 1 505.26401 167.13002] CT
0 0.447 0.741 RC
10.0 ML
N
-2.121 -2.121 M
2.121 2.121 L
-2.121 2.121 M
2.121 -2.121 L
S
GR
GS
[1 0 0 1 343.81601 317.41898] CT
0.851 0.325 0.098 RC
10.0 ML
N
2.5 -0.5 M
2.5 -2.157 1.157 -3.5 -0.5 -3.5 C
-2.157 -3.5 -3.5 -2.157 -3.5 -0.5 C
-3.5 1.157 -2.157 2.5 -0.5 2.5 C
1.157 2.5 2.5 1.157 2.5 -0.5 C
S
GR
GS
[1 0 0 1 102.512 314.54205] CT
0.851 0.325 0.098 RC
10.0 ML
N
2.5 -0.5 M
2.5 -2.157 1.157 -3.5 -0.5 -3.5 C
-2.157 -3.5 -3.5 -2.157 -3.5 -0.5 C
-3.5 1.157 -2.157 2.5 -0.5 2.5 C
1.157 2.5 2.5 1.157 2.5 -0.5 C
S
GR
GS
[1 0 0 1 133.75999 295.90994] CT
0.851 0.325 0.098 RC
10.0 ML
N
2.5 -0.5 M
2.5 -2.157 1.157 -3.5 -0.5 -3.5 C
-2.157 -3.5 -3.5 -2.157 -3.5 -0.5 C
-3.5 1.157 -2.157 2.5 -0.5 2.5 C
1.157 2.5 2.5 1.157 2.5 -0.5 C
S
GR
GS
[1 0 0 1 361.17599 291.79999] CT
0.851 0.325 0.098 RC
10.0 ML
N
2.5 -0.5 M
2.5 -2.157 1.157 -3.5 -0.5 -3.5 C
-2.157 -3.5 -3.5 -2.157 -3.5 -0.5 C
-3.5 1.157 -2.157 2.5 -0.5 2.5 C
1.157 2.5 2.5 1.157 2.5 -0.5 C
S
GR
GS
[1 0 0 1 503.52802 291.93698] CT
0.851 0.325 0.098 RC
10.0 ML
N
2.5 -0.5 M
2.5 -2.157 1.157 -3.5 -0.5 -3.5 C
-2.157 -3.5 -3.5 -2.157 -3.5 -0.5 C
-3.5 1.157 -2.157 2.5 -0.5 2.5 C
1.157 2.5 2.5 1.157 2.5 -0.5 C
S
GR
GS
[1 0 0 1 199.728 328.51605] CT
0.851 0.325 0.098 RC
10.0 ML
N
2.5 -0.5 M
2.5 -2.157 1.157 -3.5 -0.5 -3.5 C
-2.157 -3.5 -3.5 -2.157 -3.5 -0.5 C
-3.5 1.157 -2.157 2.5 -0.5 2.5 C
1.157 2.5 2.5 1.157 2.5 -0.5 C
S
GR
GS
[1 0 0 1 420.20001 327.55695] CT
0.851 0.325 0.098 RC
10.0 ML
N
2.5 -0.5 M
2.5 -2.157 1.157 -3.5 -0.5 -3.5 C
-2.157 -3.5 -3.5 -2.157 -3.5 -0.5 C
-3.5 1.157 -2.157 2.5 -0.5 2.5 C
1.157 2.5 2.5 1.157 2.5 -0.5 C
S
GR
GS
[1 0 0 1 434.08801 322.35104] CT
0.851 0.325 0.098 RC
10.0 ML
N
2.5 -0.5 M
2.5 -2.157 1.157 -3.5 -0.5 -3.5 C
-2.157 -3.5 -3.5 -2.157 -3.5 -0.5 C
-3.5 1.157 -2.157 2.5 -0.5 2.5 C
1.157 2.5 2.5 1.157 2.5 -0.5 C
S
GR
GS
[1 0 0 1 494.84799 322.48801] CT
0.851 0.325 0.098 RC
10.0 ML
N
2.5 -0.5 M
2.5 -2.157 1.157 -3.5 -0.5 -3.5 C
-2.157 -3.5 -3.5 -2.157 -3.5 -0.5 C
-3.5 1.157 -2.157 2.5 -0.5 2.5 C
1.157 2.5 2.5 1.157 2.5 -0.5 C
S
GR
GS
[1 0 0 1 147.64799 326.73495] CT
0.851 0.325 0.098 RC
10.0 ML
N
2.5 -0.5 M
2.5 -2.157 1.157 -3.5 -0.5 -3.5 C
-2.157 -3.5 -3.5 -2.157 -3.5 -0.5 C
-3.5 1.157 -2.157 2.5 -0.5 2.5 C
1.157 2.5 2.5 1.157 2.5 -0.5 C
S
GR
GS
[1 0 0 1 362.91199 41.09003] CT
0.851 0.325 0.098 RC
10.0 ML
N
2.5 -0.5 M
2.5 -2.157 1.157 -3.5 -0.5 -3.5 C
-2.157 -3.5 -3.5 -2.157 -3.5 -0.5 C
-3.5 1.157 -2.157 2.5 -0.5 2.5 C
1.157 2.5 2.5 1.157 2.5 -0.5 C
S
GR
GS
[1 0 0 1 505.26401 104.38404] CT
0.851 0.325 0.098 RC
10.0 ML
N
2.5 -0.5 M
2.5 -2.157 1.157 -3.5 -0.5 -3.5 C
-2.157 -3.5 -3.5 -2.157 -3.5 -0.5 C
-3.5 1.157 -2.157 2.5 -0.5 2.5 C
1.157 2.5 2.5 1.157 2.5 -0.5 C
S
GR
GS
1 GC
N
83 68 M
83 41.5 L
251.5 41.5 L
251.5 68 L
cp
f
GR
GS
[1 0 0 1 120 49] CT
/Helvetica 9 F
GS
[1 0 0 1 0 0] CT
0 3.5 moveto 
1 -1 scale
(No Posterior Data) t 
GR
GR
GS
[1 0 0 1 102 49] CT
0 0.447 0.741 RC
10.0 ML
N
-2.121 -2.121 M
2.121 2.121 L
-2.121 2.121 M
2.121 -2.121 L
S
GR
GS
[1 0 0 1 120 60.5] CT
/Helvetica 9 F
GS
[1 0 0 1 0 0] CT
0 3.5 moveto 
1 -1 scale
(Augmented With Posterior Data) t 
GR
GR
GS
[1 0 0 1 102 60.5] CT
0.851 0.325 0.098 RC
10.0 ML
N
2.5 -0.5 M
2.5 -2.157 1.157 -3.5 -0.5 -3.5 C
-2.157 -3.5 -3.5 -2.157 -3.5 -0.5 C
-3.5 1.157 -2.157 2.5 -0.5 2.5 C
1.157 2.5 2.5 1.157 2.5 -0.5 C
S
GR
GS
0.149 GC
10.0 ML
0.5 LW
N
83 68 M
83 41.5 L
251.5 41.5 L
251.5 68 L
cp
S
GR
%%Trailer
%%Pages: 1
%%EOF
