\relax 
\providecommand\hyper@newdestlabel[2]{}
\providecommand\HyperFirstAtBeginDocument{\AtBeginDocument}
\HyperFirstAtBeginDocument{\ifx\hyper@anchor\@undefined
\global\let\oldcontentsline\contentsline
\gdef\contentsline#1#2#3#4{\oldcontentsline{#1}{#2}{#3}}
\global\let\oldnewlabel\newlabel
\gdef\newlabel#1#2{\newlabelxx{#1}#2}
\gdef\newlabelxx#1#2#3#4#5#6{\oldnewlabel{#1}{{#2}{#3}}}
\AtEndDocument{\ifx\hyper@anchor\@undefined
\let\contentsline\oldcontentsline
\let\newlabel\oldnewlabel
\fi}
\fi}
\global\let\hyper@last\relax 
\gdef\HyperFirstAtBeginDocument#1{#1}
\providecommand\HyField@AuxAddToFields[1]{}
\providecommand\HyField@AuxAddToCoFields[2]{}
\newlabel{FirstPage}{{}{1}{}{section*.1}{}}
\@writefile{toc}{\contentsline {title}{Augmented Ensemble of AdaBoost Trees vs. Bad Cars}{1}{section*.2}}
\@writefile{toc}{\contentsline {abstract}{Abstract}{1}{section*.1}}
\@writefile{toc}{\contentsline {section}{\numberline {I}Introduction}{1}{section*.3}}
\@writefile{toc}{\contentsline {section}{\numberline {II}Background}{1}{section*.4}}
\@writefile{toc}{\contentsline {subsection}{\numberline {A}AdaBoost}{1}{section*.5}}
\@writefile{toc}{\contentsline {subsection}{\numberline {B}Posterior Distribution}{1}{section*.6}}
\@writefile{toc}{\contentsline {subsection}{\numberline {C}Ensemble Algorithms}{1}{section*.7}}
\@writefile{toc}{\contentsline {section}{\numberline {III}Methods \& Experiments}{2}{section*.8}}
\@writefile{toc}{\contentsline {subsection}{\numberline {A}Dataset}{2}{section*.9}}
\@writefile{toc}{\contentsline {subsection}{\numberline {B}Classifier Trees}{2}{section*.10}}
\@writefile{lof}{\contentsline {figure}{\numberline {1}{\ignorespaces Diagram of system without augmented predictions}}{3}{figure.1}}
\newlabel{fig:your-figure}{{1}{3}{Diagram of system without augmented predictions}{figure.1}{}}
\@writefile{toc}{\contentsline {subsection}{\numberline {C}Neural Network}{3}{section*.11}}
\@writefile{lof}{\contentsline {figure}{\numberline {2}{\ignorespaces Diagram of system with augmented predictions}}{4}{figure.2}}
\newlabel{fig:your-figure}{{2}{4}{Diagram of system with augmented predictions}{figure.2}{}}
\@writefile{toc}{\contentsline {section}{\numberline {IV}Results}{4}{section*.12}}
\@writefile{lof}{\contentsline {figure}{\numberline {3}{\ignorespaces Graph displaying the variation between the posterior distribution augmented data and the non-augmented data}}{4}{figure.3}}
\newlabel{fig:your-figure}{{3}{4}{Graph displaying the variation between the posterior distribution augmented data and the non-augmented data}{figure.3}{}}
\@writefile{toc}{\contentsline {section}{\numberline {V}Conclusion \& Future Work}{4}{section*.13}}
\bibdata{final_paperNotes}
\bibstyle{apsrev4-1}
\citation{REVTEX41Control}
\citation{apsrev41Control}
\@writefile{toc}{\contentsline {section}{\numberline {VI}references}{6}{section*.14}}
\newlabel{LastPage}{{}{6}{}{}{}}
