%!PS-Adobe-3.0 EPSF-3.0
%%Creator: graphviz version 2.36.0 (20140111.2315)
%%Title: decision
%%Pages: 1
%%BoundingBox: 36 36 690 768
%%EndComments
save
%%BeginProlog
/DotDict 200 dict def
DotDict begin

/setupLatin1 {
mark
/EncodingVector 256 array def
 EncodingVector 0

ISOLatin1Encoding 0 255 getinterval putinterval
EncodingVector 45 /hyphen put

% Set up ISO Latin 1 character encoding
/starnetISO {
        dup dup findfont dup length dict begin
        { 1 index /FID ne { def }{ pop pop } ifelse
        } forall
        /Encoding EncodingVector def
        currentdict end definefont
} def
/Times-Roman starnetISO def
/Times-Italic starnetISO def
/Times-Bold starnetISO def
/Times-BoldItalic starnetISO def
/Helvetica starnetISO def
/Helvetica-Oblique starnetISO def
/Helvetica-Bold starnetISO def
/Helvetica-BoldOblique starnetISO def
/Courier starnetISO def
/Courier-Oblique starnetISO def
/Courier-Bold starnetISO def
/Courier-BoldOblique starnetISO def
cleartomark
} bind def

%%BeginResource: procset graphviz 0 0
/coord-font-family /Times-Roman def
/default-font-family /Times-Roman def
/coordfont coord-font-family findfont 8 scalefont def

/InvScaleFactor 1.0 def
/set_scale {
       dup 1 exch div /InvScaleFactor exch def
       scale
} bind def

% styles
/solid { [] 0 setdash } bind def
/dashed { [9 InvScaleFactor mul dup ] 0 setdash } bind def
/dotted { [1 InvScaleFactor mul 6 InvScaleFactor mul] 0 setdash } bind def
/invis {/fill {newpath} def /stroke {newpath} def /show {pop newpath} def} bind def
/bold { 2 setlinewidth } bind def
/filled { } bind def
/unfilled { } bind def
/rounded { } bind def
/diagonals { } bind def
/tapered { } bind def

% hooks for setting color 
/nodecolor { sethsbcolor } bind def
/edgecolor { sethsbcolor } bind def
/graphcolor { sethsbcolor } bind def
/nopcolor {pop pop pop} bind def

/beginpage {	% i j npages
	/npages exch def
	/j exch def
	/i exch def
	/str 10 string def
	npages 1 gt {
		gsave
			coordfont setfont
			0 0 moveto
			(\() show i str cvs show (,) show j str cvs show (\)) show
		grestore
	} if
} bind def

/set_font {
	findfont exch
	scalefont setfont
} def

% draw text fitted to its expected width
/alignedtext {			% width text
	/text exch def
	/width exch def
	gsave
		width 0 gt {
			[] 0 setdash
			text stringwidth pop width exch sub text length div 0 text ashow
		} if
	grestore
} def

/boxprim {				% xcorner ycorner xsize ysize
		4 2 roll
		moveto
		2 copy
		exch 0 rlineto
		0 exch rlineto
		pop neg 0 rlineto
		closepath
} bind def

/ellipse_path {
	/ry exch def
	/rx exch def
	/y exch def
	/x exch def
	matrix currentmatrix
	newpath
	x y translate
	rx ry scale
	0 0 1 0 360 arc
	setmatrix
} bind def

/endpage { showpage } bind def
/showpage { } def

/layercolorseq
	[	% layer color sequence - darkest to lightest
		[0 0 0]
		[.2 .8 .8]
		[.4 .8 .8]
		[.6 .8 .8]
		[.8 .8 .8]
	]
def

/layerlen layercolorseq length def

/setlayer {/maxlayer exch def /curlayer exch def
	layercolorseq curlayer 1 sub layerlen mod get
	aload pop sethsbcolor
	/nodecolor {nopcolor} def
	/edgecolor {nopcolor} def
	/graphcolor {nopcolor} def
} bind def

/onlayer { curlayer ne {invis} if } def

/onlayers {
	/myupper exch def
	/mylower exch def
	curlayer mylower lt
	curlayer myupper gt
	or
	{invis} if
} def

/curlayer 0 def

%%EndResource
%%EndProlog
%%BeginSetup
14 default-font-family set_font
1 setmiterlimit
% /arrowlength 10 def
% /arrowwidth 5 def

% make sure pdfmark is harmless for PS-interpreters other than Distiller
/pdfmark where {pop} {userdict /pdfmark /cleartomark load put} ifelse
% make '<<' and '>>' safe on PS Level 1 devices
/languagelevel where {pop languagelevel}{1} ifelse
2 lt {
    userdict (<<) cvn ([) cvn load put
    userdict (>>) cvn ([) cvn load put
} if

%%EndSetup
setupLatin1
%%Page: 1 1
%%PageBoundingBox: 36 36 690 768
%%PageOrientation: Portrait
0 0 1 beginpage
gsave
36 36 654 732 boxprim clip newpath
1 1 set_scale 0 rotate 40 40 translate
0 0 0 graphcolor
14 /Times-Roman set_font
159.69 6.8 moveto 326.61 (Forest of Prediction Trees Connected to a Neural Network) alignedtext
% XVector
gsave
1 setlinewidth
0 0 0 nodecolor
newpath 482.99 724 moveto
421.01 724 lineto
421.01 688 lineto
482.99 688 lineto
closepath stroke
0 0 0 nodecolor
14 /Times-Roman set_font
428.68 701.8 moveto 46.65 (XVector) alignedtext
grestore
% PN_A3
gsave
1 setlinewidth
0 0 0 nodecolor
220 615 36.46 36.78 ellipse_path stroke
0 0 0 nodecolor
14 /Times-Roman set_font
199 610.8 moveto 42.01 (PN_A3) alignedtext
grestore
% XVector->PN_A3
gsave
1 setlinewidth
0 0 0 edgecolor
newpath 420.71 693 moveto
380.07 677.4 308.91 650.11 263.15 632.56 curveto
stroke
0 0 0 edgecolor
newpath 264.39 629.28 moveto
253.8 628.97 lineto
261.88 635.81 lineto
closepath fill
1 setlinewidth
solid
0 0 0 edgecolor
newpath 264.39 629.28 moveto
253.8 628.97 lineto
261.88 635.81 lineto
closepath stroke
grestore
% PN_B3
gsave
1 setlinewidth
0 0 0 nodecolor
366 615 36.23 36.31 ellipse_path stroke
0 0 0 nodecolor
14 /Times-Roman set_font
345.38 610.8 moveto 41.23 (PN_B3) alignedtext
grestore
% XVector->PN_B3
gsave
1 setlinewidth
0 0 0 edgecolor
newpath 435.42 687.84 moveto
424.81 676.86 410.7 662.26 397.97 649.09 curveto
stroke
0 0 0 edgecolor
newpath 400.14 646.29 moveto
390.67 641.53 lineto
395.1 651.16 lineto
closepath fill
1 setlinewidth
solid
0 0 0 edgecolor
newpath 400.14 646.29 moveto
390.67 641.53 lineto
395.1 651.16 lineto
closepath stroke
grestore
% PN_X
gsave
1 setlinewidth
0 0 0 nodecolor
452 615 32.33 32.44 ellipse_path stroke
0 0 0 nodecolor
14 /Times-Roman set_font
434.5 610.8 moveto 35.01 (PN_X) alignedtext
grestore
% XVector->PN_X
gsave
1 setlinewidth
0 0 0 edgecolor
newpath 452 687.84 moveto
452 679.19 452 668.29 452 657.61 curveto
stroke
0 0 0 edgecolor
newpath 455.5 657.52 moveto
452 647.52 lineto
448.5 657.52 lineto
closepath fill
1 setlinewidth
solid
0 0 0 edgecolor
newpath 455.5 657.52 moveto
452 647.52 lineto
448.5 657.52 lineto
closepath stroke
grestore
% PN_Y
gsave
1 setlinewidth
0 0 0 nodecolor
534 615 32.33 32.44 ellipse_path stroke
0 0 0 nodecolor
14 /Times-Roman set_font
516.5 610.8 moveto 35.01 (PN_Y) alignedtext
grestore
% XVector->PN_Y
gsave
1 setlinewidth
0 0 0 edgecolor
newpath 467.81 687.84 moveto
478.57 676.16 493.11 660.38 505.82 646.59 curveto
stroke
0 0 0 edgecolor
newpath 508.45 648.89 moveto
512.66 639.17 lineto
503.31 644.15 lineto
closepath fill
1 setlinewidth
solid
0 0 0 edgecolor
newpath 508.45 648.89 moveto
512.66 639.17 lineto
503.31 644.15 lineto
closepath stroke
grestore
% PN_Z
gsave
1 setlinewidth
0 0 0 nodecolor
615 615 31.35 31.47 ellipse_path stroke
0 0 0 nodecolor
14 /Times-Roman set_font
598.28 610.8 moveto 33.45 (PN_Z) alignedtext
grestore
% XVector->PN_Z
gsave
1 setlinewidth
0 0 0 edgecolor
newpath 483.21 694.76 moveto
508.95 685.58 545.83 670.69 575 652 curveto
578.54 649.73 582.07 647.15 585.49 644.43 curveto
stroke
0 0 0 edgecolor
newpath 587.81 647.05 moveto
593.2 637.93 lineto
583.3 641.7 lineto
closepath fill
1 setlinewidth
solid
0 0 0 edgecolor
newpath 587.81 647.05 moveto
593.2 637.93 lineto
583.3 641.7 lineto
closepath stroke
grestore
% PN_A2A
gsave
1 setlinewidth
0 0 0 nodecolor
116 499 43.04 43.06 ellipse_path stroke
0 0 0 nodecolor
14 /Times-Roman set_font
89.94 494.8 moveto 52.12 (PN_A2A) alignedtext
grestore
% PN_A3->PN_A2A
gsave
1 setlinewidth
0 0 0 edgecolor
newpath 195.88 587.56 moveto
182.78 573.2 166.33 555.17 151.77 539.21 curveto
stroke
0 0 0 edgecolor
newpath 154.12 536.59 moveto
144.8 531.57 lineto
148.95 541.31 lineto
closepath fill
1 setlinewidth
solid
0 0 0 edgecolor
newpath 154.12 536.59 moveto
144.8 531.57 lineto
148.95 541.31 lineto
closepath stroke
grestore
% PN_A2B
gsave
1 setlinewidth
0 0 0 nodecolor
220 499 42.31 42.58 ellipse_path stroke
0 0 0 nodecolor
14 /Times-Roman set_font
194.33 494.8 moveto 51.34 (PN_A2B) alignedtext
grestore
% PN_A3->PN_A2B
gsave
1 setlinewidth
0 0 0 edgecolor
newpath 220 578.24 moveto
220 569.8 220 560.63 220 551.64 curveto
stroke
0 0 0 edgecolor
newpath 223.5 551.61 moveto
220 541.61 lineto
216.5 551.61 lineto
closepath fill
1 setlinewidth
solid
0 0 0 edgecolor
newpath 223.5 551.61 moveto
220 541.61 lineto
216.5 551.61 lineto
closepath stroke
grestore
% PN_B2A
gsave
1 setlinewidth
0 0 0 nodecolor
428 499 42.31 42.58 ellipse_path stroke
0 0 0 nodecolor
14 /Times-Roman set_font
402.33 494.8 moveto 51.34 (PN_B2A) alignedtext
grestore
% PN_B3->PN_B2A
gsave
1 setlinewidth
0 0 0 edgecolor
newpath 382.94 582.85 moveto
389.17 571.39 396.37 558.16 403.15 545.69 curveto
stroke
0 0 0 edgecolor
newpath 406.3 547.23 moveto
408 536.78 lineto
400.15 543.89 lineto
closepath fill
1 setlinewidth
solid
0 0 0 edgecolor
newpath 406.3 547.23 moveto
408 536.78 lineto
400.15 543.89 lineto
closepath stroke
grestore
% PN_B2B
gsave
1 setlinewidth
0 0 0 nodecolor
325 499 42.08 42.1 ellipse_path stroke
0 0 0 nodecolor
14 /Times-Roman set_font
299.71 494.8 moveto 50.57 (PN_B2B) alignedtext
grestore
% PN_B3->PN_B2B
gsave
1 setlinewidth
0 0 0 edgecolor
newpath 354.03 580.72 moveto
350.37 570.55 346.28 559.16 342.34 548.21 curveto
stroke
0 0 0 edgecolor
newpath 345.61 546.97 moveto
338.94 538.75 lineto
339.03 549.34 lineto
closepath fill
1 setlinewidth
solid
0 0 0 edgecolor
newpath 345.61 546.97 moveto
338.94 538.75 lineto
339.03 549.34 lineto
closepath stroke
grestore
% YX
gsave
1 setlinewidth
0 0 0 nodecolor
newpath 489 298 moveto
435 298 lineto
435 262 lineto
489 262 lineto
closepath stroke
0 0 0 nodecolor
14 /Times-Roman set_font
451.89 275.8 moveto 20.22 (YX) alignedtext
grestore
% PN_X->YX
gsave
1 setlinewidth
0 0 0 edgecolor
newpath 465.34 585.6 moveto
470.73 572.61 476.31 556.84 479 542 curveto
494.29 457.68 477.8 355.83 468.07 308.13 curveto
stroke
0 0 0 edgecolor
newpath 471.48 307.33 moveto
466 298.27 lineto
464.63 308.77 lineto
closepath fill
1 setlinewidth
solid
0 0 0 edgecolor
newpath 471.48 307.33 moveto
466 298.27 lineto
464.63 308.77 lineto
closepath stroke
grestore
% YY
gsave
1 setlinewidth
0 0 0 nodecolor
newpath 561 298 moveto
507 298 lineto
507 262 lineto
561 262 lineto
closepath stroke
0 0 0 nodecolor
14 /Times-Roman set_font
523.89 275.8 moveto 20.22 (YY) alignedtext
grestore
% PN_Y->YY
gsave
1 setlinewidth
0 0 0 edgecolor
newpath 534 582.67 moveto
534 517.76 534 369.53 534 308.27 curveto
stroke
0 0 0 edgecolor
newpath 537.5 308.21 moveto
534 298.21 lineto
530.5 308.21 lineto
closepath fill
1 setlinewidth
solid
0 0 0 edgecolor
newpath 537.5 308.21 moveto
534 298.21 lineto
530.5 308.21 lineto
closepath stroke
grestore
% YZ
gsave
1 setlinewidth
0 0 0 nodecolor
newpath 633 298 moveto
579 298 lineto
579 262 lineto
633 262 lineto
closepath stroke
0 0 0 nodecolor
14 /Times-Roman set_font
596.67 275.8 moveto 18.66 (YZ) alignedtext
grestore
% PN_Z->YZ
gsave
1 setlinewidth
0 0 0 edgecolor
newpath 614.18 583.57 moveto
612.44 519.19 608.41 370.11 606.74 308.45 curveto
stroke
0 0 0 edgecolor
newpath 610.24 308.23 moveto
606.47 298.33 lineto
603.24 308.42 lineto
closepath fill
1 setlinewidth
solid
0 0 0 edgecolor
newpath 610.24 308.23 moveto
606.47 298.33 lineto
603.24 308.42 lineto
closepath stroke
grestore
% PN_A1A
gsave
1 setlinewidth
0 0 0 nodecolor
146 377 43.04 43.06 ellipse_path stroke
0 0 0 nodecolor
14 /Times-Roman set_font
119.94 372.8 moveto 52.12 (PN_A1A) alignedtext
grestore
% PN_A2A->PN_A1A
gsave
1 setlinewidth
0 0 0 edgecolor
newpath 126.24 457.04 moveto
128.48 448.06 130.89 438.45 133.22 429.14 curveto
stroke
0 0 0 edgecolor
newpath 136.67 429.73 moveto
135.7 419.18 lineto
129.88 428.04 lineto
closepath fill
1 setlinewidth
solid
0 0 0 edgecolor
newpath 136.67 429.73 moveto
135.7 419.18 lineto
129.88 428.04 lineto
closepath stroke
grestore
% PN_A1B
gsave
1 setlinewidth
0 0 0 nodecolor
42 377 42.31 42.58 ellipse_path stroke
0 0 0 nodecolor
14 /Times-Roman set_font
16.33 372.8 moveto 51.34 (PN_A1B) alignedtext
grestore
% PN_A2A->PN_A1B
gsave
1 setlinewidth
0 0 0 edgecolor
newpath 93.8 462 moveto
86.12 449.54 77.42 435.44 69.38 422.39 curveto
stroke
0 0 0 edgecolor
newpath 72.16 420.24 moveto
63.93 413.57 lineto
66.2 423.91 lineto
closepath fill
1 setlinewidth
solid
0 0 0 edgecolor
newpath 72.16 420.24 moveto
63.93 413.57 lineto
66.2 423.91 lineto
closepath stroke
grestore
% Y1
gsave
1 setlinewidth
0 0 0 nodecolor
newpath 341 298 moveto
287 298 lineto
287 262 lineto
341 262 lineto
closepath stroke
0 0 0 nodecolor
14 /Times-Roman set_font
305.44 275.8 moveto 17.11 (Y1) alignedtext
grestore
% PN_A2B->Y1
gsave
1 setlinewidth
0 0 0 edgecolor
newpath 214.74 456.61 moveto
212.35 421.53 213.95 371.15 236 334 curveto
245.64 317.76 262.43 305.39 277.97 296.71 curveto
stroke
0 0 0 edgecolor
newpath 279.68 299.76 moveto
286.91 292.02 lineto
276.43 293.56 lineto
closepath fill
1 setlinewidth
solid
0 0 0 edgecolor
newpath 279.68 299.76 moveto
286.91 292.02 lineto
276.43 293.56 lineto
closepath stroke
grestore
% PN_A1A->Y1
gsave
1 setlinewidth
0 0 0 edgecolor
newpath 179.64 349.59 moveto
187.15 344.16 195.2 338.68 203 334 curveto
226.93 319.65 255.35 306.14 277.44 296.35 curveto
stroke
0 0 0 edgecolor
newpath 279.04 299.47 moveto
286.8 292.26 lineto
276.23 293.06 lineto
closepath fill
1 setlinewidth
solid
0 0 0 edgecolor
newpath 279.04 299.47 moveto
286.8 292.26 lineto
276.23 293.06 lineto
closepath stroke
grestore
% PN_A1B->Y1
gsave
1 setlinewidth
0 0 0 edgecolor
newpath 72.64 347.61 moveto
79.32 342.5 86.61 337.64 94 334 curveto
154.16 304.35 231.91 290.68 277.04 284.86 curveto
stroke
0 0 0 edgecolor
newpath 277.47 288.33 moveto
286.97 283.64 lineto
276.62 281.38 lineto
closepath fill
1 setlinewidth
solid
0 0 0 edgecolor
newpath 277.47 288.33 moveto
286.97 283.64 lineto
276.62 281.38 lineto
closepath stroke
grestore
% NN1
gsave
1 setlinewidth
0 0 0 nodecolor
612 196 26.95 27.1 ellipse_path stroke
0 0 0 nodecolor
14 /Times-Roman set_font
598.39 191.8 moveto 27.22 (NN1) alignedtext
grestore
% Y1->NN1
gsave
1 setlinewidth
0 0 0 edgecolor
newpath 341.23 266.41 moveto
345.44 264.75 349.8 263.22 354 262 curveto
449.6 234.34 483.86 265.95 575 226 curveto
578.06 224.66 581.1 223 584.03 221.16 curveto
stroke
0 0 0 edgecolor
newpath 586.27 223.86 moveto
592.45 215.26 lineto
582.25 218.13 lineto
closepath fill
1 setlinewidth
solid
0 0 0 edgecolor
newpath 586.27 223.86 moveto
592.45 215.26 lineto
582.25 218.13 lineto
closepath stroke
grestore
% NN2
gsave
1 setlinewidth
0 0 0 nodecolor
310 196 26.95 27.1 ellipse_path stroke
0 0 0 nodecolor
14 /Times-Roman set_font
296.39 191.8 moveto 27.22 (NN2) alignedtext
grestore
% Y1->NN2
gsave
1 setlinewidth
0 0 0 edgecolor
newpath 313.15 261.61 moveto
312.75 253.38 312.25 243.21 311.78 233.41 curveto
stroke
0 0 0 edgecolor
newpath 315.27 233.23 moveto
311.29 223.41 lineto
308.28 233.57 lineto
closepath fill
1 setlinewidth
solid
0 0 0 edgecolor
newpath 315.27 233.23 moveto
311.29 223.41 lineto
308.28 233.57 lineto
closepath stroke
grestore
% NNX
gsave
1 setlinewidth
0 0 0 nodecolor
385 196 28.9 29.03 ellipse_path stroke
0 0 0 nodecolor
14 /Times-Roman set_font
369.83 191.8 moveto 30.33 (NNX) alignedtext
grestore
% Y1->NNX
gsave
1 setlinewidth
0 0 0 edgecolor
newpath 329.06 261.61 moveto
337.85 251.45 349.19 238.35 359.36 226.61 curveto
stroke
0 0 0 edgecolor
newpath 362.27 228.6 moveto
366.17 218.75 lineto
356.97 224.02 lineto
closepath fill
1 setlinewidth
solid
0 0 0 edgecolor
newpath 362.27 228.6 moveto
366.17 218.75 lineto
356.97 224.02 lineto
closepath stroke
grestore
% NNY
gsave
1 setlinewidth
0 0 0 nodecolor
462 196 28.9 29.03 ellipse_path stroke
0 0 0 nodecolor
14 /Times-Roman set_font
446.83 191.8 moveto 30.33 (NNY) alignedtext
grestore
% Y1->NNY
gsave
1 setlinewidth
0 0 0 edgecolor
newpath 341.17 267.5 moveto
363.68 257.56 396.21 242.28 423 226 curveto
425.65 224.39 428.35 222.64 431.03 220.83 curveto
stroke
0 0 0 edgecolor
newpath 433.25 223.54 moveto
439.4 214.91 lineto
429.21 217.82 lineto
closepath fill
1 setlinewidth
solid
0 0 0 edgecolor
newpath 433.25 223.54 moveto
439.4 214.91 lineto
429.21 217.82 lineto
closepath stroke
grestore
% NNZ
gsave
1 setlinewidth
0 0 0 nodecolor
538 196 27.93 28.07 ellipse_path stroke
0 0 0 nodecolor
14 /Times-Roman set_font
523.61 191.8 moveto 28.77 (NNZ) alignedtext
grestore
% Y1->NNZ
gsave
1 setlinewidth
0 0 0 edgecolor
newpath 341.32 266.71 moveto
345.52 265.01 349.85 263.38 354 262 curveto
417.4 240.86 439.73 254.88 500 226 curveto
502.99 224.57 505.98 222.87 508.89 221.03 curveto
stroke
0 0 0 edgecolor
newpath 511.07 223.78 moveto
517.3 215.21 lineto
507.09 218.02 lineto
closepath fill
1 setlinewidth
solid
0 0 0 edgecolor
newpath 511.07 223.78 moveto
517.3 215.21 lineto
507.09 218.02 lineto
closepath stroke
grestore
% Y2
gsave
1 setlinewidth
0 0 0 nodecolor
newpath 417 298 moveto
363 298 lineto
363 262 lineto
417 262 lineto
closepath stroke
0 0 0 nodecolor
14 /Times-Roman set_font
381.44 275.8 moveto 17.11 (Y2) alignedtext
grestore
% PN_B2A->Y2
gsave
1 setlinewidth
0 0 0 edgecolor
newpath 440.82 458.39 moveto
449.65 424.2 457.17 374.13 441 334 curveto
436.65 323.21 428.94 313.39 420.81 305.21 curveto
stroke
0 0 0 edgecolor
newpath 423 302.46 moveto
413.3 298.18 lineto
418.21 307.57 lineto
closepath fill
1 setlinewidth
solid
0 0 0 edgecolor
newpath 423 302.46 moveto
413.3 298.18 lineto
418.21 307.57 lineto
closepath stroke
grestore
% PN_B1A
gsave
1 setlinewidth
0 0 0 nodecolor
390 377 42.31 42.58 ellipse_path stroke
0 0 0 nodecolor
14 /Times-Roman set_font
364.33 372.8 moveto 51.34 (PN_B1A) alignedtext
grestore
% PN_B2B->PN_B1A
gsave
1 setlinewidth
0 0 0 edgecolor
newpath 344.68 461.67 moveto
351.17 449.68 358.48 436.19 365.3 423.6 curveto
stroke
0 0 0 edgecolor
newpath 368.48 425.08 moveto
370.16 414.62 lineto
362.32 421.75 lineto
closepath fill
1 setlinewidth
solid
0 0 0 edgecolor
newpath 368.48 425.08 moveto
370.16 414.62 lineto
362.32 421.75 lineto
closepath stroke
grestore
% PN_B1B
gsave
1 setlinewidth
0 0 0 nodecolor
287 377 42.08 42.1 ellipse_path stroke
0 0 0 nodecolor
14 /Times-Roman set_font
261.71 372.8 moveto 50.57 (PN_B1B) alignedtext
grestore
% PN_B2B->PN_B1B
gsave
1 setlinewidth
0 0 0 edgecolor
newpath 312.56 458.71 moveto
309.34 448.55 305.84 437.5 302.49 426.92 curveto
stroke
0 0 0 edgecolor
newpath 305.83 425.86 moveto
299.47 417.38 lineto
299.15 427.97 lineto
closepath fill
1 setlinewidth
solid
0 0 0 edgecolor
newpath 305.83 425.86 moveto
299.47 417.38 lineto
299.15 427.97 lineto
closepath stroke
grestore
% PN_B1A->Y2
gsave
1 setlinewidth
0 0 0 edgecolor
newpath 390 334.33 moveto
390 325.46 390 316.31 390 308.15 curveto
stroke
0 0 0 edgecolor
newpath 393.5 308.09 moveto
390 298.09 lineto
386.5 308.09 lineto
closepath fill
1 setlinewidth
solid
0 0 0 edgecolor
newpath 393.5 308.09 moveto
390 298.09 lineto
386.5 308.09 lineto
closepath stroke
grestore
% PN_B1B->Y2
gsave
1 setlinewidth
0 0 0 edgecolor
newpath 317.62 347.75 moveto
332.33 334.19 349.78 318.1 363.86 305.11 curveto
stroke
0 0 0 edgecolor
newpath 366.31 307.61 moveto
371.29 298.25 lineto
361.57 302.46 lineto
closepath fill
1 setlinewidth
solid
0 0 0 edgecolor
newpath 366.31 307.61 moveto
371.29 298.25 lineto
361.57 302.46 lineto
closepath stroke
grestore
% Y2->NN1
gsave
1 setlinewidth
0 0 0 edgecolor
newpath 417.27 265.42 moveto
420.19 264.18 423.13 263.01 426 262 curveto
490.25 239.34 513.68 255.69 575 226 curveto
578.01 224.54 581.01 222.81 583.92 220.92 curveto
stroke
0 0 0 edgecolor
newpath 586.2 223.59 moveto
592.3 214.94 lineto
582.13 217.9 lineto
closepath fill
1 setlinewidth
solid
0 0 0 edgecolor
newpath 586.2 223.59 moveto
592.3 214.94 lineto
582.13 217.9 lineto
closepath stroke
grestore
% Y2->NN2
gsave
1 setlinewidth
0 0 0 edgecolor
newpath 373.03 261.61 moveto
362.25 250.55 348.07 236.02 335.89 223.54 curveto
stroke
0 0 0 edgecolor
newpath 338.11 220.8 moveto
328.62 216.08 lineto
333.1 225.69 lineto
closepath fill
1 setlinewidth
solid
0 0 0 edgecolor
newpath 338.11 220.8 moveto
328.62 216.08 lineto
333.1 225.69 lineto
closepath stroke
grestore
% Y2->NNX
gsave
1 setlinewidth
0 0 0 edgecolor
newpath 388.94 261.61 moveto
388.47 253.96 387.91 244.64 387.35 235.49 curveto
stroke
0 0 0 edgecolor
newpath 390.83 235.1 moveto
386.73 225.33 lineto
383.84 235.53 lineto
closepath fill
1 setlinewidth
solid
0 0 0 edgecolor
newpath 390.83 235.1 moveto
386.73 225.33 lineto
383.84 235.53 lineto
closepath stroke
grestore
% Y2->NNY
gsave
1 setlinewidth
0 0 0 edgecolor
newpath 405.27 261.61 moveto
414.34 251.27 426.09 237.9 436.53 226.01 curveto
stroke
0 0 0 edgecolor
newpath 439.2 228.27 moveto
443.17 218.45 lineto
433.94 223.66 lineto
closepath fill
1 setlinewidth
solid
0 0 0 edgecolor
newpath 439.2 228.27 moveto
443.17 218.45 lineto
433.94 223.66 lineto
closepath stroke
grestore
% Y2->NNZ
gsave
1 setlinewidth
0 0 0 edgecolor
newpath 417.05 266.14 moveto
448.36 251.22 496.14 228.37 500 226 curveto
502.76 224.31 505.56 222.46 508.32 220.54 curveto
stroke
0 0 0 edgecolor
newpath 510.4 223.36 moveto
516.44 214.65 lineto
506.29 217.69 lineto
closepath fill
1 setlinewidth
solid
0 0 0 edgecolor
newpath 510.4 223.36 moveto
516.44 214.65 lineto
506.29 217.69 lineto
closepath stroke
grestore
% YX->NN1
gsave
1 setlinewidth
0 0 0 edgecolor
newpath 489.12 266.18 moveto
492.12 264.77 495.12 263.35 498 262 curveto
532.19 245.93 542.81 245.78 575 226 curveto
577.78 224.29 580.6 222.41 583.37 220.45 curveto
stroke
0 0 0 edgecolor
newpath 585.53 223.2 moveto
591.47 214.43 lineto
581.36 217.58 lineto
closepath fill
1 setlinewidth
solid
0 0 0 edgecolor
newpath 585.53 223.2 moveto
591.47 214.43 lineto
581.36 217.58 lineto
closepath stroke
grestore
% YX->NN2
gsave
1 setlinewidth
0 0 0 edgecolor
newpath 434.89 266.15 moveto
431.89 264.74 428.88 263.34 426 262 curveto
391 245.76 379.97 246.04 347 226 curveto
344.21 224.3 341.39 222.43 338.61 220.48 curveto
stroke
0 0 0 edgecolor
newpath 340.62 217.61 moveto
330.51 214.46 lineto
336.46 223.23 lineto
closepath fill
1 setlinewidth
solid
0 0 0 edgecolor
newpath 340.62 217.61 moveto
330.51 214.46 lineto
336.46 223.23 lineto
closepath stroke
grestore
% YX->NNX
gsave
1 setlinewidth
0 0 0 edgecolor
newpath 445.67 261.61 moveto
435.82 251.12 423.03 237.5 411.74 225.48 curveto
stroke
0 0 0 edgecolor
newpath 413.98 222.75 moveto
404.58 217.85 lineto
408.87 227.54 lineto
closepath fill
1 setlinewidth
solid
0 0 0 edgecolor
newpath 413.98 222.75 moveto
404.58 217.85 lineto
408.87 227.54 lineto
closepath stroke
grestore
% YX->NNY
gsave
1 setlinewidth
0 0 0 edgecolor
newpath 462 261.61 moveto
462 253.96 462 244.64 462 235.49 curveto
stroke
0 0 0 edgecolor
newpath 465.5 235.33 moveto
462 225.33 lineto
458.5 235.33 lineto
closepath fill
1 setlinewidth
solid
0 0 0 edgecolor
newpath 465.5 235.33 moveto
462 225.33 lineto
458.5 235.33 lineto
closepath stroke
grestore
% YX->NNZ
gsave
1 setlinewidth
0 0 0 edgecolor
newpath 478.12 261.61 moveto
488.08 250.86 501.08 236.84 512.42 224.6 curveto
stroke
0 0 0 edgecolor
newpath 515 226.97 moveto
519.23 217.26 lineto
509.86 222.21 lineto
closepath fill
1 setlinewidth
solid
0 0 0 edgecolor
newpath 515 226.97 moveto
519.23 217.26 lineto
509.86 222.21 lineto
closepath stroke
grestore
% YY->NN1
gsave
1 setlinewidth
0 0 0 edgecolor
newpath 550.54 261.61 moveto
560.99 250.63 574.69 236.23 586.5 223.8 curveto
stroke
0 0 0 edgecolor
newpath 589.21 226.03 moveto
593.57 216.37 lineto
584.14 221.21 lineto
closepath fill
1 setlinewidth
solid
0 0 0 edgecolor
newpath 589.21 226.03 moveto
593.57 216.37 lineto
584.14 221.21 lineto
closepath stroke
grestore
% YY->NN2
gsave
1 setlinewidth
0 0 0 edgecolor
newpath 506.73 265.41 moveto
503.82 264.17 500.87 263.01 498 262 curveto
432.9 239.15 409.14 255.97 347 226 curveto
343.99 224.55 340.99 222.81 338.08 220.93 curveto
stroke
0 0 0 edgecolor
newpath 339.86 217.9 moveto
329.69 214.95 lineto
335.8 223.6 lineto
closepath fill
1 setlinewidth
solid
0 0 0 edgecolor
newpath 339.86 217.9 moveto
329.69 214.95 lineto
335.8 223.6 lineto
closepath stroke
grestore
% YY->NNX
gsave
1 setlinewidth
0 0 0 edgecolor
newpath 506.95 266.13 moveto
475.65 251.21 427.88 228.35 424 226 curveto
421.34 224.39 418.64 222.65 415.97 220.84 curveto
stroke
0 0 0 edgecolor
newpath 417.78 217.83 moveto
407.59 214.93 lineto
413.74 223.55 lineto
closepath fill
1 setlinewidth
solid
0 0 0 edgecolor
newpath 417.78 217.83 moveto
407.59 214.93 lineto
413.74 223.55 lineto
closepath stroke
grestore
% YY->NNY
gsave
1 setlinewidth
0 0 0 edgecolor
newpath 518.73 261.61 moveto
509.66 251.27 497.91 237.9 487.47 226.01 curveto
stroke
0 0 0 edgecolor
newpath 490.06 223.66 moveto
480.83 218.45 lineto
484.8 228.27 lineto
closepath fill
1 setlinewidth
solid
0 0 0 edgecolor
newpath 490.06 223.66 moveto
480.83 218.45 lineto
484.8 228.27 lineto
closepath stroke
grestore
% YY->NNZ
gsave
1 setlinewidth
0 0 0 edgecolor
newpath 534.85 261.61 moveto
535.24 253.67 535.71 243.94 536.17 234.46 curveto
stroke
0 0 0 edgecolor
newpath 539.67 234.53 moveto
536.66 224.37 lineto
532.68 234.19 lineto
closepath fill
1 setlinewidth
solid
0 0 0 edgecolor
newpath 539.67 234.53 moveto
536.66 224.37 lineto
532.68 234.19 lineto
closepath stroke
grestore
% YZ->NN1
gsave
1 setlinewidth
0 0 0 edgecolor
newpath 607.27 261.61 moveto
607.87 253.38 608.62 243.21 609.34 233.41 curveto
stroke
0 0 0 edgecolor
newpath 612.83 233.64 moveto
610.07 223.41 lineto
605.85 233.13 lineto
closepath fill
1 setlinewidth
solid
0 0 0 edgecolor
newpath 612.83 233.64 moveto
610.07 223.41 lineto
605.85 233.13 lineto
closepath stroke
grestore
% YZ->NN2
gsave
1 setlinewidth
0 0 0 edgecolor
newpath 578.8 265.19 moveto
575.87 263.99 572.9 262.9 570 262 curveto
474.11 232.27 438.98 266.24 347 226 curveto
343.93 224.66 340.9 223 337.97 221.17 curveto
stroke
0 0 0 edgecolor
newpath 339.74 218.14 moveto
329.55 215.26 lineto
335.72 223.87 lineto
closepath fill
1 setlinewidth
solid
0 0 0 edgecolor
newpath 339.74 218.14 moveto
329.55 215.26 lineto
335.72 223.87 lineto
closepath stroke
grestore
% YZ->NNX
gsave
1 setlinewidth
0 0 0 edgecolor
newpath 578.72 265.43 moveto
575.81 264.19 572.87 263.02 570 262 curveto
507.03 239.62 484.45 254.5 424 226 curveto
421.19 224.68 418.38 223.13 415.63 221.46 curveto
stroke
0 0 0 edgecolor
newpath 417.39 218.42 moveto
407.13 215.79 lineto
413.51 224.25 lineto
closepath fill
1 setlinewidth
solid
0 0 0 edgecolor
newpath 417.39 218.42 moveto
407.13 215.79 lineto
413.51 224.25 lineto
closepath stroke
grestore
% YZ->NNY
gsave
1 setlinewidth
0 0 0 edgecolor
newpath 578.64 265.85 moveto
552.44 253.14 514.9 234.59 501 226 curveto
498.36 224.37 495.67 222.6 493 220.78 curveto
stroke
0 0 0 edgecolor
newpath 494.82 217.78 moveto
484.64 214.85 lineto
490.77 223.49 lineto
closepath fill
1 setlinewidth
solid
0 0 0 edgecolor
newpath 494.82 217.78 moveto
484.64 214.85 lineto
490.77 223.49 lineto
closepath stroke
grestore
% YZ->NNZ
gsave
1 setlinewidth
0 0 0 edgecolor
newpath 591.58 261.61 moveto
583.03 251.3 571.97 237.96 562.12 226.08 curveto
stroke
0 0 0 edgecolor
newpath 564.62 223.61 moveto
555.54 218.15 lineto
559.23 228.08 lineto
closepath fill
1 setlinewidth
solid
0 0 0 edgecolor
newpath 564.62 223.61 moveto
555.54 218.15 lineto
559.23 228.08 lineto
closepath stroke
grestore
% Y_Predition
gsave
1 setlinewidth
0 0 0 nodecolor
462 76 53.01 53.18 ellipse_path stroke
0 0 0 nodecolor
14 /Times-Roman set_font
427.78 71.8 moveto 68.44 (Y_Predition) alignedtext
grestore
% NN1->Y_Predition
gsave
1 setlinewidth
0 0 0 edgecolor
newpath 590.83 178.34 moveto
570.33 162.22 538.51 137.19 511.62 116.04 curveto
stroke
0 0 0 edgecolor
newpath 513.48 113.04 moveto
503.45 109.61 lineto
509.15 118.54 lineto
closepath fill
1 setlinewidth
solid
0 0 0 edgecolor
newpath 513.48 113.04 moveto
503.45 109.61 lineto
509.15 118.54 lineto
closepath stroke
grestore
% NN2->Y_Predition
gsave
1 setlinewidth
0 0 0 edgecolor
newpath 331.11 178.41 moveto
336.3 174.35 341.85 170.01 347 166 curveto
368.27 149.43 391.8 131.2 412.01 115.58 curveto
stroke
0 0 0 edgecolor
newpath 414.39 118.16 moveto
420.16 109.28 lineto
410.11 112.62 lineto
closepath fill
1 setlinewidth
solid
0 0 0 edgecolor
newpath 414.39 118.16 moveto
420.16 109.28 lineto
410.11 112.62 lineto
closepath stroke
grestore
% NNX->Y_Predition
gsave
1 setlinewidth
0 0 0 edgecolor
newpath 400.58 171.12 moveto
408.37 159.19 418.12 144.24 427.55 129.79 curveto
stroke
0 0 0 edgecolor
newpath 430.51 131.66 moveto
433.05 121.37 lineto
424.65 127.83 lineto
closepath fill
1 setlinewidth
solid
0 0 0 edgecolor
newpath 430.51 131.66 moveto
433.05 121.37 lineto
424.65 127.83 lineto
closepath stroke
grestore
% NNY->Y_Predition
gsave
1 setlinewidth
0 0 0 edgecolor
newpath 462 166.44 moveto
462 158.32 462 149.15 462 139.85 curveto
stroke
0 0 0 edgecolor
newpath 465.5 139.75 moveto
462 129.75 lineto
458.5 139.75 lineto
closepath fill
1 setlinewidth
solid
0 0 0 edgecolor
newpath 465.5 139.75 moveto
462 129.75 lineto
458.5 139.75 lineto
closepath stroke
grestore
% NNZ->Y_Predition
gsave
1 setlinewidth
0 0 0 edgecolor
newpath 522.98 171.69 moveto
515.25 159.67 505.47 144.49 496.03 129.83 curveto
stroke
0 0 0 edgecolor
newpath 498.88 127.79 moveto
490.52 121.28 lineto
492.99 131.58 lineto
closepath fill
1 setlinewidth
solid
0 0 0 edgecolor
newpath 498.88 127.79 moveto
490.52 121.28 lineto
492.99 131.58 lineto
closepath stroke
grestore
endpage
showpage
grestore
%%PageTrailer
%%EndPage: 1
%%Trailer
end
restore
%%EOF
